%!PS-Adobe-3.0 EPSF-3.0
%%Creator: (MATLAB, The Mathworks, Inc. Version 9.7.0.1190202 \(R2019b\). Operating System: Mac OS X)
%%Title: /Users/xander/git/brownian_dynamics/Q1/gauss_rms.eps
%%CreationDate: 2019-10-04T21:56:02
%%Pages: (atend)
%%BoundingBox: 0 0 560 420
%%LanguageLevel: 3
%%EndComments
%%BeginProlog
%%BeginResource: procset (Apache XML Graphics Std ProcSet) 1.2 0
%%Version: 1.2 0
%%Copyright: (Copyright 2001-2003,2010 The Apache Software Foundation. License terms: http://www.apache.org/licenses/LICENSE-2.0)
/bd{bind def}bind def
/ld{load def}bd
/GR/grestore ld
/GS/gsave ld
/RM/rmoveto ld
/C/curveto ld
/t/show ld
/L/lineto ld
/ML/setmiterlimit ld
/CT/concat ld
/f/fill ld
/N/newpath ld
/S/stroke ld
/CC/setcmykcolor ld
/A/ashow ld
/cp/closepath ld
/RC/setrgbcolor ld
/LJ/setlinejoin ld
/GC/setgray ld
/LW/setlinewidth ld
/M/moveto ld
/re {4 2 roll M
1 index 0 rlineto
0 exch rlineto
neg 0 rlineto
cp } bd
/_ctm matrix def
/_tm matrix def
/BT { _ctm currentmatrix pop matrix _tm copy pop 0 0 moveto } bd
/ET { _ctm setmatrix } bd
/iTm { _ctm setmatrix _tm concat } bd
/Tm { _tm astore pop iTm 0 0 moveto } bd
/ux 0.0 def
/uy 0.0 def
/F {
  /Tp exch def
  /Tf exch def
  Tf findfont Tp scalefont setfont
  /cf Tf def  /cs Tp def
} bd
/ULS {currentpoint /uy exch def /ux exch def} bd
/ULE {
  /Tcx currentpoint pop def
  gsave
  newpath
  cf findfont cs scalefont dup
  /FontMatrix get 0 get /Ts exch def /FontInfo get dup
  /UnderlinePosition get Ts mul /To exch def
  /UnderlineThickness get Ts mul /Tt exch def
  ux uy To add moveto  Tcx uy To add lineto
  Tt setlinewidth stroke
  grestore
} bd
/OLE {
  /Tcx currentpoint pop def
  gsave
  newpath
  cf findfont cs scalefont dup
  /FontMatrix get 0 get /Ts exch def /FontInfo get dup
  /UnderlinePosition get Ts mul /To exch def
  /UnderlineThickness get Ts mul /Tt exch def
  ux uy To add cs add moveto Tcx uy To add cs add lineto
  Tt setlinewidth stroke
  grestore
} bd
/SOE {
  /Tcx currentpoint pop def
  gsave
  newpath
  cf findfont cs scalefont dup
  /FontMatrix get 0 get /Ts exch def /FontInfo get dup
  /UnderlinePosition get Ts mul /To exch def
  /UnderlineThickness get Ts mul /Tt exch def
  ux uy To add cs 10 mul 26 idiv add moveto Tcx uy To add cs 10 mul 26 idiv add lineto
  Tt setlinewidth stroke
  grestore
} bd
/QT {
/Y22 exch store
/X22 exch store
/Y21 exch store
/X21 exch store
currentpoint
/Y21 load 2 mul add 3 div exch
/X21 load 2 mul add 3 div exch
/X21 load 2 mul /X22 load add 3 div
/Y21 load 2 mul /Y22 load add 3 div
/X22 load /Y22 load curveto
} bd
/SSPD {
dup length /d exch dict def
{
/v exch def
/k exch def
currentpagedevice k known {
/cpdv currentpagedevice k get def
v cpdv ne {
/upd false def
/nullv v type /nulltype eq def
/nullcpdv cpdv type /nulltype eq def
nullv nullcpdv or
{
/upd true def
} {
/sametype v type cpdv type eq def
sametype {
v type /arraytype eq {
/vlen v length def
/cpdvlen cpdv length def
vlen cpdvlen eq {
0 1 vlen 1 sub {
/i exch def
/obj v i get def
/cpdobj cpdv i get def
obj cpdobj ne {
/upd true def
exit
} if
} for
} {
/upd true def
} ifelse
} {
v type /dicttype eq {
v {
/dv exch def
/dk exch def
/cpddv cpdv dk get def
dv cpddv ne {
/upd true def
exit
} if
} forall
} {
/upd true def
} ifelse
} ifelse
} if
} ifelse
upd true eq {
d k v put
} if
} if
} if
} forall
d length 0 gt {
d setpagedevice
} if
} bd
/RE { % /NewFontName [NewEncodingArray] /FontName RE -
  findfont dup length dict begin
  {
    1 index /FID ne
    {def} {pop pop} ifelse
  } forall
  /Encoding exch def
  /FontName 1 index def
  currentdict definefont pop
  end
} bind def
%%EndResource
%%BeginResource: procset (Apache XML Graphics EPS ProcSet) 1.0 0
%%Version: 1.0 0
%%Copyright: (Copyright 2002-2003 The Apache Software Foundation. License terms: http://www.apache.org/licenses/LICENSE-2.0)
/BeginEPSF { %def
/b4_Inc_state save def         % Save state for cleanup
/dict_count countdictstack def % Count objects on dict stack
/op_count count 1 sub def      % Count objects on operand stack
userdict begin                 % Push userdict on dict stack
/showpage { } def              % Redefine showpage, { } = null proc
0 setgray 0 setlinecap         % Prepare graphics state
1 setlinewidth 0 setlinejoin
10 setmiterlimit [ ] 0 setdash newpath
/languagelevel where           % If level not equal to 1 then
{pop languagelevel             % set strokeadjust and
1 ne                           % overprint to their defaults.
{false setstrokeadjust false setoverprint
} if
} if
} bd
/EndEPSF { %def
count op_count sub {pop} repeat            % Clean up stacks
countdictstack dict_count sub {end} repeat
b4_Inc_state restore
} bd
%%EndResource
%FOPBeginFontDict
%%IncludeResource: font Courier-Oblique
%%IncludeResource: font Courier-BoldOblique
%%IncludeResource: font Courier-Bold
%%IncludeResource: font ZapfDingbats
%%IncludeResource: font Symbol
%%IncludeResource: font Helvetica
%%IncludeResource: font Helvetica-Oblique
%%IncludeResource: font Helvetica-Bold
%%IncludeResource: font Helvetica-BoldOblique
%%IncludeResource: font Times-Roman
%%IncludeResource: font Times-Italic
%%IncludeResource: font Times-Bold
%%IncludeResource: font Times-BoldItalic
%%IncludeResource: font Courier
%FOPEndFontDict
%%BeginResource: encoding WinAnsiEncoding
/WinAnsiEncoding [
/.notdef /.notdef /.notdef /.notdef /.notdef
/.notdef /.notdef /.notdef /.notdef /.notdef
/.notdef /.notdef /.notdef /.notdef /.notdef
/.notdef /.notdef /.notdef /.notdef /.notdef
/.notdef /.notdef /.notdef /.notdef /.notdef
/.notdef /.notdef /.notdef /.notdef /.notdef
/.notdef /.notdef /space /exclam /quotedbl
/numbersign /dollar /percent /ampersand /quotesingle
/parenleft /parenright /asterisk /plus /comma
/hyphen /period /slash /zero /one
/two /three /four /five /six
/seven /eight /nine /colon /semicolon
/less /equal /greater /question /at
/A /B /C /D /E
/F /G /H /I /J
/K /L /M /N /O
/P /Q /R /S /T
/U /V /W /X /Y
/Z /bracketleft /backslash /bracketright /asciicircum
/underscore /quoteleft /a /b /c
/d /e /f /g /h
/i /j /k /l /m
/n /o /p /q /r
/s /t /u /v /w
/x /y /z /braceleft /bar
/braceright /asciitilde /bullet /Euro /bullet
/quotesinglbase /florin /quotedblbase /ellipsis /dagger
/daggerdbl /circumflex /perthousand /Scaron /guilsinglleft
/OE /bullet /Zcaron /bullet /bullet
/quoteleft /quoteright /quotedblleft /quotedblright /bullet
/endash /emdash /asciitilde /trademark /scaron
/guilsinglright /oe /bullet /zcaron /Ydieresis
/space /exclamdown /cent /sterling /currency
/yen /brokenbar /section /dieresis /copyright
/ordfeminine /guillemotleft /logicalnot /sfthyphen /registered
/macron /degree /plusminus /twosuperior /threesuperior
/acute /mu /paragraph /middot /cedilla
/onesuperior /ordmasculine /guillemotright /onequarter /onehalf
/threequarters /questiondown /Agrave /Aacute /Acircumflex
/Atilde /Adieresis /Aring /AE /Ccedilla
/Egrave /Eacute /Ecircumflex /Edieresis /Igrave
/Iacute /Icircumflex /Idieresis /Eth /Ntilde
/Ograve /Oacute /Ocircumflex /Otilde /Odieresis
/multiply /Oslash /Ugrave /Uacute /Ucircumflex
/Udieresis /Yacute /Thorn /germandbls /agrave
/aacute /acircumflex /atilde /adieresis /aring
/ae /ccedilla /egrave /eacute /ecircumflex
/edieresis /igrave /iacute /icircumflex /idieresis
/eth /ntilde /ograve /oacute /ocircumflex
/otilde /odieresis /divide /oslash /ugrave
/uacute /ucircumflex /udieresis /yacute /thorn
/ydieresis
] def
%%EndResource
%FOPBeginFontReencode
/Courier-Oblique findfont
dup length dict begin
  {1 index /FID ne {def} {pop pop} ifelse} forall
  /Encoding WinAnsiEncoding def
  currentdict
end
/Courier-Oblique exch definefont pop
/Courier-BoldOblique findfont
dup length dict begin
  {1 index /FID ne {def} {pop pop} ifelse} forall
  /Encoding WinAnsiEncoding def
  currentdict
end
/Courier-BoldOblique exch definefont pop
/Courier-Bold findfont
dup length dict begin
  {1 index /FID ne {def} {pop pop} ifelse} forall
  /Encoding WinAnsiEncoding def
  currentdict
end
/Courier-Bold exch definefont pop
/Helvetica findfont
dup length dict begin
  {1 index /FID ne {def} {pop pop} ifelse} forall
  /Encoding WinAnsiEncoding def
  currentdict
end
/Helvetica exch definefont pop
/Helvetica-Oblique findfont
dup length dict begin
  {1 index /FID ne {def} {pop pop} ifelse} forall
  /Encoding WinAnsiEncoding def
  currentdict
end
/Helvetica-Oblique exch definefont pop
/Helvetica-Bold findfont
dup length dict begin
  {1 index /FID ne {def} {pop pop} ifelse} forall
  /Encoding WinAnsiEncoding def
  currentdict
end
/Helvetica-Bold exch definefont pop
/Helvetica-BoldOblique findfont
dup length dict begin
  {1 index /FID ne {def} {pop pop} ifelse} forall
  /Encoding WinAnsiEncoding def
  currentdict
end
/Helvetica-BoldOblique exch definefont pop
/Times-Roman findfont
dup length dict begin
  {1 index /FID ne {def} {pop pop} ifelse} forall
  /Encoding WinAnsiEncoding def
  currentdict
end
/Times-Roman exch definefont pop
/Times-Italic findfont
dup length dict begin
  {1 index /FID ne {def} {pop pop} ifelse} forall
  /Encoding WinAnsiEncoding def
  currentdict
end
/Times-Italic exch definefont pop
/Times-Bold findfont
dup length dict begin
  {1 index /FID ne {def} {pop pop} ifelse} forall
  /Encoding WinAnsiEncoding def
  currentdict
end
/Times-Bold exch definefont pop
/Times-BoldItalic findfont
dup length dict begin
  {1 index /FID ne {def} {pop pop} ifelse} forall
  /Encoding WinAnsiEncoding def
  currentdict
end
/Times-BoldItalic exch definefont pop
/Courier findfont
dup length dict begin
  {1 index /FID ne {def} {pop pop} ifelse} forall
  /Encoding WinAnsiEncoding def
  currentdict
end
/Courier exch definefont pop
%FOPEndFontReencode
%%EndProlog
%%Page: 1 1
%%PageBoundingBox: 0 0 560 420
%%BeginPageSetup
[1 0 0 -1 0 420] CT
%%EndPageSetup
GS
1 GC
N
0 0 560 420 re
f
GR
GS
1 GC
N
0 0 560 420 re
f
GR
GS
1 GC
N
73 373.5 M
507 373.5 L
507 31.5 L
73 31.5 L
cp
f
GR
GS
0.775 GC
[1 3] 0 setdash
2 LJ
0.5 LW
N
73 373.5 M
73 31.5 L
S
GR
GS
0.775 GC
[1 3] 0 setdash
2 LJ
0.5 LW
N
99.129 373.5 M
99.129 31.5 L
S
GR
GS
0.775 GC
[1 3] 0 setdash
2 LJ
0.5 LW
N
114.414 373.5 M
114.414 31.5 L
S
GR
GS
0.775 GC
[1 3] 0 setdash
2 LJ
0.5 LW
N
125.259 373.5 M
125.259 31.5 L
S
GR
GS
0.775 GC
[1 3] 0 setdash
2 LJ
0.5 LW
N
133.671 373.5 M
133.671 31.5 L
S
GR
GS
0.775 GC
[1 3] 0 setdash
2 LJ
0.5 LW
N
140.544 373.5 M
140.544 31.5 L
S
GR
GS
0.775 GC
[1 3] 0 setdash
2 LJ
0.5 LW
N
146.355 373.5 M
146.355 31.5 L
S
GR
GS
0.775 GC
[1 3] 0 setdash
2 LJ
0.5 LW
N
151.388 373.5 M
151.388 31.5 L
S
GR
GS
0.775 GC
[1 3] 0 setdash
2 LJ
0.5 LW
N
155.828 373.5 M
155.828 31.5 L
S
GR
GS
0.775 GC
[1 3] 0 setdash
2 LJ
0.5 LW
N
159.8 373.5 M
159.8 31.5 L
S
GR
GS
0.775 GC
[1 3] 0 setdash
2 LJ
0.5 LW
N
185.929 373.5 M
185.929 31.5 L
S
GR
GS
0.775 GC
[1 3] 0 setdash
2 LJ
0.5 LW
N
201.214 373.5 M
201.214 31.5 L
S
GR
GS
0.775 GC
[1 3] 0 setdash
2 LJ
0.5 LW
N
212.059 373.5 M
212.059 31.5 L
S
GR
GS
0.775 GC
[1 3] 0 setdash
2 LJ
0.5 LW
N
220.471 373.5 M
220.471 31.5 L
S
GR
GS
0.775 GC
[1 3] 0 setdash
2 LJ
0.5 LW
N
227.344 373.5 M
227.344 31.5 L
S
GR
GS
0.775 GC
[1 3] 0 setdash
2 LJ
0.5 LW
N
233.155 373.5 M
233.155 31.5 L
S
GR
GS
0.775 GC
[1 3] 0 setdash
2 LJ
0.5 LW
N
238.188 373.5 M
238.188 31.5 L
S
GR
GS
0.775 GC
[1 3] 0 setdash
2 LJ
0.5 LW
N
242.628 373.5 M
242.628 31.5 L
S
GR
GS
0.775 GC
[1 3] 0 setdash
2 LJ
0.5 LW
N
246.6 373.5 M
246.6 31.5 L
S
GR
GS
0.775 GC
[1 3] 0 setdash
2 LJ
0.5 LW
N
272.729 373.5 M
272.729 31.5 L
S
GR
GS
0.775 GC
[1 3] 0 setdash
2 LJ
0.5 LW
N
288.014 373.5 M
288.014 31.5 L
S
GR
GS
0.775 GC
[1 3] 0 setdash
2 LJ
0.5 LW
N
298.859 373.5 M
298.859 31.5 L
S
GR
GS
0.775 GC
[1 3] 0 setdash
2 LJ
0.5 LW
N
307.271 373.5 M
307.271 31.5 L
S
GR
GS
0.775 GC
[1 3] 0 setdash
2 LJ
0.5 LW
N
314.144 373.5 M
314.144 31.5 L
S
GR
GS
0.775 GC
[1 3] 0 setdash
2 LJ
0.5 LW
N
319.954 373.5 M
319.954 31.5 L
S
GR
GS
0.775 GC
[1 3] 0 setdash
2 LJ
0.5 LW
N
324.988 373.5 M
324.988 31.5 L
S
GR
GS
0.775 GC
[1 3] 0 setdash
2 LJ
0.5 LW
N
329.428 373.5 M
329.428 31.5 L
S
GR
GS
0.775 GC
[1 3] 0 setdash
2 LJ
0.5 LW
N
333.4 373.5 M
333.4 31.5 L
S
GR
GS
0.775 GC
[1 3] 0 setdash
2 LJ
0.5 LW
N
359.529 373.5 M
359.529 31.5 L
S
GR
GS
0.775 GC
[1 3] 0 setdash
2 LJ
0.5 LW
N
374.814 373.5 M
374.814 31.5 L
S
GR
GS
0.775 GC
[1 3] 0 setdash
2 LJ
0.5 LW
N
385.659 373.5 M
385.659 31.5 L
S
GR
GS
0.775 GC
[1 3] 0 setdash
2 LJ
0.5 LW
N
394.071 373.5 M
394.071 31.5 L
S
GR
GS
0.775 GC
[1 3] 0 setdash
2 LJ
0.5 LW
N
400.944 373.5 M
400.944 31.5 L
S
GR
GS
0.775 GC
[1 3] 0 setdash
2 LJ
0.5 LW
N
406.755 373.5 M
406.755 31.5 L
S
GR
GS
0.775 GC
[1 3] 0 setdash
2 LJ
0.5 LW
N
411.788 373.5 M
411.788 31.5 L
S
GR
GS
0.775 GC
[1 3] 0 setdash
2 LJ
0.5 LW
N
416.228 373.5 M
416.228 31.5 L
S
GR
GS
0.775 GC
[1 3] 0 setdash
2 LJ
0.5 LW
N
420.2 373.5 M
420.2 31.5 L
S
GR
GS
0.775 GC
[1 3] 0 setdash
2 LJ
0.5 LW
N
446.329 373.5 M
446.329 31.5 L
S
GR
GS
0.775 GC
[1 3] 0 setdash
2 LJ
0.5 LW
N
461.614 373.5 M
461.614 31.5 L
S
GR
GS
0.775 GC
[1 3] 0 setdash
2 LJ
0.5 LW
N
472.459 373.5 M
472.459 31.5 L
S
GR
GS
0.775 GC
[1 3] 0 setdash
2 LJ
0.5 LW
N
480.871 373.5 M
480.871 31.5 L
S
GR
GS
0.775 GC
[1 3] 0 setdash
2 LJ
0.5 LW
N
487.744 373.5 M
487.744 31.5 L
S
GR
GS
0.775 GC
[1 3] 0 setdash
2 LJ
0.5 LW
N
493.555 373.5 M
493.555 31.5 L
S
GR
GS
0.775 GC
[1 3] 0 setdash
2 LJ
0.5 LW
N
498.588 373.5 M
498.588 31.5 L
S
GR
GS
0.775 GC
[1 3] 0 setdash
2 LJ
0.5 LW
N
503.028 373.5 M
503.028 31.5 L
S
GR
GS
0.775 GC
[1 3] 0 setdash
2 LJ
0.5 LW
N
507 373.5 M
507 31.5 L
S
GR
GS
0.775 GC
[1 3] 0 setdash
2 LJ
0.5 LW
N
507 372.653 M
73 372.653 L
S
GR
GS
0.775 GC
[1 3] 0 setdash
2 LJ
0.5 LW
N
507 366.382 M
73 366.382 L
S
GR
GS
0.775 GC
[1 3] 0 setdash
2 LJ
0.5 LW
N
507 360.851 M
73 360.851 L
S
GR
GS
0.775 GC
[1 3] 0 setdash
2 LJ
0.5 LW
N
507 355.903 M
73 355.903 L
S
GR
GS
0.775 GC
[1 3] 0 setdash
2 LJ
0.5 LW
N
507 323.351 M
73 323.351 L
S
GR
GS
0.775 GC
[1 3] 0 setdash
2 LJ
0.5 LW
N
507 304.31 M
73 304.31 L
S
GR
GS
0.775 GC
[1 3] 0 setdash
2 LJ
0.5 LW
N
507 290.799 M
73 290.799 L
S
GR
GS
0.775 GC
[1 3] 0 setdash
2 LJ
0.5 LW
N
507 280.32 M
73 280.32 L
S
GR
GS
0.775 GC
[1 3] 0 setdash
2 LJ
0.5 LW
N
507 271.758 M
73 271.758 L
S
GR
GS
0.775 GC
[1 3] 0 setdash
2 LJ
0.5 LW
N
507 264.519 M
73 264.519 L
S
GR
GS
0.775 GC
[1 3] 0 setdash
2 LJ
0.5 LW
N
507 258.248 M
73 258.248 L
S
GR
GS
0.775 GC
[1 3] 0 setdash
2 LJ
0.5 LW
N
507 252.716 M
73 252.716 L
S
GR
GS
0.775 GC
[1 3] 0 setdash
2 LJ
0.5 LW
N
507 247.768 M
73 247.768 L
S
GR
GS
0.775 GC
[1 3] 0 setdash
2 LJ
0.5 LW
N
507 215.217 M
73 215.217 L
S
GR
GS
0.775 GC
[1 3] 0 setdash
2 LJ
0.5 LW
N
507 196.175 M
73 196.175 L
S
GR
GS
0.775 GC
[1 3] 0 setdash
2 LJ
0.5 LW
N
507 182.665 M
73 182.665 L
S
GR
GS
0.775 GC
[1 3] 0 setdash
2 LJ
0.5 LW
N
507 172.186 M
73 172.186 L
S
GR
GS
0.775 GC
[1 3] 0 setdash
2 LJ
0.5 LW
N
507 163.624 M
73 163.624 L
S
GR
GS
0.775 GC
[1 3] 0 setdash
2 LJ
0.5 LW
N
507 156.384 M
73 156.384 L
S
GR
GS
0.775 GC
[1 3] 0 setdash
2 LJ
0.5 LW
N
507 150.114 M
73 150.114 L
S
GR
GS
0.775 GC
[1 3] 0 setdash
2 LJ
0.5 LW
N
507 144.582 M
73 144.582 L
S
GR
GS
0.775 GC
[1 3] 0 setdash
2 LJ
0.5 LW
N
507 139.634 M
73 139.634 L
S
GR
GS
0.775 GC
[1 3] 0 setdash
2 LJ
0.5 LW
N
507 107.083 M
73 107.083 L
S
GR
GS
0.775 GC
[1 3] 0 setdash
2 LJ
0.5 LW
N
507 88.041 M
73 88.041 L
S
GR
GS
0.775 GC
[1 3] 0 setdash
2 LJ
0.5 LW
N
507 74.531 M
73 74.531 L
S
GR
GS
0.775 GC
[1 3] 0 setdash
2 LJ
0.5 LW
N
507 64.052 M
73 64.052 L
S
GR
GS
0.775 GC
[1 3] 0 setdash
2 LJ
0.5 LW
N
507 55.489 M
73 55.489 L
S
GR
GS
0.775 GC
[1 3] 0 setdash
2 LJ
0.5 LW
N
507 48.25 M
73 48.25 L
S
GR
GS
0.775 GC
[1 3] 0 setdash
2 LJ
0.5 LW
N
507 41.979 M
73 41.979 L
S
GR
GS
0.775 GC
[1 3] 0 setdash
2 LJ
0.5 LW
N
507 36.448 M
73 36.448 L
S
GR
GS
0.775 GC
[1 3] 0 setdash
2 LJ
0.5 LW
N
507 31.5 M
73 31.5 L
S
GR
GS
0.149 GC
2 setlinecap
1 LJ
0.5 LW
N
73 373.5 M
507 373.5 L
S
GR
GS
0.149 GC
2 setlinecap
1 LJ
0.5 LW
N
73 31.5 M
507 31.5 L
S
GR
GS
0.149 GC
2 setlinecap
1 LJ
0.5 LW
N
73 373.5 M
73 369.16 L
S
GR
GS
0.149 GC
2 setlinecap
1 LJ
0.5 LW
N
159.8 373.5 M
159.8 369.16 L
S
GR
GS
0.149 GC
2 setlinecap
1 LJ
0.5 LW
N
246.6 373.5 M
246.6 369.16 L
S
GR
GS
0.149 GC
2 setlinecap
1 LJ
0.5 LW
N
333.4 373.5 M
333.4 369.16 L
S
GR
GS
0.149 GC
2 setlinecap
1 LJ
0.5 LW
N
420.2 373.5 M
420.2 369.16 L
S
GR
GS
0.149 GC
2 setlinecap
1 LJ
0.5 LW
N
507 373.5 M
507 369.16 L
S
GR
GS
0.149 GC
2 setlinecap
1 LJ
0.5 LW
N
73 31.5 M
73 35.84 L
S
GR
GS
0.149 GC
2 setlinecap
1 LJ
0.5 LW
N
159.8 31.5 M
159.8 35.84 L
S
GR
GS
0.149 GC
2 setlinecap
1 LJ
0.5 LW
N
246.6 31.5 M
246.6 35.84 L
S
GR
GS
0.149 GC
2 setlinecap
1 LJ
0.5 LW
N
333.4 31.5 M
333.4 35.84 L
S
GR
GS
0.149 GC
2 setlinecap
1 LJ
0.5 LW
N
420.2 31.5 M
420.2 35.84 L
S
GR
GS
0.149 GC
2 setlinecap
1 LJ
0.5 LW
N
507 31.5 M
507 35.84 L
S
GR
GS
0.149 GC
2 setlinecap
1 LJ
0.5 LW
N
73 373.5 M
73 371.33 L
S
GR
GS
0.149 GC
2 setlinecap
1 LJ
0.5 LW
N
99.129 373.5 M
99.129 371.33 L
S
GR
GS
0.149 GC
2 setlinecap
1 LJ
0.5 LW
N
114.414 373.5 M
114.414 371.33 L
S
GR
GS
0.149 GC
2 setlinecap
1 LJ
0.5 LW
N
125.259 373.5 M
125.259 371.33 L
S
GR
GS
0.149 GC
2 setlinecap
1 LJ
0.5 LW
N
133.671 373.5 M
133.671 371.33 L
S
GR
GS
0.149 GC
2 setlinecap
1 LJ
0.5 LW
N
140.544 373.5 M
140.544 371.33 L
S
GR
GS
0.149 GC
2 setlinecap
1 LJ
0.5 LW
N
146.355 373.5 M
146.355 371.33 L
S
GR
GS
0.149 GC
2 setlinecap
1 LJ
0.5 LW
N
151.388 373.5 M
151.388 371.33 L
S
GR
GS
0.149 GC
2 setlinecap
1 LJ
0.5 LW
N
155.828 373.5 M
155.828 371.33 L
S
GR
GS
0.149 GC
2 setlinecap
1 LJ
0.5 LW
N
159.8 373.5 M
159.8 371.33 L
S
GR
GS
0.149 GC
2 setlinecap
1 LJ
0.5 LW
N
185.929 373.5 M
185.929 371.33 L
S
GR
GS
0.149 GC
2 setlinecap
1 LJ
0.5 LW
N
201.214 373.5 M
201.214 371.33 L
S
GR
GS
0.149 GC
2 setlinecap
1 LJ
0.5 LW
N
212.059 373.5 M
212.059 371.33 L
S
GR
GS
0.149 GC
2 setlinecap
1 LJ
0.5 LW
N
220.471 373.5 M
220.471 371.33 L
S
GR
GS
0.149 GC
2 setlinecap
1 LJ
0.5 LW
N
227.344 373.5 M
227.344 371.33 L
S
GR
GS
0.149 GC
2 setlinecap
1 LJ
0.5 LW
N
233.155 373.5 M
233.155 371.33 L
S
GR
GS
0.149 GC
2 setlinecap
1 LJ
0.5 LW
N
238.188 373.5 M
238.188 371.33 L
S
GR
GS
0.149 GC
2 setlinecap
1 LJ
0.5 LW
N
242.628 373.5 M
242.628 371.33 L
S
GR
GS
0.149 GC
2 setlinecap
1 LJ
0.5 LW
N
246.6 373.5 M
246.6 371.33 L
S
GR
GS
0.149 GC
2 setlinecap
1 LJ
0.5 LW
N
272.729 373.5 M
272.729 371.33 L
S
GR
GS
0.149 GC
2 setlinecap
1 LJ
0.5 LW
N
288.014 373.5 M
288.014 371.33 L
S
GR
GS
0.149 GC
2 setlinecap
1 LJ
0.5 LW
N
298.859 373.5 M
298.859 371.33 L
S
GR
GS
0.149 GC
2 setlinecap
1 LJ
0.5 LW
N
307.271 373.5 M
307.271 371.33 L
S
GR
GS
0.149 GC
2 setlinecap
1 LJ
0.5 LW
N
314.144 373.5 M
314.144 371.33 L
S
GR
GS
0.149 GC
2 setlinecap
1 LJ
0.5 LW
N
319.954 373.5 M
319.954 371.33 L
S
GR
GS
0.149 GC
2 setlinecap
1 LJ
0.5 LW
N
324.988 373.5 M
324.988 371.33 L
S
GR
GS
0.149 GC
2 setlinecap
1 LJ
0.5 LW
N
329.428 373.5 M
329.428 371.33 L
S
GR
GS
0.149 GC
2 setlinecap
1 LJ
0.5 LW
N
333.4 373.5 M
333.4 371.33 L
S
GR
GS
0.149 GC
2 setlinecap
1 LJ
0.5 LW
N
359.529 373.5 M
359.529 371.33 L
S
GR
GS
0.149 GC
2 setlinecap
1 LJ
0.5 LW
N
374.814 373.5 M
374.814 371.33 L
S
GR
GS
0.149 GC
2 setlinecap
1 LJ
0.5 LW
N
385.659 373.5 M
385.659 371.33 L
S
GR
GS
0.149 GC
2 setlinecap
1 LJ
0.5 LW
N
394.071 373.5 M
394.071 371.33 L
S
GR
GS
0.149 GC
2 setlinecap
1 LJ
0.5 LW
N
400.944 373.5 M
400.944 371.33 L
S
GR
GS
0.149 GC
2 setlinecap
1 LJ
0.5 LW
N
406.755 373.5 M
406.755 371.33 L
S
GR
GS
0.149 GC
2 setlinecap
1 LJ
0.5 LW
N
411.788 373.5 M
411.788 371.33 L
S
GR
GS
0.149 GC
2 setlinecap
1 LJ
0.5 LW
N
416.228 373.5 M
416.228 371.33 L
S
GR
GS
0.149 GC
2 setlinecap
1 LJ
0.5 LW
N
420.2 373.5 M
420.2 371.33 L
S
GR
GS
0.149 GC
2 setlinecap
1 LJ
0.5 LW
N
446.329 373.5 M
446.329 371.33 L
S
GR
GS
0.149 GC
2 setlinecap
1 LJ
0.5 LW
N
461.614 373.5 M
461.614 371.33 L
S
GR
GS
0.149 GC
2 setlinecap
1 LJ
0.5 LW
N
472.459 373.5 M
472.459 371.33 L
S
GR
GS
0.149 GC
2 setlinecap
1 LJ
0.5 LW
N
480.871 373.5 M
480.871 371.33 L
S
GR
GS
0.149 GC
2 setlinecap
1 LJ
0.5 LW
N
487.744 373.5 M
487.744 371.33 L
S
GR
GS
0.149 GC
2 setlinecap
1 LJ
0.5 LW
N
493.555 373.5 M
493.555 371.33 L
S
GR
GS
0.149 GC
2 setlinecap
1 LJ
0.5 LW
N
498.588 373.5 M
498.588 371.33 L
S
GR
GS
0.149 GC
2 setlinecap
1 LJ
0.5 LW
N
503.028 373.5 M
503.028 371.33 L
S
GR
GS
0.149 GC
2 setlinecap
1 LJ
0.5 LW
N
507 373.5 M
507 371.33 L
S
GR
GS
0.149 GC
2 setlinecap
1 LJ
0.5 LW
N
73 31.5 M
73 33.67 L
S
GR
GS
0.149 GC
2 setlinecap
1 LJ
0.5 LW
N
99.129 31.5 M
99.129 33.67 L
S
GR
GS
0.149 GC
2 setlinecap
1 LJ
0.5 LW
N
114.414 31.5 M
114.414 33.67 L
S
GR
GS
0.149 GC
2 setlinecap
1 LJ
0.5 LW
N
125.259 31.5 M
125.259 33.67 L
S
GR
GS
0.149 GC
2 setlinecap
1 LJ
0.5 LW
N
133.671 31.5 M
133.671 33.67 L
S
GR
GS
0.149 GC
2 setlinecap
1 LJ
0.5 LW
N
140.544 31.5 M
140.544 33.67 L
S
GR
GS
0.149 GC
2 setlinecap
1 LJ
0.5 LW
N
146.355 31.5 M
146.355 33.67 L
S
GR
GS
0.149 GC
2 setlinecap
1 LJ
0.5 LW
N
151.388 31.5 M
151.388 33.67 L
S
GR
GS
0.149 GC
2 setlinecap
1 LJ
0.5 LW
N
155.828 31.5 M
155.828 33.67 L
S
GR
GS
0.149 GC
2 setlinecap
1 LJ
0.5 LW
N
159.8 31.5 M
159.8 33.67 L
S
GR
GS
0.149 GC
2 setlinecap
1 LJ
0.5 LW
N
185.929 31.5 M
185.929 33.67 L
S
GR
GS
0.149 GC
2 setlinecap
1 LJ
0.5 LW
N
201.214 31.5 M
201.214 33.67 L
S
GR
GS
0.149 GC
2 setlinecap
1 LJ
0.5 LW
N
212.059 31.5 M
212.059 33.67 L
S
GR
GS
0.149 GC
2 setlinecap
1 LJ
0.5 LW
N
220.471 31.5 M
220.471 33.67 L
S
GR
GS
0.149 GC
2 setlinecap
1 LJ
0.5 LW
N
227.344 31.5 M
227.344 33.67 L
S
GR
GS
0.149 GC
2 setlinecap
1 LJ
0.5 LW
N
233.155 31.5 M
233.155 33.67 L
S
GR
GS
0.149 GC
2 setlinecap
1 LJ
0.5 LW
N
238.188 31.5 M
238.188 33.67 L
S
GR
GS
0.149 GC
2 setlinecap
1 LJ
0.5 LW
N
242.628 31.5 M
242.628 33.67 L
S
GR
GS
0.149 GC
2 setlinecap
1 LJ
0.5 LW
N
246.6 31.5 M
246.6 33.67 L
S
GR
GS
0.149 GC
2 setlinecap
1 LJ
0.5 LW
N
272.729 31.5 M
272.729 33.67 L
S
GR
GS
0.149 GC
2 setlinecap
1 LJ
0.5 LW
N
288.014 31.5 M
288.014 33.67 L
S
GR
GS
0.149 GC
2 setlinecap
1 LJ
0.5 LW
N
298.859 31.5 M
298.859 33.67 L
S
GR
GS
0.149 GC
2 setlinecap
1 LJ
0.5 LW
N
307.271 31.5 M
307.271 33.67 L
S
GR
GS
0.149 GC
2 setlinecap
1 LJ
0.5 LW
N
314.144 31.5 M
314.144 33.67 L
S
GR
GS
0.149 GC
2 setlinecap
1 LJ
0.5 LW
N
319.954 31.5 M
319.954 33.67 L
S
GR
GS
0.149 GC
2 setlinecap
1 LJ
0.5 LW
N
324.988 31.5 M
324.988 33.67 L
S
GR
GS
0.149 GC
2 setlinecap
1 LJ
0.5 LW
N
329.428 31.5 M
329.428 33.67 L
S
GR
GS
0.149 GC
2 setlinecap
1 LJ
0.5 LW
N
333.4 31.5 M
333.4 33.67 L
S
GR
GS
0.149 GC
2 setlinecap
1 LJ
0.5 LW
N
359.529 31.5 M
359.529 33.67 L
S
GR
GS
0.149 GC
2 setlinecap
1 LJ
0.5 LW
N
374.814 31.5 M
374.814 33.67 L
S
GR
GS
0.149 GC
2 setlinecap
1 LJ
0.5 LW
N
385.659 31.5 M
385.659 33.67 L
S
GR
GS
0.149 GC
2 setlinecap
1 LJ
0.5 LW
N
394.071 31.5 M
394.071 33.67 L
S
GR
GS
0.149 GC
2 setlinecap
1 LJ
0.5 LW
N
400.944 31.5 M
400.944 33.67 L
S
GR
GS
0.149 GC
2 setlinecap
1 LJ
0.5 LW
N
406.755 31.5 M
406.755 33.67 L
S
GR
GS
0.149 GC
2 setlinecap
1 LJ
0.5 LW
N
411.788 31.5 M
411.788 33.67 L
S
GR
GS
0.149 GC
2 setlinecap
1 LJ
0.5 LW
N
416.228 31.5 M
416.228 33.67 L
S
GR
GS
0.149 GC
2 setlinecap
1 LJ
0.5 LW
N
420.2 31.5 M
420.2 33.67 L
S
GR
GS
0.149 GC
2 setlinecap
1 LJ
0.5 LW
N
446.329 31.5 M
446.329 33.67 L
S
GR
GS
0.149 GC
2 setlinecap
1 LJ
0.5 LW
N
461.614 31.5 M
461.614 33.67 L
S
GR
GS
0.149 GC
2 setlinecap
1 LJ
0.5 LW
N
472.459 31.5 M
472.459 33.67 L
S
GR
GS
0.149 GC
2 setlinecap
1 LJ
0.5 LW
N
480.871 31.5 M
480.871 33.67 L
S
GR
GS
0.149 GC
2 setlinecap
1 LJ
0.5 LW
N
487.744 31.5 M
487.744 33.67 L
S
GR
GS
0.149 GC
2 setlinecap
1 LJ
0.5 LW
N
493.555 31.5 M
493.555 33.67 L
S
GR
GS
0.149 GC
2 setlinecap
1 LJ
0.5 LW
N
498.588 31.5 M
498.588 33.67 L
S
GR
GS
0.149 GC
2 setlinecap
1 LJ
0.5 LW
N
503.028 31.5 M
503.028 33.67 L
S
GR
GS
0.149 GC
2 setlinecap
1 LJ
0.5 LW
N
507 31.5 M
507 33.67 L
S
GR
GS
[1 0 0 1 73 378.70001] CT
0.149 GC
N
-9.716 13.44 M
-9.716 12.877 L
-7.716 12.877 -7.716 12.362 QT
-7.716 3.971 L
-8.544 4.362 -9.809 4.362 QT
-9.809 3.799 L
-7.841 3.799 -6.841 2.784 QT
-6.622 2.784 L
-6.559 2.784 -6.513 2.823 QT
-6.466 2.862 -6.466 2.924 QT
-6.466 12.362 L
-6.466 12.877 -4.466 12.877 QT
-4.466 13.44 L
-9.716 13.44 L
cp
f
GR
GS
[1 0 0 1 73 378.70001] CT
0.149 GC
N
0.8 13.799 M
-1.153 13.799 -1.864 12.182 QT
-2.575 10.565 -2.575 8.331 QT
-2.575 6.94 -2.317 5.713 QT
-2.059 4.487 -1.309 3.635 QT
-0.559 2.784 0.8 2.784 QT
1.862 2.784 2.534 3.299 QT
3.206 3.815 3.558 4.627 QT
3.909 5.44 4.034 6.377 QT
4.159 7.315 4.159 8.331 QT
4.159 9.706 3.909 10.909 QT
3.659 12.112 2.917 12.956 QT
2.175 13.799 0.8 13.799 QT
cp
0.8 13.377 M
1.691 13.377 2.128 12.463 QT
2.566 11.549 2.667 10.44 QT
2.769 9.331 2.769 8.081 QT
2.769 6.877 2.667 5.862 QT
2.566 4.846 2.136 4.018 QT
1.706 3.19 0.8 3.19 QT
-0.106 3.19 -0.544 4.018 QT
-0.981 4.846 -1.083 5.862 QT
-1.184 6.877 -1.184 8.081 QT
-1.184 8.971 -1.138 9.76 QT
-1.091 10.549 -0.903 11.385 QT
-0.716 12.221 -0.302 12.799 QT
0.112 13.377 0.8 13.377 QT
cp
f
GR
GS
[1 0 0 1 73 378.70001] CT
0.149 GC
N
5.816 7.634 M
5.816 7.243 L
7.191 7.243 7.191 6.899 QT
7.191 1.118 L
6.628 1.399 5.753 1.399 QT
5.753 1.009 L
7.097 1.009 7.784 0.306 QT
7.941 0.306 L
7.988 0.306 8.019 0.337 QT
8.05 0.368 8.05 0.399 QT
8.05 6.899 L
8.05 7.243 9.425 7.243 QT
9.425 7.634 L
5.816 7.634 L
cp
f
GR
GS
[1 0 0 1 159.8 378.70001] CT
0.149 GC
N
/f1694880289{-9.716 13.44 M
-9.716 12.877 L
-7.716 12.877 -7.716 12.362 QT
-7.716 3.971 L
-8.544 4.362 -9.809 4.362 QT
-9.809 3.799 L
-7.841 3.799 -6.841 2.784 QT
-6.622 2.784 L
-6.559 2.784 -6.513 2.823 QT
-6.466 2.862 -6.466 2.924 QT
-6.466 12.362 L
-6.466 12.877 -4.466 12.877 QT
-4.466 13.44 L
-9.716 13.44 L
cp}def
f1694880289
f
GR
GS
[1 0 0 1 159.8 378.70001] CT
0.149 GC
N
/f-570576543{0.8 13.799 M
-1.153 13.799 -1.864 12.182 QT
-2.575 10.565 -2.575 8.331 QT
-2.575 6.94 -2.317 5.713 QT
-2.059 4.487 -1.309 3.635 QT
-0.559 2.784 0.8 2.784 QT
1.862 2.784 2.534 3.299 QT
3.206 3.815 3.558 4.627 QT
3.909 5.44 4.034 6.377 QT
4.159 7.315 4.159 8.331 QT
4.159 9.706 3.909 10.909 QT
3.659 12.112 2.917 12.956 QT
2.175 13.799 0.8 13.799 QT
cp
0.8 13.377 M
1.691 13.377 2.128 12.463 QT
2.566 11.549 2.667 10.44 QT
2.769 9.331 2.769 8.081 QT
2.769 6.877 2.667 5.862 QT
2.566 4.846 2.136 4.018 QT
1.706 3.19 0.8 3.19 QT
-0.106 3.19 -0.544 4.018 QT
-0.981 4.846 -1.083 5.862 QT
-1.184 6.877 -1.184 8.081 QT
-1.184 8.971 -1.138 9.76 QT
-1.091 10.549 -0.903 11.385 QT
-0.716 12.221 -0.302 12.799 QT
0.112 13.377 0.8 13.377 QT
cp}def
f-570576543
f
GR
GS
[1 0 0 1 159.8 378.70001] CT
0.149 GC
N
/f-425490914{5.347 7.634 M
5.347 7.337 L
5.347 7.306 5.363 7.274 QT
7.081 5.384 L
7.472 4.962 7.706 4.681 QT
7.941 4.399 8.183 4.032 QT
8.425 3.665 8.558 3.274 QT
8.691 2.884 8.691 2.462 QT
8.691 2.009 8.527 1.595 QT
8.363 1.181 8.034 0.938 QT
7.706 0.696 7.238 0.696 QT
6.753 0.696 6.37 0.985 QT
5.988 1.274 5.831 1.727 QT
5.878 1.712 5.956 1.712 QT
6.206 1.712 6.378 1.876 QT
6.55 2.04 6.55 2.306 QT
6.55 2.556 6.378 2.735 QT
6.206 2.915 5.956 2.915 QT
5.691 2.915 5.519 2.735 QT
5.347 2.556 5.347 2.306 QT
5.347 1.899 5.503 1.532 QT
5.659 1.165 5.948 0.884 QT
6.238 0.602 6.613 0.454 QT
6.988 0.306 7.394 0.306 QT
8.019 0.306 8.566 0.571 QT
9.113 0.837 9.425 1.321 QT
9.738 1.806 9.738 2.462 QT
9.738 2.946 9.527 3.376 QT
9.316 3.806 8.995 4.157 QT
8.675 4.509 8.159 4.954 QT
7.644 5.399 7.488 5.54 QT
6.238 6.743 L
7.3 6.743 L
8.081 6.743 8.605 6.727 QT
9.128 6.712 9.159 6.681 QT
9.284 6.556 9.425 5.681 QT
9.738 5.681 L
9.425 7.634 L
5.347 7.634 L
cp}def
f-425490914
f
GR
GS
[1 0 0 1 246.60001 378.70001] CT
0.149 GC
N
f1694880289
f
GR
GS
[1 0 0 1 246.60001 378.70001] CT
0.149 GC
N
f-570576543
f
GR
GS
[1 0 0 1 246.60001 378.70001] CT
0.149 GC
N
/f2098139249{5.847 6.79 M
6.113 7.165 6.542 7.345 QT
6.972 7.524 7.472 7.524 QT
8.113 7.524 8.378 6.977 QT
8.644 6.431 8.644 5.743 QT
8.644 5.431 8.589 5.118 QT
8.534 4.806 8.402 4.54 QT
8.269 4.274 8.034 4.11 QT
7.8 3.946 7.472 3.946 QT
6.738 3.946 L
6.644 3.946 6.644 3.852 QT
6.644 3.743 L
6.644 3.665 6.738 3.665 QT
7.347 3.618 L
7.722 3.618 7.98 3.329 QT
8.238 3.04 8.355 2.618 QT
8.472 2.196 8.472 1.821 QT
8.472 1.306 8.23 0.962 QT
7.988 0.618 7.472 0.618 QT
7.05 0.618 6.675 0.782 QT
6.3 0.946 6.066 1.259 QT
6.097 1.259 6.113 1.259 QT
6.128 1.259 6.144 1.259 QT
6.394 1.259 6.558 1.431 QT
6.722 1.602 6.722 1.837 QT
6.722 2.071 6.558 2.243 QT
6.394 2.415 6.144 2.415 QT
5.894 2.415 5.722 2.243 QT
5.55 2.071 5.55 1.837 QT
5.55 1.368 5.839 1.016 QT
6.128 0.665 6.573 0.485 QT
7.019 0.306 7.472 0.306 QT
7.816 0.306 8.183 0.407 QT
8.55 0.509 8.847 0.696 QT
9.144 0.884 9.339 1.173 QT
9.534 1.462 9.534 1.821 QT
9.534 2.29 9.323 2.681 QT
9.113 3.071 8.753 3.36 QT
8.394 3.649 7.972 3.79 QT
8.441 3.868 8.87 4.141 QT
9.3 4.415 9.566 4.829 QT
9.831 5.243 9.831 5.727 QT
9.831 6.337 9.495 6.829 QT
9.159 7.321 8.62 7.595 QT
8.081 7.868 7.472 7.868 QT
6.956 7.868 6.441 7.673 QT
5.925 7.477 5.597 7.087 QT
5.269 6.696 5.269 6.149 QT
5.269 5.884 5.448 5.696 QT
5.628 5.509 5.894 5.509 QT
6.081 5.509 6.23 5.595 QT
6.378 5.681 6.456 5.829 QT
6.534 5.977 6.534 6.149 QT
6.534 6.415 6.347 6.602 QT
6.159 6.79 5.894 6.79 QT
5.847 6.79 L
cp}def
f2098139249
f
GR
GS
[1 0 0 1 333.40002 378.70001] CT
0.149 GC
N
f1694880289
f
GR
GS
[1 0 0 1 333.40002 378.70001] CT
0.149 GC
N
f-570576543
f
GR
GS
[1 0 0 1 333.40002 378.70001] CT
0.149 GC
N
/f1797150449{5.113 5.821 M
5.113 5.431 L
8.503 0.368 L
8.55 0.306 8.613 0.306 QT
8.784 0.306 L
8.909 0.306 8.909 0.431 QT
8.909 5.431 L
9.988 5.431 L
9.988 5.821 L
8.909 5.821 L
8.909 6.899 L
8.909 7.118 9.23 7.181 QT
9.55 7.243 9.972 7.243 QT
9.972 7.634 L
6.941 7.634 L
6.941 7.243 L
7.363 7.243 7.691 7.181 QT
8.019 7.118 8.019 6.899 QT
8.019 5.821 L
5.113 5.821 L
cp
5.472 5.431 M
8.081 5.431 L
8.081 1.54 L
5.472 5.431 L
cp}def
f1797150449
f
GR
GS
[1 0 0 1 420.20001 378.70001] CT
0.149 GC
N
f1694880289
f
GR
GS
[1 0 0 1 420.20001 378.70001] CT
0.149 GC
N
f-570576543
f
GR
GS
[1 0 0 1 420.20001 378.70001] CT
0.149 GC
N
/f-1936515010{5.753 6.384 M
5.863 6.712 6.097 6.97 QT
6.331 7.227 6.652 7.376 QT
6.972 7.524 7.316 7.524 QT
8.113 7.524 8.417 6.907 QT
8.722 6.29 8.722 5.415 QT
8.722 5.024 8.706 4.766 QT
8.691 4.509 8.628 4.259 QT
8.534 3.884 8.277 3.595 QT
8.019 3.306 7.644 3.306 QT
7.269 3.306 7.003 3.415 QT
6.738 3.524 6.573 3.673 QT
6.409 3.821 6.284 3.993 QT
6.159 4.165 6.128 4.165 QT
6.003 4.165 L
5.972 4.165 5.933 4.134 QT
5.894 4.102 5.894 4.071 QT
5.894 0.399 L
5.894 0.368 5.925 0.337 QT
5.956 0.306 6.003 0.306 QT
6.034 0.306 L
6.769 0.665 7.597 0.665 QT
8.425 0.665 9.175 0.306 QT
9.206 0.306 L
9.253 0.306 9.284 0.337 QT
9.316 0.368 9.316 0.399 QT
9.316 0.493 L
9.316 0.556 9.284 0.556 QT
8.909 1.056 8.347 1.329 QT
7.784 1.602 7.175 1.602 QT
6.738 1.602 6.269 1.477 QT
6.269 3.556 L
6.644 3.274 6.925 3.141 QT
7.206 3.009 7.659 3.009 QT
8.269 3.009 8.745 3.36 QT
9.222 3.712 9.48 4.274 QT
9.738 4.837 9.738 5.415 QT
9.738 6.087 9.417 6.649 QT
9.097 7.212 8.534 7.54 QT
7.972 7.868 7.316 7.868 QT
6.784 7.868 6.323 7.595 QT
5.863 7.321 5.605 6.845 QT
5.347 6.368 5.347 5.837 QT
5.347 5.587 5.511 5.431 QT
5.675 5.274 5.909 5.274 QT
6.159 5.274 6.323 5.438 QT
6.488 5.602 6.488 5.837 QT
6.488 6.071 6.323 6.235 QT
6.159 6.399 5.909 6.399 QT
5.878 6.399 5.831 6.391 QT
5.784 6.384 5.753 6.384 QT
cp}def
f-1936515010
f
GR
GS
[1 0 0 1 507 378.70001] CT
0.149 GC
N
f1694880289
f
GR
GS
[1 0 0 1 507 378.70001] CT
0.149 GC
N
f-570576543
f
GR
GS
[1 0 0 1 507 378.70001] CT
0.149 GC
N
/f-1909405552{7.55 7.868 M
6.863 7.868 6.409 7.509 QT
5.956 7.149 5.706 6.571 QT
5.456 5.993 5.363 5.36 QT
5.269 4.727 5.269 4.071 QT
5.269 3.212 5.605 2.337 QT
5.941 1.462 6.597 0.884 QT
7.253 0.306 8.159 0.306 QT
8.534 0.306 8.863 0.446 QT
9.191 0.587 9.37 0.868 QT
9.55 1.149 9.55 1.54 QT
9.55 1.759 9.402 1.915 QT
9.253 2.071 9.019 2.071 QT
8.8 2.071 8.652 1.915 QT
8.503 1.759 8.503 1.54 QT
8.503 1.321 8.652 1.165 QT
8.8 1.009 9.019 1.009 QT
9.081 1.009 L
8.941 0.806 8.683 0.712 QT
8.425 0.618 8.159 0.618 QT
7.831 0.618 7.542 0.766 QT
7.253 0.915 7.034 1.165 QT
6.816 1.415 6.659 1.712 QT
6.503 2.009 6.425 2.391 QT
6.347 2.774 6.323 3.102 QT
6.3 3.431 6.3 3.931 QT
6.488 3.493 6.847 3.204 QT
7.206 2.915 7.644 2.915 QT
8.128 2.915 8.534 3.11 QT
8.941 3.306 9.23 3.657 QT
9.519 4.009 9.675 4.462 QT
9.831 4.915 9.831 5.384 QT
9.831 6.024 9.542 6.602 QT
9.253 7.181 8.73 7.524 QT
8.206 7.868 7.55 7.868 QT
cp
7.55 7.524 M
7.972 7.524 8.23 7.329 QT
8.488 7.134 8.613 6.813 QT
8.738 6.493 8.761 6.173 QT
8.784 5.852 8.784 5.384 QT
8.784 4.759 8.73 4.313 QT
8.675 3.868 8.409 3.532 QT
8.144 3.196 7.597 3.196 QT
7.159 3.196 6.87 3.501 QT
6.581 3.806 6.448 4.266 QT
6.316 4.727 6.316 5.149 QT
6.316 5.29 6.331 5.368 QT
6.331 5.384 6.331 5.391 QT
6.331 5.399 6.316 5.415 QT
6.316 5.899 6.417 6.376 QT
6.519 6.852 6.792 7.188 QT
7.066 7.524 7.55 7.524 QT
cp}def
f-1909405552
f
GR
GS
[1 0 0 1 290.00021 398.89999] CT
0.149 GC
N
/f1909871922{-7.186 14.784 M
-7.358 14.784 -7.358 14.55 QT
-7.358 14.503 -7.327 14.393 QT
-7.296 14.284 -7.249 14.214 QT
-7.202 14.143 -7.139 14.143 QT
-5.405 14.143 -5.124 13.05 QT
-2.686 3.206 L
-3.186 3.128 -4.264 3.128 QT
-4.436 3.128 -4.436 2.878 QT
-4.436 2.846 -4.413 2.729 QT
-4.389 2.612 -4.335 2.55 QT
-4.28 2.487 -4.217 2.487 QT
-1.108 2.487 L
-0.967 2.487 -0.936 2.596 QT
3.064 12.128 L
5.064 4.143 L
5.095 3.956 5.095 3.878 QT
5.095 3.128 3.704 3.128 QT
3.533 3.128 3.533 2.878 QT
3.595 2.659 3.626 2.573 QT
3.658 2.487 3.829 2.487 QT
7.689 2.487 L
7.861 2.487 7.861 2.721 QT
7.845 2.768 7.822 2.878 QT
7.798 2.987 7.751 3.057 QT
7.704 3.128 7.626 3.128 QT
5.908 3.128 5.626 4.221 QT
3.048 14.628 L
2.986 14.784 2.861 14.784 QT
2.642 14.784 L
2.517 14.784 2.486 14.659 QT
-2.108 3.768 L
-2.139 3.659 L
-2.171 3.628 -2.171 3.596 QT
-4.561 13.128 L
-4.577 13.175 -4.585 13.237 QT
-4.592 13.3 -4.608 13.393 QT
-4.608 13.862 -4.202 14.003 QT
-3.796 14.143 -3.202 14.143 QT
-3.03 14.143 -3.03 14.393 QT
-3.092 14.628 -3.132 14.706 QT
-3.171 14.784 -3.327 14.784 QT
-7.186 14.784 L
cp}def
f1909871922
f
GR
GS
0.149 GC
2 setlinecap
1 LJ
0.5 LW
N
73 373.5 M
73 31.5 L
S
GR
GS
0.149 GC
2 setlinecap
1 LJ
0.5 LW
N
507 373.5 M
507 31.5 L
S
GR
GS
0.149 GC
2 setlinecap
1 LJ
0.5 LW
N
73 355.903 M
77.34 355.903 L
S
GR
GS
0.149 GC
2 setlinecap
1 LJ
0.5 LW
N
73 247.768 M
77.34 247.768 L
S
GR
GS
0.149 GC
2 setlinecap
1 LJ
0.5 LW
N
73 139.634 M
77.34 139.634 L
S
GR
GS
0.149 GC
2 setlinecap
1 LJ
0.5 LW
N
73 31.5 M
77.34 31.5 L
S
GR
GS
0.149 GC
2 setlinecap
1 LJ
0.5 LW
N
507 355.903 M
502.66 355.903 L
S
GR
GS
0.149 GC
2 setlinecap
1 LJ
0.5 LW
N
507 247.768 M
502.66 247.768 L
S
GR
GS
0.149 GC
2 setlinecap
1 LJ
0.5 LW
N
507 139.634 M
502.66 139.634 L
S
GR
GS
0.149 GC
2 setlinecap
1 LJ
0.5 LW
N
507 31.5 M
502.66 31.5 L
S
GR
GS
0.149 GC
2 setlinecap
1 LJ
0.5 LW
N
73 372.653 M
75.17 372.653 L
S
GR
GS
0.149 GC
2 setlinecap
1 LJ
0.5 LW
N
73 366.382 M
75.17 366.382 L
S
GR
GS
0.149 GC
2 setlinecap
1 LJ
0.5 LW
N
73 360.851 M
75.17 360.851 L
S
GR
GS
0.149 GC
2 setlinecap
1 LJ
0.5 LW
N
73 355.903 M
75.17 355.903 L
S
GR
GS
0.149 GC
2 setlinecap
1 LJ
0.5 LW
N
73 323.351 M
75.17 323.351 L
S
GR
GS
0.149 GC
2 setlinecap
1 LJ
0.5 LW
N
73 304.31 M
75.17 304.31 L
S
GR
GS
0.149 GC
2 setlinecap
1 LJ
0.5 LW
N
73 290.799 M
75.17 290.799 L
S
GR
GS
0.149 GC
2 setlinecap
1 LJ
0.5 LW
N
73 280.32 M
75.17 280.32 L
S
GR
GS
0.149 GC
2 setlinecap
1 LJ
0.5 LW
N
73 271.758 M
75.17 271.758 L
S
GR
GS
0.149 GC
2 setlinecap
1 LJ
0.5 LW
N
73 264.519 M
75.17 264.519 L
S
GR
GS
0.149 GC
2 setlinecap
1 LJ
0.5 LW
N
73 258.248 M
75.17 258.248 L
S
GR
GS
0.149 GC
2 setlinecap
1 LJ
0.5 LW
N
73 252.716 M
75.17 252.716 L
S
GR
GS
0.149 GC
2 setlinecap
1 LJ
0.5 LW
N
73 247.768 M
75.17 247.768 L
S
GR
GS
0.149 GC
2 setlinecap
1 LJ
0.5 LW
N
73 215.217 M
75.17 215.217 L
S
GR
GS
0.149 GC
2 setlinecap
1 LJ
0.5 LW
N
73 196.175 M
75.17 196.175 L
S
GR
GS
0.149 GC
2 setlinecap
1 LJ
0.5 LW
N
73 182.665 M
75.17 182.665 L
S
GR
GS
0.149 GC
2 setlinecap
1 LJ
0.5 LW
N
73 172.186 M
75.17 172.186 L
S
GR
GS
0.149 GC
2 setlinecap
1 LJ
0.5 LW
N
73 163.624 M
75.17 163.624 L
S
GR
GS
0.149 GC
2 setlinecap
1 LJ
0.5 LW
N
73 156.384 M
75.17 156.384 L
S
GR
GS
0.149 GC
2 setlinecap
1 LJ
0.5 LW
N
73 150.114 M
75.17 150.114 L
S
GR
GS
0.149 GC
2 setlinecap
1 LJ
0.5 LW
N
73 144.582 M
75.17 144.582 L
S
GR
GS
0.149 GC
2 setlinecap
1 LJ
0.5 LW
N
73 139.634 M
75.17 139.634 L
S
GR
GS
0.149 GC
2 setlinecap
1 LJ
0.5 LW
N
73 107.083 M
75.17 107.083 L
S
GR
GS
0.149 GC
2 setlinecap
1 LJ
0.5 LW
N
73 88.041 M
75.17 88.041 L
S
GR
GS
0.149 GC
2 setlinecap
1 LJ
0.5 LW
N
73 74.531 M
75.17 74.531 L
S
GR
GS
0.149 GC
2 setlinecap
1 LJ
0.5 LW
N
73 64.052 M
75.17 64.052 L
S
GR
GS
0.149 GC
2 setlinecap
1 LJ
0.5 LW
N
73 55.489 M
75.17 55.489 L
S
GR
GS
0.149 GC
2 setlinecap
1 LJ
0.5 LW
N
73 48.25 M
75.17 48.25 L
S
GR
GS
0.149 GC
2 setlinecap
1 LJ
0.5 LW
N
73 41.979 M
75.17 41.979 L
S
GR
GS
0.149 GC
2 setlinecap
1 LJ
0.5 LW
N
73 36.448 M
75.17 36.448 L
S
GR
GS
0.149 GC
2 setlinecap
1 LJ
0.5 LW
N
73 31.5 M
75.17 31.5 L
S
GR
GS
0.149 GC
2 setlinecap
1 LJ
0.5 LW
N
507 372.653 M
504.83 372.653 L
S
GR
GS
0.149 GC
2 setlinecap
1 LJ
0.5 LW
N
507 366.382 M
504.83 366.382 L
S
GR
GS
0.149 GC
2 setlinecap
1 LJ
0.5 LW
N
507 360.851 M
504.83 360.851 L
S
GR
GS
0.149 GC
2 setlinecap
1 LJ
0.5 LW
N
507 355.903 M
504.83 355.903 L
S
GR
GS
0.149 GC
2 setlinecap
1 LJ
0.5 LW
N
507 323.351 M
504.83 323.351 L
S
GR
GS
0.149 GC
2 setlinecap
1 LJ
0.5 LW
N
507 304.31 M
504.83 304.31 L
S
GR
GS
0.149 GC
2 setlinecap
1 LJ
0.5 LW
N
507 290.799 M
504.83 290.799 L
S
GR
GS
0.149 GC
2 setlinecap
1 LJ
0.5 LW
N
507 280.32 M
504.83 280.32 L
S
GR
GS
0.149 GC
2 setlinecap
1 LJ
0.5 LW
N
507 271.758 M
504.83 271.758 L
S
GR
GS
0.149 GC
2 setlinecap
1 LJ
0.5 LW
N
507 264.519 M
504.83 264.519 L
S
GR
GS
0.149 GC
2 setlinecap
1 LJ
0.5 LW
N
507 258.248 M
504.83 258.248 L
S
GR
GS
0.149 GC
2 setlinecap
1 LJ
0.5 LW
N
507 252.716 M
504.83 252.716 L
S
GR
GS
0.149 GC
2 setlinecap
1 LJ
0.5 LW
N
507 247.768 M
504.83 247.768 L
S
GR
GS
0.149 GC
2 setlinecap
1 LJ
0.5 LW
N
507 215.217 M
504.83 215.217 L
S
GR
GS
0.149 GC
2 setlinecap
1 LJ
0.5 LW
N
507 196.175 M
504.83 196.175 L
S
GR
GS
0.149 GC
2 setlinecap
1 LJ
0.5 LW
N
507 182.665 M
504.83 182.665 L
S
GR
GS
0.149 GC
2 setlinecap
1 LJ
0.5 LW
N
507 172.186 M
504.83 172.186 L
S
GR
GS
0.149 GC
2 setlinecap
1 LJ
0.5 LW
N
507 163.624 M
504.83 163.624 L
S
GR
GS
0.149 GC
2 setlinecap
1 LJ
0.5 LW
N
507 156.384 M
504.83 156.384 L
S
GR
GS
0.149 GC
2 setlinecap
1 LJ
0.5 LW
N
507 150.114 M
504.83 150.114 L
S
GR
GS
0.149 GC
2 setlinecap
1 LJ
0.5 LW
N
507 144.582 M
504.83 144.582 L
S
GR
GS
0.149 GC
2 setlinecap
1 LJ
0.5 LW
N
507 139.634 M
504.83 139.634 L
S
GR
GS
0.149 GC
2 setlinecap
1 LJ
0.5 LW
N
507 107.083 M
504.83 107.083 L
S
GR
GS
0.149 GC
2 setlinecap
1 LJ
0.5 LW
N
507 88.041 M
504.83 88.041 L
S
GR
GS
0.149 GC
2 setlinecap
1 LJ
0.5 LW
N
507 74.531 M
504.83 74.531 L
S
GR
GS
0.149 GC
2 setlinecap
1 LJ
0.5 LW
N
507 64.052 M
504.83 64.052 L
S
GR
GS
0.149 GC
2 setlinecap
1 LJ
0.5 LW
N
507 55.489 M
504.83 55.489 L
S
GR
GS
0.149 GC
2 setlinecap
1 LJ
0.5 LW
N
507 48.25 M
504.83 48.25 L
S
GR
GS
0.149 GC
2 setlinecap
1 LJ
0.5 LW
N
507 41.979 M
504.83 41.979 L
S
GR
GS
0.149 GC
2 setlinecap
1 LJ
0.5 LW
N
507 36.448 M
504.83 36.448 L
S
GR
GS
0.149 GC
2 setlinecap
1 LJ
0.5 LW
N
507 31.5 M
504.83 31.5 L
S
GR
GS
[1 0 0 1 67.8 355.90268] CT
0.149 GC
N
/f1713382765{-29.627 3.84 M
-29.627 3.277 L
-27.627 3.277 -27.627 2.762 QT
-27.627 -5.629 L
-28.455 -5.238 -29.721 -5.238 QT
-29.721 -5.801 L
-27.752 -5.801 -26.752 -6.816 QT
-26.533 -6.816 L
-26.471 -6.816 -26.424 -6.777 QT
-26.377 -6.738 -26.377 -6.676 QT
-26.377 2.762 L
-26.377 3.277 -24.377 3.277 QT
-24.377 3.84 L
-29.627 3.84 L
cp}def
f1713382765
f
GR
GS
[1 0 0 1 67.8 355.90268] CT
0.149 GC
N
/f2137069734{-19.111 4.199 M
-21.064 4.199 -21.775 2.582 QT
-22.486 0.965 -22.486 -1.269 QT
-22.486 -2.66 -22.228 -3.887 QT
-21.971 -5.113 -21.221 -5.965 QT
-20.471 -6.816 -19.111 -6.816 QT
-18.049 -6.816 -17.377 -6.301 QT
-16.705 -5.785 -16.353 -4.973 QT
-16.002 -4.16 -15.877 -3.223 QT
-15.752 -2.285 -15.752 -1.269 QT
-15.752 0.106 -16.002 1.309 QT
-16.252 2.512 -16.994 3.356 QT
-17.736 4.199 -19.111 4.199 QT
cp
-19.111 3.777 M
-18.221 3.777 -17.783 2.863 QT
-17.346 1.949 -17.244 0.84 QT
-17.142 -0.269 -17.142 -1.519 QT
-17.142 -2.723 -17.244 -3.738 QT
-17.346 -4.754 -17.775 -5.582 QT
-18.205 -6.41 -19.111 -6.41 QT
-20.017 -6.41 -20.455 -5.582 QT
-20.892 -4.754 -20.994 -3.738 QT
-21.096 -2.723 -21.096 -1.519 QT
-21.096 -0.629 -21.049 0.16 QT
-21.002 0.949 -20.814 1.785 QT
-20.627 2.621 -20.213 3.199 QT
-19.799 3.777 -19.111 3.777 QT
cp}def
f2137069734
f
GR
GS
[1 0 0 1 67.8 355.90268] CT
0.149 GC
N
/f50768549{-13.986 -4.498 M
-14.08 -4.498 -14.142 -4.568 QT
-14.205 -4.638 -14.205 -4.716 QT
-14.205 -4.794 -14.142 -4.865 QT
-14.08 -4.935 -13.986 -4.935 QT
-7.674 -4.935 L
-7.596 -4.935 -7.541 -4.865 QT
-7.486 -4.794 -7.486 -4.716 QT
-7.486 -4.638 -7.541 -4.568 QT
-7.596 -4.498 -7.674 -4.498 QT
-13.986 -4.498 L
cp}def
f50768549
f
GR
GS
[1 0 0 1 67.8 355.90268] CT
0.149 GC
N
/f-1126852791{-5.353 -2.81 M
-5.088 -2.435 -4.658 -2.255 QT
-4.228 -2.076 -3.728 -2.076 QT
-3.088 -2.076 -2.822 -2.623 QT
-2.556 -3.169 -2.556 -3.857 QT
-2.556 -4.169 -2.611 -4.482 QT
-2.666 -4.794 -2.798 -5.06 QT
-2.931 -5.326 -3.166 -5.49 QT
-3.4 -5.654 -3.728 -5.654 QT
-4.463 -5.654 L
-4.556 -5.654 -4.556 -5.748 QT
-4.556 -5.857 L
-4.556 -5.935 -4.463 -5.935 QT
-3.853 -5.982 L
-3.478 -5.982 -3.22 -6.271 QT
-2.963 -6.56 -2.845 -6.982 QT
-2.728 -7.404 -2.728 -7.779 QT
-2.728 -8.294 -2.97 -8.638 QT
-3.213 -8.982 -3.728 -8.982 QT
-4.15 -8.982 -4.525 -8.818 QT
-4.9 -8.654 -5.134 -8.341 QT
-5.103 -8.341 -5.088 -8.341 QT
-5.072 -8.341 -5.056 -8.341 QT
-4.806 -8.341 -4.642 -8.169 QT
-4.478 -7.998 -4.478 -7.763 QT
-4.478 -7.529 -4.642 -7.357 QT
-4.806 -7.185 -5.056 -7.185 QT
-5.306 -7.185 -5.478 -7.357 QT
-5.65 -7.529 -5.65 -7.763 QT
-5.65 -8.232 -5.361 -8.584 QT
-5.072 -8.935 -4.627 -9.115 QT
-4.181 -9.294 -3.728 -9.294 QT
-3.384 -9.294 -3.017 -9.193 QT
-2.65 -9.091 -2.353 -8.904 QT
-2.056 -8.716 -1.861 -8.427 QT
-1.666 -8.138 -1.666 -7.779 QT
-1.666 -7.31 -1.877 -6.919 QT
-2.088 -6.529 -2.447 -6.24 QT
-2.806 -5.951 -3.228 -5.81 QT
-2.759 -5.732 -2.33 -5.459 QT
-1.9 -5.185 -1.634 -4.771 QT
-1.369 -4.357 -1.369 -3.873 QT
-1.369 -3.263 -1.705 -2.771 QT
-2.041 -2.279 -2.58 -2.005 QT
-3.119 -1.732 -3.728 -1.732 QT
-4.244 -1.732 -4.759 -1.927 QT
-5.275 -2.123 -5.603 -2.513 QT
-5.931 -2.904 -5.931 -3.451 QT
-5.931 -3.716 -5.752 -3.904 QT
-5.572 -4.091 -5.306 -4.091 QT
-5.119 -4.091 -4.97 -4.005 QT
-4.822 -3.919 -4.744 -3.771 QT
-4.666 -3.623 -4.666 -3.451 QT
-4.666 -3.185 -4.853 -2.998 QT
-5.041 -2.81 -5.306 -2.81 QT
-5.353 -2.81 L
cp}def
f-1126852791
f
GR
GS
[1 0 0 1 67.8 247.76846] CT
0.149 GC
N
f1713382765
f
GR
GS
[1 0 0 1 67.8 247.76846] CT
0.149 GC
N
f2137069734
f
GR
GS
[1 0 0 1 67.8 247.76846] CT
0.149 GC
N
f50768549
f
GR
GS
[1 0 0 1 67.8 247.76846] CT
0.149 GC
N
/f1125910427{-5.853 -1.966 M
-5.853 -2.263 L
-5.853 -2.294 -5.838 -2.326 QT
-4.119 -4.216 L
-3.728 -4.638 -3.494 -4.919 QT
-3.259 -5.201 -3.017 -5.568 QT
-2.775 -5.935 -2.642 -6.326 QT
-2.509 -6.716 -2.509 -7.138 QT
-2.509 -7.591 -2.673 -8.005 QT
-2.838 -8.419 -3.166 -8.662 QT
-3.494 -8.904 -3.963 -8.904 QT
-4.447 -8.904 -4.83 -8.615 QT
-5.213 -8.326 -5.369 -7.873 QT
-5.322 -7.888 -5.244 -7.888 QT
-4.994 -7.888 -4.822 -7.724 QT
-4.65 -7.56 -4.65 -7.294 QT
-4.65 -7.044 -4.822 -6.865 QT
-4.994 -6.685 -5.244 -6.685 QT
-5.509 -6.685 -5.681 -6.865 QT
-5.853 -7.044 -5.853 -7.294 QT
-5.853 -7.701 -5.697 -8.068 QT
-5.541 -8.435 -5.252 -8.716 QT
-4.963 -8.998 -4.588 -9.146 QT
-4.213 -9.294 -3.806 -9.294 QT
-3.181 -9.294 -2.634 -9.029 QT
-2.088 -8.763 -1.775 -8.279 QT
-1.463 -7.794 -1.463 -7.138 QT
-1.463 -6.654 -1.673 -6.224 QT
-1.884 -5.794 -2.205 -5.443 QT
-2.525 -5.091 -3.041 -4.646 QT
-3.556 -4.201 -3.713 -4.06 QT
-4.963 -2.857 L
-3.9 -2.857 L
-3.119 -2.857 -2.595 -2.873 QT
-2.072 -2.888 -2.041 -2.919 QT
-1.916 -3.044 -1.775 -3.919 QT
-1.463 -3.919 L
-1.775 -1.966 L
-5.853 -1.966 L
cp}def
f1125910427
f
GR
GS
[1 0 0 1 67.8 139.63423] CT
0.149 GC
N
f1713382765
f
GR
GS
[1 0 0 1 67.8 139.63423] CT
0.149 GC
N
f2137069734
f
GR
GS
[1 0 0 1 67.8 139.63423] CT
0.149 GC
N
f50768549
f
GR
GS
[1 0 0 1 67.8 139.63423] CT
0.149 GC
N
/f-372180884{-5.384 -1.966 M
-5.384 -2.357 L
-4.009 -2.357 -4.009 -2.701 QT
-4.009 -8.482 L
-4.572 -8.201 -5.447 -8.201 QT
-5.447 -8.591 L
-4.103 -8.591 -3.416 -9.294 QT
-3.259 -9.294 L
-3.213 -9.294 -3.181 -9.263 QT
-3.15 -9.232 -3.15 -9.201 QT
-3.15 -2.701 L
-3.15 -2.357 -1.775 -2.357 QT
-1.775 -1.966 L
-5.384 -1.966 L
cp}def
f-372180884
f
GR
GS
[1 0 0 1 67.8 31.5] CT
0.149 GC
N
/f1561202666{-20.916 3.84 M
-20.916 3.277 L
-18.916 3.277 -18.916 2.762 QT
-18.916 -5.629 L
-19.744 -5.238 -21.009 -5.238 QT
-21.009 -5.801 L
-19.041 -5.801 -18.041 -6.816 QT
-17.822 -6.816 L
-17.759 -6.816 -17.713 -6.777 QT
-17.666 -6.738 -17.666 -6.676 QT
-17.666 2.762 L
-17.666 3.277 -15.666 3.277 QT
-15.666 3.84 L
-20.916 3.84 L
cp}def
f1561202666
f
GR
GS
[1 0 0 1 67.8 31.5] CT
0.149 GC
N
/f262599741{-10.4 4.199 M
-12.353 4.199 -13.064 2.582 QT
-13.775 0.965 -13.775 -1.269 QT
-13.775 -2.66 -13.517 -3.887 QT
-13.259 -5.113 -12.509 -5.965 QT
-11.759 -6.816 -10.4 -6.816 QT
-9.338 -6.816 -8.666 -6.301 QT
-7.994 -5.785 -7.642 -4.973 QT
-7.291 -4.16 -7.166 -3.223 QT
-7.041 -2.285 -7.041 -1.269 QT
-7.041 0.106 -7.291 1.309 QT
-7.541 2.512 -8.283 3.356 QT
-9.025 4.199 -10.4 4.199 QT
cp
-10.4 3.777 M
-9.509 3.777 -9.072 2.863 QT
-8.634 1.949 -8.533 0.84 QT
-8.431 -0.269 -8.431 -1.519 QT
-8.431 -2.723 -8.533 -3.738 QT
-8.634 -4.754 -9.064 -5.582 QT
-9.494 -6.41 -10.4 -6.41 QT
-11.306 -6.41 -11.744 -5.582 QT
-12.181 -4.754 -12.283 -3.738 QT
-12.384 -2.723 -12.384 -1.519 QT
-12.384 -0.629 -12.338 0.16 QT
-12.291 0.949 -12.103 1.785 QT
-11.916 2.621 -11.502 3.199 QT
-11.088 3.777 -10.4 3.777 QT
cp}def
f262599741
f
GR
GS
[1 0 0 1 67.8 31.5] CT
0.149 GC
N
/f1367386014{-3.65 -1.732 M
-4.994 -1.732 -5.478 -2.841 QT
-5.963 -3.951 -5.963 -5.466 QT
-5.963 -6.435 -5.791 -7.279 QT
-5.619 -8.123 -5.103 -8.709 QT
-4.588 -9.294 -3.65 -9.294 QT
-2.931 -9.294 -2.463 -8.943 QT
-1.994 -8.591 -1.759 -8.029 QT
-1.525 -7.466 -1.431 -6.826 QT
-1.338 -6.185 -1.338 -5.466 QT
-1.338 -4.529 -1.517 -3.701 QT
-1.697 -2.873 -2.205 -2.302 QT
-2.713 -1.732 -3.65 -1.732 QT
cp
-3.65 -2.013 M
-3.041 -2.013 -2.736 -2.638 QT
-2.431 -3.263 -2.361 -4.029 QT
-2.291 -4.794 -2.291 -5.654 QT
-2.291 -6.482 -2.361 -7.177 QT
-2.431 -7.873 -2.728 -8.443 QT
-3.025 -9.013 -3.65 -9.013 QT
-4.275 -9.013 -4.572 -8.443 QT
-4.869 -7.873 -4.939 -7.177 QT
-5.009 -6.482 -5.009 -5.654 QT
-5.009 -5.044 -4.986 -4.498 QT
-4.963 -3.951 -4.83 -3.373 QT
-4.697 -2.794 -4.408 -2.404 QT
-4.119 -2.013 -3.65 -2.013 QT
cp}def
f1367386014
f
GR
GS
[0 -1 1 0 33.68882 202.49983] CT
0.149 GC
N
/f1723620107{-40.424 -6.336 M
-40.424 -6.977 L
-38.565 -6.977 -38.565 -7.539 QT
-38.565 -17.43 L
-38.565 -17.992 -40.424 -17.992 QT
-40.424 -18.633 L
-34.768 -18.633 L
-33.752 -18.633 -32.643 -18.266 QT
-31.533 -17.899 -30.783 -17.156 QT
-30.033 -16.414 -30.033 -15.367 QT
-30.033 -14.617 -30.487 -14.024 QT
-30.94 -13.43 -31.651 -13.031 QT
-32.362 -12.633 -33.096 -12.461 QT
-32.283 -12.18 -31.682 -11.563 QT
-31.08 -10.945 -30.955 -10.149 QT
-30.705 -8.555 L
-30.518 -7.477 -30.33 -6.945 QT
-30.143 -6.414 -29.471 -6.414 QT
-28.908 -6.414 -28.635 -6.93 QT
-28.362 -7.445 -28.362 -8.07 QT
-28.362 -8.133 -28.307 -8.18 QT
-28.252 -8.227 -28.19 -8.227 QT
-28.018 -8.227 L
-27.846 -8.227 -27.846 -7.992 QT
-27.846 -7.492 -28.041 -7.024 QT
-28.237 -6.555 -28.596 -6.25 QT
-28.955 -5.945 -29.455 -5.945 QT
-30.768 -5.945 -31.698 -6.586 QT
-32.627 -7.227 -32.627 -8.477 QT
-32.627 -10.086 L
-32.627 -10.977 -33.252 -11.617 QT
-33.877 -12.258 -34.783 -12.258 QT
-36.955 -12.258 L
-36.955 -7.539 L
-36.955 -6.977 -35.096 -6.977 QT
-35.096 -6.336 L
-40.424 -6.336 L
cp
-36.955 -12.727 M
-35.018 -12.727 L
-33.533 -12.727 -32.752 -13.328 QT
-31.971 -13.93 -31.971 -15.367 QT
-31.971 -16.805 -32.744 -17.399 QT
-33.518 -17.992 -35.018 -17.992 QT
-36.033 -17.992 L
-36.362 -17.992 -36.541 -17.969 QT
-36.721 -17.945 -36.838 -17.82 QT
-36.955 -17.695 -36.955 -17.43 QT
-36.955 -12.727 L
cp}def
f1723620107
f
GR
GS
[0 -1 1 0 33.68882 202.49983] CT
0.149 GC
N
/f-769250188{-27.422 -6.336 M
-27.422 -6.977 L
-25.578 -6.977 -25.578 -8.039 QT
-25.578 -17.43 L
-25.578 -17.992 -27.422 -17.992 QT
-27.422 -18.633 L
-24.031 -18.633 L
-23.812 -18.633 -23.734 -18.43 QT
-19.812 -8.242 L
-15.89 -18.43 L
-15.828 -18.633 -15.609 -18.633 QT
-12.203 -18.633 L
-12.203 -17.992 L
-14.062 -17.992 -14.062 -17.43 QT
-14.062 -7.539 L
-14.062 -6.977 -12.203 -6.977 QT
-12.203 -6.336 L
-17.437 -6.336 L
-17.437 -6.977 L
-15.594 -6.977 -15.594 -7.539 QT
-15.594 -18.024 L
-20.015 -6.539 L
-20.094 -6.336 -20.312 -6.336 QT
-20.547 -6.336 -20.625 -6.539 QT
-25 -17.883 L
-25 -8.039 L
-25 -6.977 -23.156 -6.977 QT
-23.156 -6.336 L
-27.422 -6.336 L
cp}def
f-769250188
f
GR
GS
[0 -1 1 0 33.68882 202.49983] CT
0.149 GC
N
/f911375947{-10.913 -6.086 M
-10.913 -10.289 L
-10.913 -10.43 -10.757 -10.43 QT
-10.538 -10.43 L
-10.491 -10.43 -10.445 -10.383 QT
-10.398 -10.336 -10.398 -10.289 QT
-10.398 -8.524 -9.304 -7.547 QT
-8.21 -6.57 -6.429 -6.57 QT
-5.804 -6.57 -5.28 -6.93 QT
-4.757 -7.289 -4.46 -7.875 QT
-4.163 -8.461 -4.163 -9.086 QT
-4.163 -9.633 -4.382 -10.149 QT
-4.601 -10.664 -5.015 -11.039 QT
-5.429 -11.414 -5.945 -11.539 QT
-8.288 -12.117 L
-9.445 -12.414 -10.179 -13.367 QT
-10.913 -14.32 -10.913 -15.508 QT
-10.913 -16.445 -10.445 -17.266 QT
-9.976 -18.086 -9.171 -18.555 QT
-8.366 -19.024 -7.429 -19.024 QT
-5.632 -19.024 -4.57 -17.805 QT
-3.82 -18.977 L
-3.773 -19.024 -3.695 -19.024 QT
-3.585 -19.024 L
-3.523 -19.024 -3.476 -18.985 QT
-3.429 -18.945 -3.429 -18.883 QT
-3.429 -14.711 L
-3.429 -14.539 -3.585 -14.539 QT
-3.788 -14.539 L
-3.96 -14.539 -3.96 -14.711 QT
-3.96 -15.164 -4.109 -15.711 QT
-4.257 -16.258 -4.53 -16.758 QT
-4.804 -17.258 -5.132 -17.57 QT
-5.991 -18.445 -7.429 -18.445 QT
-8.038 -18.445 -8.562 -18.133 QT
-9.085 -17.82 -9.39 -17.289 QT
-9.695 -16.758 -9.695 -16.164 QT
-9.695 -15.383 -9.218 -14.758 QT
-8.741 -14.133 -7.96 -13.93 QT
-5.632 -13.352 L
-5.054 -13.211 -4.538 -12.852 QT
-4.023 -12.492 -3.679 -12.008 QT
-3.335 -11.524 -3.14 -10.93 QT
-2.945 -10.336 -2.945 -9.695 QT
-2.945 -8.727 -3.39 -7.86 QT
-3.835 -6.992 -4.655 -6.469 QT
-5.476 -5.945 -6.429 -5.945 QT
-7.038 -5.945 -7.663 -6.078 QT
-8.288 -6.211 -8.812 -6.477 QT
-9.335 -6.742 -9.773 -7.18 QT
-10.523 -5.992 L
-10.57 -5.945 -10.648 -5.945 QT
-10.757 -5.945 L
-10.913 -5.945 -10.913 -6.086 QT
cp}def
f911375947
f
GR
GS
[0 -1 1 0 33.68882 202.49983] CT
0.149 GC
N
/f1667098675{8.2 -6.133 M
7.106 -6.133 6.184 -6.711 QT
5.262 -7.289 4.739 -8.25 QT
4.216 -9.211 4.216 -10.289 QT
4.216 -11.336 4.692 -12.289 QT
5.169 -13.242 6.028 -13.82 QT
6.887 -14.399 7.95 -14.399 QT
8.762 -14.399 9.38 -14.125 QT
9.997 -13.852 10.387 -13.36 QT
10.778 -12.867 10.981 -12.195 QT
11.184 -11.524 11.184 -10.727 QT
11.184 -10.492 10.997 -10.492 QT
5.794 -10.492 L
5.794 -10.305 L
5.794 -8.805 6.395 -7.735 QT
6.997 -6.664 8.356 -6.664 QT
8.903 -6.664 9.38 -6.906 QT
9.856 -7.149 10.2 -7.594 QT
10.544 -8.039 10.669 -8.539 QT
10.684 -8.602 10.731 -8.649 QT
10.778 -8.695 10.841 -8.695 QT
10.997 -8.695 L
11.184 -8.695 11.184 -8.461 QT
10.934 -7.445 10.091 -6.789 QT
9.247 -6.133 8.2 -6.133 QT
cp
5.809 -10.945 M
9.919 -10.945 L
9.919 -11.617 9.723 -12.313 QT
9.528 -13.008 9.091 -13.469 QT
8.653 -13.93 7.95 -13.93 QT
6.919 -13.93 6.364 -12.977 QT
5.809 -12.024 5.809 -10.945 QT
cp}def
f1667098675
f
GR
GS
[0 -1 1 0 33.68882 202.49983] CT
0.149 GC
N
/f817241787{12.007 -6.336 M
12.007 -6.977 L
12.616 -6.977 13.014 -7.07 QT
13.413 -7.164 13.413 -7.539 QT
13.413 -12.461 L
13.413 -12.93 13.264 -13.149 QT
13.116 -13.367 12.842 -13.414 QT
12.569 -13.461 12.007 -13.461 QT
12.007 -14.102 L
14.585 -14.289 L
14.585 -12.539 L
14.866 -13.32 15.405 -13.805 QT
15.944 -14.289 16.71 -14.289 QT
17.241 -14.289 17.663 -13.977 QT
18.085 -13.664 18.085 -13.133 QT
18.085 -12.82 17.85 -12.578 QT
17.616 -12.336 17.272 -12.336 QT
16.944 -12.336 16.71 -12.57 QT
16.475 -12.805 16.475 -13.133 QT
16.475 -13.617 16.819 -13.82 QT
16.71 -13.82 L
15.975 -13.82 15.514 -13.297 QT
15.053 -12.774 14.858 -11.992 QT
14.663 -11.211 14.663 -10.492 QT
14.663 -7.539 L
14.663 -6.977 16.413 -6.977 QT
16.413 -6.336 L
12.007 -6.336 L
cp}def
f817241787
f
GR
GS
[0 -1 1 0 33.68882 202.49983] CT
0.149 GC
N
/f-977308813{18.9 -6.336 M
18.9 -6.977 L
19.509 -6.977 19.908 -7.07 QT
20.306 -7.164 20.306 -7.539 QT
20.306 -12.461 L
20.306 -12.93 20.158 -13.149 QT
20.009 -13.367 19.736 -13.414 QT
19.462 -13.461 18.9 -13.461 QT
18.9 -14.102 L
21.478 -14.289 L
21.478 -12.539 L
21.759 -13.32 22.298 -13.805 QT
22.837 -14.289 23.603 -14.289 QT
24.134 -14.289 24.556 -13.977 QT
24.978 -13.664 24.978 -13.133 QT
24.978 -12.82 24.744 -12.578 QT
24.509 -12.336 24.165 -12.336 QT
23.837 -12.336 23.603 -12.57 QT
23.369 -12.805 23.369 -13.133 QT
23.369 -13.617 23.712 -13.82 QT
23.603 -13.82 L
22.869 -13.82 22.408 -13.297 QT
21.947 -12.774 21.751 -11.992 QT
21.556 -11.211 21.556 -10.492 QT
21.556 -7.539 L
21.556 -6.977 23.306 -6.977 QT
23.306 -6.336 L
18.9 -6.336 L
cp}def
f-977308813
f
GR
GS
[0 -1 1 0 33.68882 202.49983] CT
0.149 GC
N
/f-789889889{29.824 -6.133 M
28.746 -6.133 27.824 -6.68 QT
26.903 -7.227 26.364 -8.156 QT
25.824 -9.086 25.824 -10.164 QT
25.824 -10.992 26.121 -11.758 QT
26.418 -12.524 26.965 -13.125 QT
27.512 -13.727 28.239 -14.063 QT
28.965 -14.399 29.824 -14.399 QT
30.934 -14.399 31.84 -13.82 QT
32.746 -13.242 33.278 -12.258 QT
33.809 -11.274 33.809 -10.164 QT
33.809 -9.086 33.27 -8.156 QT
32.731 -7.227 31.817 -6.68 QT
30.903 -6.133 29.824 -6.133 QT
cp
29.824 -6.664 M
31.262 -6.664 31.746 -7.711 QT
32.231 -8.758 32.231 -10.367 QT
32.231 -11.274 32.137 -11.867 QT
32.043 -12.461 31.715 -12.945 QT
31.512 -13.242 31.199 -13.469 QT
30.887 -13.695 30.543 -13.813 QT
30.199 -13.93 29.824 -13.93 QT
29.262 -13.93 28.754 -13.672 QT
28.246 -13.414 27.918 -12.945 QT
27.59 -12.43 27.496 -11.82 QT
27.403 -11.211 27.403 -10.367 QT
27.403 -9.367 27.574 -8.563 QT
27.746 -7.758 28.278 -7.211 QT
28.809 -6.664 29.824 -6.664 QT
cp}def
f-789889889
f
GR
GS
[0 -1 1 0 33.68882 202.49983] CT
0.149 GC
N
/f755640501{34.593 -6.336 M
34.593 -6.977 L
35.203 -6.977 35.601 -7.07 QT
35.999 -7.164 35.999 -7.539 QT
35.999 -12.461 L
35.999 -12.93 35.851 -13.149 QT
35.703 -13.367 35.429 -13.414 QT
35.156 -13.461 34.593 -13.461 QT
34.593 -14.102 L
37.171 -14.289 L
37.171 -12.539 L
37.453 -13.32 37.992 -13.805 QT
38.531 -14.289 39.296 -14.289 QT
39.828 -14.289 40.249 -13.977 QT
40.671 -13.664 40.671 -13.133 QT
40.671 -12.82 40.437 -12.578 QT
40.203 -12.336 39.859 -12.336 QT
39.531 -12.336 39.296 -12.57 QT
39.062 -12.805 39.062 -13.133 QT
39.062 -13.617 39.406 -13.82 QT
39.296 -13.82 L
38.562 -13.82 38.101 -13.297 QT
37.64 -12.774 37.445 -11.992 QT
37.249 -11.211 37.249 -10.492 QT
37.249 -7.539 L
37.249 -6.977 38.999 -6.977 QT
38.999 -6.336 L
34.593 -6.336 L
cp}def
f755640501
f
GR
GS
0 0.447 0.741 RC
1 LJ
1.5 LW
N
73 90.51 M
76.593 101.002 L
82.89 75.273 L
85.684 100.062 L
90.718 95.289 L
95.158 104.702 L
99.129 94.648 L
104.398 107.038 L
107.541 98.964 L
111.813 101.326 L
116.847 103.388 L
121.287 103.272 L
125.259 110.763 L
129.699 114.773 L
134.417 101.646 L
138.61 108.073 L
142.976 114.889 L
147.416 111.329 L
151.857 112.605 L
156.245 106.736 L
160.546 116.816 L
165.069 115.942 L
169.399 113.979 L
173.807 119.354 L
178.218 115.563 L
182.581 117.751 L
187.044 114.203 L
191.362 117.603 L
195.82 115.118 L
200.195 110.094 L
204.463 114.757 L
208.916 114.891 L
213.264 112.03 L
217.654 120.241 L
222.022 117.218 L
226.454 113.252 L
230.822 120.898 L
235.198 115.556 L
239.576 116.956 L
243.986 117.505 L
248.367 117.024 L
252.743 118.37 L
257.123 117.475 L
261.506 117.49 L
265.887 116.21 L
270.276 117.66 L
274.658 115.816 L
279.033 118.045 L
283.423 116.773 L
287.813 116.611 L
292.196 117.033 L
296.576 116.562 L
300.957 117.13 L
305.345 116.779 L
309.729 117.928 L
314.112 117.881 L
318.494 117.017 L
322.881 117.257 L
327.265 116.726 L
331.645 117.954 L
336.031 116.21 L
340.414 117.106 L
344.797 117.512 L
349.182 117.18 L
353.567 117.262 L
357.949 116.908 L
362.333 117.23 L
366.717 117.262 L
371.101 117.446 L
375.485 117.348 L
379.869 116.883 L
384.252 117.327 L
388.637 117.098 L
393.02 116.757 L
397.404 117.239 L
401.788 117.122 L
406.172 117.364 L
410.555 117.172 L
414.939 117.155 L
419.323 117.379 L
423.707 116.982 L
428.091 117.467 L
432.475 117.303 L
436.859 117.329 L
441.242 117.089 L
445.626 117.292 L
450.01 117.138 L
454.394 117.14 L
458.778 117.348 L
463.162 117.136 L
467.545 117.273 L
471.929 117.122 L
476.313 117.192 L
480.697 117.215 L
485.081 117.246 L
489.465 117.204 L
493.848 117.136 L
498.232 117.211 L
502.616 117.16 L
507 117.148 L
S
GR
GS
0.851 0.325 0.098 RC
1 LJ
1.5 LW
N
73 96.097 M
76.593 90.373 L
82.89 106.628 L
85.684 103.68 L
90.718 113.271 L
95.158 111.338 L
99.129 108.329 L
104.398 110.306 L
107.541 114.489 L
111.813 104.325 L
116.847 122.899 L
121.287 123.44 L
125.259 123.321 L
129.699 129.519 L
134.417 135.248 L
138.61 126.003 L
142.976 127.632 L
147.416 133.056 L
151.857 149.84 L
156.245 132.394 L
160.546 141.424 L
165.069 137.012 L
169.399 141.305 L
173.807 155.721 L
178.218 151.032 L
182.581 145.868 L
187.044 158.443 L
191.362 147.968 L
195.82 151.578 L
200.195 163.761 L
204.463 151.584 L
208.916 155.55 L
213.264 159.835 L
217.654 155.001 L
222.022 156.083 L
226.454 162.3 L
230.822 163.216 L
235.198 164.619 L
239.576 163.353 L
243.986 167.485 L
248.367 164.459 L
252.743 165.011 L
257.123 162.43 L
261.506 161.427 L
265.887 164.825 L
270.276 162.231 L
274.658 162.79 L
279.033 165.959 L
283.423 159.879 L
287.813 160.144 L
292.196 168.266 L
296.576 165.205 L
300.957 164.317 L
305.345 163.823 L
309.729 166.371 L
314.112 166.503 L
318.494 164.896 L
322.881 164.831 L
327.265 164.681 L
331.645 168.183 L
336.031 165.754 L
340.414 165.743 L
344.797 165.57 L
349.182 166.439 L
353.567 164.311 L
357.949 165.752 L
362.333 166.113 L
366.717 166.653 L
371.101 164.335 L
375.485 166.139 L
379.869 163.713 L
384.252 166.257 L
388.637 163.595 L
393.02 165.28 L
397.404 165.526 L
401.788 165.565 L
406.172 165.854 L
410.555 165.247 L
414.939 166.1 L
419.323 166.127 L
423.707 165.833 L
428.091 166.089 L
432.475 165.954 L
436.859 165.817 L
441.242 166.746 L
445.626 165.767 L
450.01 166.344 L
454.394 165.782 L
458.778 165.909 L
463.162 166.372 L
467.545 166.226 L
471.929 166.053 L
476.313 166.085 L
480.697 165.76 L
485.081 165.861 L
489.465 165.96 L
493.848 166.073 L
498.232 165.944 L
502.616 166.186 L
507 165.913 L
S
GR
GS
0.929 0.694 0.125 RC
1 LJ
1.5 LW
N
73 89.274 M
76.593 104.945 L
82.89 96.041 L
85.684 109.219 L
90.718 103.79 L
95.158 102.878 L
99.129 116.675 L
104.398 106.485 L
107.541 113.743 L
111.813 127.182 L
116.847 126.879 L
121.287 111.966 L
125.259 133.995 L
129.699 122.762 L
134.417 138.495 L
138.61 132.619 L
142.976 134.539 L
147.416 138.806 L
151.857 130.608 L
156.245 150.874 L
160.546 149.784 L
165.069 157.471 L
169.399 172.51 L
173.807 161.407 L
178.218 153.295 L
182.581 167.915 L
187.044 161.614 L
191.362 166.927 L
195.82 164.07 L
200.195 164.531 L
204.463 177.662 L
208.916 183.245 L
213.264 191.356 L
217.654 184.528 L
222.022 175.201 L
226.454 193.589 L
230.822 180.502 L
235.198 196.692 L
239.576 193.524 L
243.986 201.315 L
248.367 201.807 L
252.743 207.284 L
257.123 201.348 L
261.506 219.99 L
265.887 222.253 L
270.276 213.61 L
274.658 229.405 L
279.033 231.775 L
283.423 235.669 L
287.813 233.709 L
292.196 231.504 L
296.576 223.759 L
300.957 231.615 L
305.345 244.318 L
309.729 247.926 L
314.112 253.597 L
318.494 249.55 L
322.881 247.627 L
327.265 250.993 L
331.645 249.74 L
336.031 262.803 L
340.414 247.9 L
344.797 261.286 L
349.182 255.471 L
353.567 273.493 L
357.949 273.499 L
362.333 270.003 L
366.717 276.876 L
371.101 267.133 L
375.485 291.065 L
379.869 271.265 L
384.252 279.021 L
388.637 276.428 L
393.02 284.149 L
397.404 284.98 L
401.788 294.064 L
406.172 292.79 L
410.555 299.256 L
414.939 293.674 L
419.323 294.098 L
423.707 304.087 L
428.091 302.794 L
432.475 307.294 L
436.859 307.086 L
441.242 311.399 L
445.626 309.859 L
450.01 302.116 L
454.394 303.033 L
458.778 303.556 L
463.162 322.451 L
467.545 304.801 L
471.929 317.491 L
476.313 310.339 L
480.697 306.3 L
485.081 314.277 L
489.465 318.921 L
493.848 313.583 L
498.232 317.246 L
502.616 318.786 L
507 316.738 L
S
GR
GS
0.494 0.184 0.557 RC
1 LJ
1.5 LW
N
73 85.015 M
76.593 100.362 L
82.89 96.83 L
85.684 106.268 L
90.718 98.599 L
95.158 120.62 L
99.129 117.241 L
104.398 124.111 L
107.541 111.752 L
111.813 120.054 L
116.847 123.48 L
121.287 138.206 L
125.259 119.22 L
129.699 124.057 L
134.417 142.22 L
138.61 125.253 L
142.976 138.753 L
147.416 140.168 L
151.857 138.657 L
156.245 141.988 L
160.546 156.342 L
165.069 142.111 L
169.399 155.113 L
173.807 174.339 L
178.218 162.156 L
182.581 162.08 L
187.044 157.397 L
191.362 161.253 L
195.82 171.911 L
200.195 174.12 L
204.463 182.474 L
208.916 172.474 L
213.264 177.456 L
217.654 198.108 L
222.022 203.587 L
226.454 196.968 L
230.822 187.45 L
235.198 198.561 L
239.576 194.051 L
243.986 191.917 L
248.367 192.942 L
252.743 216.688 L
257.123 211.744 L
261.506 216.151 L
265.887 200.325 L
270.276 208.439 L
274.658 201.4 L
279.033 204.324 L
283.423 225.166 L
287.813 234.792 L
292.196 232.393 L
296.576 217.556 L
300.957 233.722 L
305.345 236.709 L
309.729 235.961 L
314.112 239.146 L
318.494 242.518 L
322.881 254.113 L
327.265 251.837 L
331.645 252.74 L
336.031 259.566 L
340.414 263.331 L
344.797 252.581 L
349.182 265.857 L
353.567 273.906 L
357.949 281.229 L
362.333 294.753 L
366.717 272.268 L
371.101 287.093 L
375.485 281.69 L
379.869 285.784 L
384.252 287.162 L
388.637 278.754 L
393.02 293.649 L
397.404 288.376 L
401.788 304.897 L
406.172 300.401 L
410.555 322.751 L
414.939 301.947 L
419.323 300.272 L
423.707 307.257 L
428.091 316.389 L
432.475 311.038 L
436.859 337.006 L
441.242 326.825 L
445.626 330.595 L
450.01 323.304 L
454.394 327.435 L
458.778 326.391 L
463.162 330.844 L
467.545 340.947 L
471.929 330.492 L
476.313 342.474 L
480.697 342.833 L
485.081 357.181 L
489.465 359.04 L
493.848 365.172 L
498.232 363.052 L
502.616 373.5 L
507 363.806 L
S
GR
GS
1 GC
N
250.5 365.5 M
250.5 291 L
81 291 L
81 365.5 L
cp
f
GR
GS
[1 0 0 1 118.04734 301.62289] CT
N
/f1278073074{3.188 1.956 M
3.672 2.565 4.391 2.917 QT
5.109 3.268 5.875 3.268 QT
6.531 3.268 7.086 3.011 QT
7.641 2.753 8.055 2.3 QT
8.469 1.847 8.688 1.261 QT
8.906 0.675 8.906 0.034 QT
8.906 -0.075 9.031 -0.075 QT
9.203 -0.075 L
9.313 -0.075 9.313 0.065 QT
9.313 0.8 9.031 1.479 QT
8.75 2.159 8.234 2.675 QT
7.719 3.19 7.055 3.479 QT
6.391 3.768 5.672 3.768 QT
4.656 3.768 3.758 3.362 QT
2.859 2.956 2.195 2.245 QT
1.531 1.534 1.156 0.604 QT
0.781 -0.325 0.781 -1.325 QT
0.781 -2.341 1.156 -3.271 QT
1.531 -4.2 2.195 -4.911 QT
2.859 -5.622 3.758 -6.021 QT
4.656 -6.419 5.672 -6.419 QT
6.391 -6.419 7.047 -6.107 QT
7.703 -5.794 8.188 -5.232 QT
9 -6.372 L
9.078 -6.419 9.094 -6.419 QT
9.203 -6.419 L
9.25 -6.419 9.281 -6.38 QT
9.313 -6.341 9.313 -6.294 QT
9.313 -2.513 L
9.313 -2.403 9.203 -2.403 QT
8.953 -2.403 L
8.813 -2.403 8.813 -2.513 QT
8.813 -2.919 8.656 -3.419 QT
8.5 -3.919 8.25 -4.364 QT
8 -4.81 7.672 -5.153 QT
6.891 -5.919 5.859 -5.919 QT
5.094 -5.919 4.383 -5.575 QT
3.672 -5.232 3.188 -4.607 QT
2.688 -3.95 2.484 -3.114 QT
2.281 -2.278 2.281 -1.325 QT
2.281 -0.372 2.484 0.464 QT
2.688 1.3 3.188 1.956 QT
cp}def
f1278073074
f
GR
GS
[1 0 0 1 118.04734 301.62289] CT
N
/f196223371{13.884 3.612 M
13.025 3.612 12.314 3.167 QT
11.603 2.722 11.197 1.972 QT
10.791 1.222 10.791 0.393 QT
10.791 -0.435 11.166 -1.169 QT
11.541 -1.903 12.205 -2.364 QT
12.869 -2.825 13.681 -2.825 QT
14.338 -2.825 14.806 -2.607 QT
15.275 -2.388 15.588 -2.005 QT
15.9 -1.622 16.056 -1.107 QT
16.213 -0.591 16.213 0.034 QT
16.213 0.222 16.072 0.222 QT
12.009 0.222 L
12.009 0.378 L
12.009 1.534 12.478 2.37 QT
12.947 3.206 14.009 3.206 QT
14.447 3.206 14.806 3.011 QT
15.166 2.815 15.439 2.479 QT
15.713 2.143 15.806 1.753 QT
15.822 1.706 15.861 1.667 QT
15.9 1.628 15.947 1.628 QT
16.072 1.628 L
16.213 1.628 16.213 1.8 QT
16.009 2.597 15.353 3.104 QT
14.697 3.612 13.884 3.612 QT
cp
12.025 -0.122 M
15.213 -0.122 L
15.213 -0.653 15.072 -1.192 QT
14.931 -1.732 14.588 -2.091 QT
14.244 -2.45 13.681 -2.45 QT
12.9 -2.45 12.463 -1.708 QT
12.025 -0.966 12.025 -0.122 QT
cp}def
f196223371
f
GR
GS
[1 0 0 1 118.04734 301.62289] CT
N
/f16131306{17.222 3.456 M
17.222 2.956 L
17.691 2.956 18.003 2.886 QT
18.316 2.815 18.316 2.518 QT
18.316 -1.31 L
18.316 -1.685 18.198 -1.849 QT
18.081 -2.013 17.87 -2.052 QT
17.659 -2.091 17.222 -2.091 QT
17.222 -2.575 L
19.253 -2.732 L
19.253 -1.357 L
19.534 -1.966 20.081 -2.349 QT
20.628 -2.732 21.284 -2.732 QT
22.253 -2.732 22.738 -2.263 QT
23.222 -1.794 23.222 -0.841 QT
23.222 2.518 L
23.222 2.815 23.534 2.886 QT
23.847 2.956 24.316 2.956 QT
24.316 3.456 L
21.113 3.456 L
21.113 2.956 L
21.597 2.956 21.902 2.886 QT
22.206 2.815 22.206 2.518 QT
22.206 -0.81 L
22.206 -1.482 22.011 -1.927 QT
21.816 -2.372 21.191 -2.372 QT
20.378 -2.372 19.855 -1.724 QT
19.331 -1.075 19.331 -0.247 QT
19.331 2.518 L
19.331 2.815 19.644 2.886 QT
19.956 2.956 20.425 2.956 QT
20.425 3.456 L
17.222 3.456 L
cp}def
f16131306
f
GR
GS
[1 0 0 1 118.04734 301.62289] CT
N
/f56854462{25.822 1.768 M
25.822 -2.091 L
24.666 -2.091 L
24.666 -2.45 L
25.588 -2.45 26.017 -3.302 QT
26.447 -4.153 26.447 -5.153 QT
26.853 -5.153 L
26.853 -2.575 L
28.822 -2.575 L
28.822 -2.091 L
26.853 -2.091 L
26.853 1.753 L
26.853 2.331 27.048 2.768 QT
27.244 3.206 27.744 3.206 QT
28.228 3.206 28.439 2.745 QT
28.65 2.284 28.65 1.753 QT
28.65 0.925 L
29.056 0.925 L
29.056 1.768 L
29.056 2.206 28.892 2.636 QT
28.728 3.065 28.416 3.339 QT
28.103 3.612 27.65 3.612 QT
26.806 3.612 26.314 3.112 QT
25.822 2.612 25.822 1.768 QT
cp}def
f56854462
f
GR
GS
[1 0 0 1 118.04734 301.62289] CT
N
/f-209052421{30.359 3.456 M
30.359 2.956 L
30.844 2.956 31.148 2.886 QT
31.453 2.815 31.453 2.518 QT
31.453 -1.31 L
31.453 -1.685 31.344 -1.849 QT
31.234 -2.013 31.023 -2.052 QT
30.813 -2.091 30.359 -2.091 QT
30.359 -2.575 L
32.359 -2.732 L
32.359 -1.357 L
32.594 -1.966 33.008 -2.349 QT
33.422 -2.732 34.016 -2.732 QT
34.438 -2.732 34.766 -2.482 QT
35.094 -2.232 35.094 -1.841 QT
35.094 -1.575 34.914 -1.388 QT
34.734 -1.2 34.469 -1.2 QT
34.203 -1.2 34.016 -1.388 QT
33.828 -1.575 33.828 -1.841 QT
33.828 -2.216 34.109 -2.372 QT
34.016 -2.372 L
33.453 -2.372 33.094 -1.958 QT
32.734 -1.544 32.586 -0.935 QT
32.438 -0.325 32.438 0.222 QT
32.438 2.518 L
32.438 2.956 33.797 2.956 QT
33.797 3.456 L
30.359 3.456 L
cp}def
f-209052421
f
GR
GS
[1 0 0 1 118.04734 301.62289] CT
N
/f1498340037{36.203 2.081 M
36.203 1.253 36.859 0.729 QT
37.515 0.206 38.437 -0.013 QT
39.359 -0.232 40.187 -0.232 QT
40.187 -0.81 L
40.187 -1.2 40.007 -1.583 QT
39.828 -1.966 39.492 -2.208 QT
39.156 -2.45 38.749 -2.45 QT
37.828 -2.45 37.343 -2.028 QT
37.609 -2.028 37.781 -1.833 QT
37.953 -1.638 37.953 -1.357 QT
37.953 -1.091 37.757 -0.888 QT
37.562 -0.685 37.281 -0.685 QT
36.999 -0.685 36.804 -0.888 QT
36.609 -1.091 36.609 -1.357 QT
36.609 -2.107 37.273 -2.466 QT
37.937 -2.825 38.749 -2.825 QT
39.312 -2.825 39.89 -2.583 QT
40.468 -2.341 40.835 -1.888 QT
41.203 -1.435 41.203 -0.825 QT
41.203 2.315 L
41.203 2.597 41.32 2.823 QT
41.437 3.05 41.671 3.05 QT
41.906 3.05 42.023 2.815 QT
42.14 2.581 42.14 2.315 QT
42.14 1.425 L
42.546 1.425 L
42.546 2.315 L
42.546 2.628 42.382 2.917 QT
42.218 3.206 41.937 3.37 QT
41.656 3.534 41.343 3.534 QT
40.937 3.534 40.64 3.222 QT
40.343 2.909 40.296 2.472 QT
40.046 2.987 39.538 3.3 QT
39.031 3.612 38.453 3.612 QT
37.921 3.612 37.406 3.456 QT
36.89 3.3 36.546 2.964 QT
36.203 2.628 36.203 2.081 QT
cp
37.343 2.081 M
37.343 2.581 37.703 2.909 QT
38.062 3.237 38.546 3.237 QT
38.999 3.237 39.374 3.018 QT
39.749 2.8 39.968 2.409 QT
40.187 2.018 40.187 1.581 QT
40.187 0.128 L
39.546 0.128 38.882 0.339 QT
38.218 0.55 37.781 0.987 QT
37.343 1.425 37.343 2.081 QT
cp}def
f1498340037
f
GR
GS
[1 0 0 1 118.04734 301.62289] CT
N
/f-1771016180{43.278 3.456 M
43.278 2.956 L
43.746 2.956 44.059 2.886 QT
44.371 2.815 44.371 2.518 QT
44.371 -4.825 L
44.371 -5.2 44.254 -5.372 QT
44.137 -5.544 43.926 -5.583 QT
43.715 -5.622 43.278 -5.622 QT
43.278 -6.107 L
45.356 -6.263 L
45.356 2.518 L
45.356 2.815 45.66 2.886 QT
45.965 2.956 46.434 2.956 QT
46.434 3.456 L
43.278 3.456 L
cp}def
f-1771016180
f
GR
GS
[1 0 0 1 118.04734 301.62289] CT
N
/f1604427358{52.078 3.456 M
52.078 2.956 L
52.546 2.956 52.859 2.886 QT
53.171 2.815 53.171 2.518 QT
53.171 -4.825 L
53.171 -5.2 53.054 -5.372 QT
52.937 -5.544 52.726 -5.583 QT
52.515 -5.622 52.078 -5.622 QT
52.078 -6.107 L
54.156 -6.263 L
54.156 2.518 L
54.156 2.815 54.46 2.886 QT
54.765 2.956 55.234 2.956 QT
55.234 3.456 L
52.078 3.456 L
cp}def
f1604427358
f
GR
GS
[1 0 0 1 118.04734 301.62289] CT
N
/f1944955894{56.078 3.456 M
56.078 2.956 L
56.546 2.956 56.859 2.886 QT
57.171 2.815 57.171 2.518 QT
57.171 -1.31 L
57.171 -1.841 56.96 -1.966 QT
56.749 -2.091 56.14 -2.091 QT
56.14 -2.575 L
58.156 -2.732 L
58.156 2.518 L
58.156 2.815 58.421 2.886 QT
58.687 2.956 59.124 2.956 QT
59.124 3.456 L
56.078 3.456 L
cp
56.671 -5.138 M
56.671 -5.45 56.898 -5.677 QT
57.124 -5.903 57.437 -5.903 QT
57.624 -5.903 57.812 -5.802 QT
57.999 -5.7 58.101 -5.521 QT
58.203 -5.341 58.203 -5.138 QT
58.203 -4.841 57.968 -4.607 QT
57.734 -4.372 57.437 -4.372 QT
57.124 -4.372 56.898 -4.607 QT
56.671 -4.841 56.671 -5.138 QT
cp}def
f1944955894
f
GR
GS
[1 0 0 1 118.04734 301.62289] CT
N
/f-866469935{60.062 3.456 M
60.062 2.956 L
60.531 2.956 60.843 2.886 QT
61.156 2.815 61.156 2.518 QT
61.156 -1.31 L
61.156 -1.685 61.039 -1.849 QT
60.921 -2.013 60.71 -2.052 QT
60.499 -2.091 60.062 -2.091 QT
60.062 -2.575 L
62.093 -2.732 L
62.093 -1.357 L
62.374 -1.966 62.921 -2.349 QT
63.468 -2.732 64.124 -2.732 QT
65.734 -2.732 66.015 -1.419 QT
66.296 -2.013 66.835 -2.372 QT
67.374 -2.732 68.015 -2.732 QT
68.656 -2.732 69.085 -2.528 QT
69.515 -2.325 69.734 -1.903 QT
69.953 -1.482 69.953 -0.841 QT
69.953 2.518 L
69.953 2.815 70.265 2.886 QT
70.578 2.956 71.046 2.956 QT
71.046 3.456 L
67.843 3.456 L
67.843 2.956 L
68.328 2.956 68.632 2.886 QT
68.937 2.815 68.937 2.518 QT
68.937 -0.81 L
68.937 -1.513 68.742 -1.942 QT
68.546 -2.372 67.921 -2.372 QT
67.124 -2.372 66.593 -1.724 QT
66.062 -1.075 66.062 -0.247 QT
66.062 2.518 L
66.062 2.815 66.374 2.886 QT
66.687 2.956 67.156 2.956 QT
67.156 3.456 L
63.953 3.456 L
63.953 2.956 L
64.437 2.956 64.742 2.886 QT
65.046 2.815 65.046 2.518 QT
65.046 -0.81 L
65.046 -1.482 64.851 -1.927 QT
64.656 -2.372 64.031 -2.372 QT
63.218 -2.372 62.695 -1.724 QT
62.171 -1.075 62.171 -0.247 QT
62.171 2.518 L
62.171 2.815 62.484 2.886 QT
62.796 2.956 63.265 2.956 QT
63.265 3.456 L
60.062 3.456 L
cp}def
f-866469935
f
GR
GS
[1 0 0 1 118.04734 301.62289] CT
N
/f-1448524397{72.078 3.456 M
72.078 2.956 L
72.546 2.956 72.859 2.886 QT
73.171 2.815 73.171 2.518 QT
73.171 -1.31 L
73.171 -1.841 72.96 -1.966 QT
72.75 -2.091 72.14 -2.091 QT
72.14 -2.575 L
74.156 -2.732 L
74.156 2.518 L
74.156 2.815 74.421 2.886 QT
74.687 2.956 75.125 2.956 QT
75.125 3.456 L
72.078 3.456 L
cp
72.671 -5.138 M
72.671 -5.45 72.898 -5.677 QT
73.125 -5.903 73.437 -5.903 QT
73.625 -5.903 73.812 -5.802 QT
74 -5.7 74.101 -5.521 QT
74.203 -5.341 74.203 -5.138 QT
74.203 -4.841 73.968 -4.607 QT
73.734 -4.372 73.437 -4.372 QT
73.125 -4.372 72.898 -4.607 QT
72.671 -4.841 72.671 -5.138 QT
cp}def
f-1448524397
f
GR
GS
[1 0 0 1 118.04734 301.62289] CT
N
/f1402036564{77.062 1.768 M
77.062 -2.091 L
75.906 -2.091 L
75.906 -2.45 L
76.828 -2.45 77.257 -3.302 QT
77.687 -4.153 77.687 -5.153 QT
78.093 -5.153 L
78.093 -2.575 L
80.062 -2.575 L
80.062 -2.091 L
78.093 -2.091 L
78.093 1.753 L
78.093 2.331 78.289 2.768 QT
78.484 3.206 78.984 3.206 QT
79.468 3.206 79.679 2.745 QT
79.89 2.284 79.89 1.753 QT
79.89 0.925 L
80.296 0.925 L
80.296 1.768 L
80.296 2.206 80.132 2.636 QT
79.968 3.065 79.656 3.339 QT
79.343 3.612 78.89 3.612 QT
78.046 3.612 77.554 3.112 QT
77.062 2.612 77.062 1.768 QT
cp}def
f1402036564
f
GR
GS
[1 0 0 1 118.04734 301.62289] CT
N
/f-2054234905{87.118 3.222 M
87.118 3.128 87.134 3.097 QT
88.181 -1.091 L
88.29 -1.466 88.29 -1.763 QT
88.29 -2.372 87.868 -2.372 QT
87.431 -2.372 87.22 -1.849 QT
87.009 -1.325 86.806 -0.528 QT
86.806 -0.482 86.767 -0.458 QT
86.728 -0.435 86.696 -0.435 QT
86.54 -0.435 L
86.478 -0.435 86.446 -0.489 QT
86.415 -0.544 86.415 -0.575 QT
86.571 -1.185 86.712 -1.607 QT
86.853 -2.028 87.15 -2.38 QT
87.446 -2.732 87.884 -2.732 QT
88.415 -2.732 88.814 -2.403 QT
89.212 -2.075 89.212 -1.56 QT
89.634 -2.107 90.196 -2.419 QT
90.759 -2.732 91.384 -2.732 QT
91.884 -2.732 92.243 -2.56 QT
92.603 -2.388 92.806 -2.044 QT
93.009 -1.7 93.009 -1.216 QT
93.009 -0.653 92.751 0.167 QT
92.493 0.987 92.118 1.987 QT
91.915 2.44 91.915 2.831 QT
91.915 3.237 92.243 3.237 QT
92.79 3.237 93.157 2.651 QT
93.525 2.065 93.665 1.393 QT
93.696 1.315 93.79 1.315 QT
93.946 1.315 L
94.009 1.315 94.048 1.347 QT
94.087 1.378 94.087 1.44 QT
94.087 1.456 94.071 1.487 QT
93.868 2.268 93.4 2.94 QT
92.931 3.612 92.212 3.612 QT
91.728 3.612 91.376 3.276 QT
91.025 2.94 91.025 2.456 QT
91.025 2.19 91.134 1.909 QT
91.306 1.44 91.54 0.808 QT
91.775 0.175 91.915 -0.403 QT
92.056 -0.982 92.056 -1.435 QT
92.056 -1.825 91.9 -2.099 QT
91.743 -2.372 91.353 -2.372 QT
90.853 -2.372 90.415 -2.146 QT
89.978 -1.919 89.657 -1.544 QT
89.337 -1.169 89.071 -0.653 QT
88.118 3.143 L
88.071 3.347 87.907 3.479 QT
87.743 3.612 87.54 3.612 QT
87.368 3.612 87.243 3.503 QT
87.118 3.393 87.118 3.222 QT
cp}def
f-2054234905
f
GR
GS
[1 0 0 1 118.04734 301.62289] CT
N
/f654419549{99.73 1.597 M
99.621 1.597 99.543 1.511 QT
99.465 1.425 99.465 1.315 QT
99.465 1.206 99.543 1.12 QT
99.621 1.034 99.73 1.034 QT
108.527 1.034 L
108.637 1.034 108.707 1.12 QT
108.777 1.206 108.777 1.315 QT
108.777 1.425 108.707 1.511 QT
108.637 1.597 108.527 1.597 QT
99.73 1.597 L
cp
99.73 -1.122 M
99.621 -1.122 99.543 -1.208 QT
99.465 -1.294 99.465 -1.403 QT
99.465 -1.513 99.543 -1.599 QT
99.621 -1.685 99.73 -1.685 QT
108.527 -1.685 L
108.637 -1.685 108.707 -1.599 QT
108.777 -1.513 108.777 -1.403 QT
108.777 -1.294 108.707 -1.208 QT
108.637 -1.122 108.527 -1.122 QT
99.73 -1.122 L
cp}def
f654419549
f
GR
GS
[1 0 0 1 118.04734 301.62289] CT
N
/f11980961{114.586 3.456 M
114.586 3.081 L
114.586 3.05 114.602 3.003 QT
116.79 0.597 L
117.274 0.065 117.579 -0.294 QT
117.883 -0.653 118.188 -1.13 QT
118.493 -1.607 118.665 -2.091 QT
118.836 -2.575 118.836 -3.122 QT
118.836 -3.7 118.626 -4.224 QT
118.415 -4.747 117.993 -5.06 QT
117.571 -5.372 116.977 -5.372 QT
116.368 -5.372 115.883 -5.005 QT
115.399 -4.638 115.196 -4.06 QT
115.258 -4.075 115.352 -4.075 QT
115.665 -4.075 115.891 -3.864 QT
116.118 -3.653 116.118 -3.325 QT
116.118 -2.997 115.891 -2.778 QT
115.665 -2.56 115.352 -2.56 QT
115.024 -2.56 114.805 -2.786 QT
114.586 -3.013 114.586 -3.325 QT
114.586 -3.841 114.782 -4.302 QT
114.977 -4.763 115.352 -5.122 QT
115.727 -5.482 116.196 -5.677 QT
116.665 -5.872 117.18 -5.872 QT
117.993 -5.872 118.68 -5.528 QT
119.368 -5.185 119.774 -4.567 QT
120.18 -3.95 120.18 -3.122 QT
120.18 -2.513 119.907 -1.966 QT
119.633 -1.419 119.219 -0.974 QT
118.805 -0.528 118.157 0.042 QT
117.508 0.612 117.305 0.8 QT
115.711 2.315 L
117.055 2.315 L
118.055 2.315 118.719 2.3 QT
119.383 2.284 119.43 2.253 QT
119.586 2.081 119.758 0.956 QT
120.18 0.956 L
119.774 3.456 L
114.586 3.456 L
cp}def
f11980961
f
GR
GS
0 0.447 0.741 RC
1 LJ
1.5 LW
N
85.005 301.623 M
115.044 301.623 L
S
GR
GS
[1 0 0 1 118.04734 319.3743] CT
N
f1278073074
f
GR
GS
[1 0 0 1 118.04734 319.3743] CT
N
f196223371
f
GR
GS
[1 0 0 1 118.04734 319.3743] CT
N
f16131306
f
GR
GS
[1 0 0 1 118.04734 319.3743] CT
N
f56854462
f
GR
GS
[1 0 0 1 118.04734 319.3743] CT
N
f-209052421
f
GR
GS
[1 0 0 1 118.04734 319.3743] CT
N
f1498340037
f
GR
GS
[1 0 0 1 118.04734 319.3743] CT
N
f-1771016180
f
GR
GS
[1 0 0 1 118.04734 319.3743] CT
N
f1604427358
f
GR
GS
[1 0 0 1 118.04734 319.3743] CT
N
f1944955894
f
GR
GS
[1 0 0 1 118.04734 319.3743] CT
N
f-866469935
f
GR
GS
[1 0 0 1 118.04734 319.3743] CT
N
f-1448524397
f
GR
GS
[1 0 0 1 118.04734 319.3743] CT
N
f1402036564
f
GR
GS
[1 0 0 1 118.04734 319.3743] CT
N
f-2054234905
f
GR
GS
[1 0 0 1 118.04734 319.3743] CT
N
f654419549
f
GR
GS
[1 0 0 1 118.04734 319.3743] CT
N
/f154813876{117.383 3.768 M
116.508 3.768 115.93 3.308 QT
115.352 2.847 115.032 2.112 QT
114.711 1.378 114.594 0.565 QT
114.477 -0.247 114.477 -1.075 QT
114.477 -2.185 114.907 -3.294 QT
115.336 -4.403 116.172 -5.138 QT
117.008 -5.872 118.149 -5.872 QT
118.633 -5.872 119.047 -5.692 QT
119.461 -5.513 119.696 -5.161 QT
119.93 -4.81 119.93 -4.31 QT
119.93 -4.013 119.735 -3.817 QT
119.54 -3.622 119.258 -3.622 QT
118.977 -3.622 118.782 -3.825 QT
118.586 -4.028 118.586 -4.31 QT
118.586 -4.575 118.782 -4.771 QT
118.977 -4.966 119.258 -4.966 QT
119.336 -4.966 L
119.149 -5.232 118.829 -5.349 QT
118.508 -5.466 118.149 -5.466 QT
117.727 -5.466 117.368 -5.278 QT
117.008 -5.091 116.727 -4.778 QT
116.446 -4.466 116.251 -4.091 QT
116.055 -3.716 115.954 -3.224 QT
115.852 -2.732 115.821 -2.31 QT
115.79 -1.888 115.79 -1.247 QT
116.04 -1.825 116.493 -2.192 QT
116.946 -2.56 117.508 -2.56 QT
118.133 -2.56 118.641 -2.302 QT
119.149 -2.044 119.524 -1.599 QT
119.899 -1.153 120.094 -0.575 QT
120.29 0.003 120.29 0.581 QT
120.29 1.409 119.922 2.151 QT
119.555 2.893 118.891 3.331 QT
118.227 3.768 117.383 3.768 QT
cp
117.383 3.315 M
117.93 3.315 118.258 3.073 QT
118.586 2.831 118.735 2.425 QT
118.883 2.018 118.922 1.604 QT
118.961 1.19 118.961 0.581 QT
118.961 -0.216 118.883 -0.771 QT
118.805 -1.325 118.477 -1.755 QT
118.149 -2.185 117.446 -2.185 QT
116.883 -2.185 116.516 -1.802 QT
116.149 -1.419 115.985 -0.833 QT
115.821 -0.247 115.821 0.284 QT
115.821 0.472 115.836 0.565 QT
115.836 0.597 115.829 0.604 QT
115.821 0.612 115.821 0.643 QT
115.821 1.237 115.946 1.854 QT
116.071 2.472 116.415 2.893 QT
116.758 3.315 117.383 3.315 QT
cp}def
f154813876
f
GR
GS
0.851 0.325 0.098 RC
1 LJ
1.5 LW
N
85.005 319.374 M
115.044 319.374 L
S
GR
GS
[1 0 0 1 118.04734 337.1257] CT
N
f1278073074
f
GR
GS
[1 0 0 1 118.04734 337.1257] CT
N
f196223371
f
GR
GS
[1 0 0 1 118.04734 337.1257] CT
N
f16131306
f
GR
GS
[1 0 0 1 118.04734 337.1257] CT
N
f56854462
f
GR
GS
[1 0 0 1 118.04734 337.1257] CT
N
f-209052421
f
GR
GS
[1 0 0 1 118.04734 337.1257] CT
N
f1498340037
f
GR
GS
[1 0 0 1 118.04734 337.1257] CT
N
f-1771016180
f
GR
GS
[1 0 0 1 118.04734 337.1257] CT
N
f1604427358
f
GR
GS
[1 0 0 1 118.04734 337.1257] CT
N
f1944955894
f
GR
GS
[1 0 0 1 118.04734 337.1257] CT
N
f-866469935
f
GR
GS
[1 0 0 1 118.04734 337.1257] CT
N
f-1448524397
f
GR
GS
[1 0 0 1 118.04734 337.1257] CT
N
f1402036564
f
GR
GS
[1 0 0 1 118.04734 337.1257] CT
N
f-2054234905
f
GR
GS
[1 0 0 1 118.04734 337.1257] CT
N
f654419549
f
GR
GS
[1 0 0 1 118.04734 337.1257] CT
N
/f-678122507{115.18 3.456 M
115.18 2.956 L
116.93 2.956 116.93 2.518 QT
116.93 -4.825 L
116.211 -4.482 115.102 -4.482 QT
115.102 -4.966 L
116.821 -4.966 117.696 -5.872 QT
117.883 -5.872 L
117.93 -5.872 117.977 -5.833 QT
118.024 -5.794 118.024 -5.747 QT
118.024 2.518 L
118.024 2.956 119.774 2.956 QT
119.774 3.456 L
115.18 3.456 L
cp}def
f-678122507
f
GR
GS
[1 0 0 1 118.04734 337.1257] CT
N
/f1265057085{121.787 3.456 M
121.787 3.081 L
121.787 3.05 121.802 3.003 QT
123.99 0.597 L
124.474 0.065 124.779 -0.294 QT
125.083 -0.653 125.388 -1.13 QT
125.693 -1.607 125.865 -2.091 QT
126.037 -2.575 126.037 -3.122 QT
126.037 -3.7 125.826 -4.224 QT
125.615 -4.747 125.193 -5.06 QT
124.771 -5.372 124.177 -5.372 QT
123.568 -5.372 123.083 -5.005 QT
122.599 -4.638 122.396 -4.06 QT
122.458 -4.075 122.552 -4.075 QT
122.865 -4.075 123.091 -3.864 QT
123.318 -3.653 123.318 -3.325 QT
123.318 -2.997 123.091 -2.778 QT
122.865 -2.56 122.552 -2.56 QT
122.224 -2.56 122.005 -2.786 QT
121.787 -3.013 121.787 -3.325 QT
121.787 -3.841 121.982 -4.302 QT
122.177 -4.763 122.552 -5.122 QT
122.927 -5.482 123.396 -5.677 QT
123.865 -5.872 124.38 -5.872 QT
125.193 -5.872 125.88 -5.528 QT
126.568 -5.185 126.974 -4.567 QT
127.38 -3.95 127.38 -3.122 QT
127.38 -2.513 127.107 -1.966 QT
126.833 -1.419 126.419 -0.974 QT
126.005 -0.528 125.357 0.042 QT
124.708 0.612 124.505 0.8 QT
122.912 2.315 L
124.255 2.315 L
125.255 2.315 125.919 2.3 QT
126.583 2.284 126.63 2.253 QT
126.787 2.081 126.958 0.956 QT
127.38 0.956 L
126.974 3.456 L
121.787 3.456 L
cp}def
f1265057085
f
GR
GS
0.929 0.694 0.125 RC
1 LJ
1.5 LW
N
85.005 337.126 M
115.044 337.126 L
S
GR
GS
[1 0 0 1 118.04734 354.87711] CT
N
/f-885805830{0.484 3.456 M
0.484 2.956 L
1.922 2.956 1.922 2.518 QT
1.922 -5.169 L
1.922 -5.622 0.484 -5.622 QT
0.484 -6.107 L
5.625 -6.107 L
6.344 -6.107 7.063 -5.833 QT
7.781 -5.56 8.258 -5.013 QT
8.734 -4.466 8.734 -3.732 QT
8.734 -2.872 8.031 -2.294 QT
7.328 -1.716 6.406 -1.544 QT
7 -1.544 7.648 -1.208 QT
8.297 -0.872 8.703 -0.31 QT
9.109 0.253 9.109 0.878 QT
9.109 1.643 8.656 2.229 QT
8.203 2.815 7.477 3.136 QT
6.75 3.456 6.016 3.456 QT
0.484 3.456 L
cp
3.141 2.518 M
3.141 2.815 3.313 2.886 QT
3.484 2.956 3.844 2.956 QT
5.625 2.956 L
6.172 2.956 6.641 2.675 QT
7.109 2.393 7.383 1.909 QT
7.656 1.425 7.656 0.878 QT
7.656 0.347 7.43 -0.161 QT
7.203 -0.669 6.781 -0.997 QT
6.359 -1.325 5.828 -1.325 QT
3.141 -1.325 L
3.141 2.518 L
cp
3.141 -1.7 M
5.234 -1.7 L
5.656 -1.7 6.031 -1.857 QT
6.406 -2.013 6.703 -2.302 QT
7 -2.591 7.164 -2.958 QT
7.328 -3.325 7.328 -3.732 QT
7.328 -4.091 7.203 -4.427 QT
7.078 -4.763 6.852 -5.036 QT
6.625 -5.31 6.305 -5.466 QT
5.984 -5.622 5.625 -5.622 QT
3.844 -5.622 L
3.594 -5.622 3.453 -5.599 QT
3.313 -5.575 3.227 -5.474 QT
3.141 -5.372 3.141 -5.169 QT
3.141 -1.7 L
cp}def
f-885805830
f
GR
GS
[1 0 0 1 118.04734 354.87711] CT
N
/f1834262878{13.7 3.612 M
12.856 3.612 12.138 3.183 QT
11.419 2.753 11.005 2.034 QT
10.591 1.315 10.591 0.472 QT
10.591 -0.169 10.817 -0.763 QT
11.044 -1.357 11.473 -1.825 QT
11.903 -2.294 12.473 -2.56 QT
13.044 -2.825 13.7 -2.825 QT
14.559 -2.825 15.27 -2.364 QT
15.981 -1.903 16.388 -1.146 QT
16.794 -0.388 16.794 0.472 QT
16.794 1.315 16.38 2.034 QT
15.966 2.753 15.247 3.183 QT
14.528 3.612 13.7 3.612 QT
cp
13.7 3.206 M
14.825 3.206 15.2 2.393 QT
15.575 1.581 15.575 0.315 QT
15.575 -0.388 15.497 -0.849 QT
15.419 -1.31 15.169 -1.685 QT
15.013 -1.919 14.77 -2.091 QT
14.528 -2.263 14.255 -2.357 QT
13.981 -2.45 13.7 -2.45 QT
13.263 -2.45 12.872 -2.255 QT
12.481 -2.06 12.216 -1.685 QT
11.95 -1.294 11.88 -0.817 QT
11.809 -0.341 11.809 0.315 QT
11.809 1.097 11.95 1.729 QT
12.091 2.362 12.505 2.784 QT
12.919 3.206 13.7 3.206 QT
cp}def
f1834262878
f
GR
GS
[1 0 0 1 118.04734 354.87711] CT
N
/f-637912065{17.172 3.456 M
17.172 2.956 L
17.703 2.956 18.172 2.753 QT
18.641 2.55 18.969 2.143 QT
20.25 0.518 L
18.594 -1.638 L
18.344 -1.95 18.055 -2.021 QT
17.766 -2.091 17.234 -2.091 QT
17.234 -2.575 L
20.156 -2.575 L
20.156 -2.091 L
19.969 -2.091 19.805 -2.005 QT
19.641 -1.919 19.641 -1.763 QT
19.641 -1.716 19.688 -1.638 QT
20.813 -0.185 L
21.656 -1.263 L
21.813 -1.466 21.813 -1.669 QT
21.813 -1.841 21.703 -1.966 QT
21.594 -2.091 21.406 -2.091 QT
21.406 -2.575 L
23.984 -2.575 L
23.984 -2.091 L
23.453 -2.091 22.977 -1.88 QT
22.5 -1.669 22.172 -1.263 QT
21.063 0.159 L
22.859 2.518 L
23.125 2.831 23.406 2.893 QT
23.688 2.956 24.219 2.956 QT
24.219 3.456 L
21.313 3.456 L
21.313 2.956 L
21.484 2.956 21.641 2.878 QT
21.797 2.8 21.797 2.643 QT
21.797 2.581 21.766 2.518 QT
20.5 0.847 L
19.5 2.143 L
19.344 2.315 19.344 2.55 QT
19.344 2.722 19.461 2.839 QT
19.578 2.956 19.734 2.956 QT
19.734 3.456 L
17.172 3.456 L
cp}def
f-637912065
f
GR
GS
[1 0 0 1 118.04734 354.87711] CT
N
/f893143880{24.756 0.862 M
24.756 0.003 L
28.459 0.003 L
28.459 0.862 L
24.756 0.862 L
cp}def
f893143880
f
GR
GS
[1 0 0 1 118.04734 354.87711] CT
N
/f-1069645532{29.9 3.456 M
29.9 2.956 L
31.338 2.956 31.338 2.143 QT
31.338 -5.169 L
31.338 -5.622 29.9 -5.622 QT
29.9 -6.107 L
32.541 -6.107 L
32.713 -6.107 32.759 -5.95 QT
35.806 1.972 L
38.869 -5.95 L
38.916 -6.107 39.088 -6.107 QT
41.728 -6.107 L
41.728 -5.622 L
40.291 -5.622 40.291 -5.169 QT
40.291 2.518 L
40.291 2.956 41.728 2.956 QT
41.728 3.456 L
37.666 3.456 L
37.666 2.956 L
39.103 2.956 39.103 2.518 QT
39.103 -5.622 L
35.65 3.3 L
35.588 3.456 35.416 3.456 QT
35.244 3.456 35.181 3.3 QT
31.775 -5.513 L
31.775 2.143 L
31.775 2.956 33.228 2.956 QT
33.228 3.456 L
29.9 3.456 L
cp}def
f-1069645532
f
GR
GS
[1 0 0 1 118.04734 354.87711] CT
N
/f-626923698{44.116 1.784 M
44.116 -1.31 L
44.116 -1.685 43.999 -1.849 QT
43.881 -2.013 43.67 -2.052 QT
43.459 -2.091 43.022 -2.091 QT
43.022 -2.575 L
45.131 -2.732 L
45.131 1.784 L
45.131 2.331 45.209 2.636 QT
45.288 2.94 45.545 3.089 QT
45.803 3.237 46.366 3.237 QT
47.116 3.237 47.561 2.612 QT
48.006 1.987 48.006 1.19 QT
48.006 -1.31 L
48.006 -1.685 47.889 -1.849 QT
47.772 -2.013 47.569 -2.052 QT
47.366 -2.091 46.913 -2.091 QT
46.913 -2.575 L
49.022 -2.732 L
49.022 2.19 L
49.022 2.55 49.139 2.722 QT
49.256 2.893 49.467 2.925 QT
49.678 2.956 50.116 2.956 QT
50.116 3.456 L
48.053 3.612 L
48.053 2.425 L
47.788 2.956 47.327 3.284 QT
46.866 3.612 46.303 3.612 QT
45.288 3.612 44.702 3.183 QT
44.116 2.753 44.116 1.784 QT
cp}def
f-626923698
f
GR
GS
[1 0 0 1 118.04734 354.87711] CT
N
/f1485410301{51.038 3.456 M
51.038 2.956 L
51.506 2.956 51.819 2.886 QT
52.131 2.815 52.131 2.518 QT
52.131 -4.825 L
52.131 -5.2 52.014 -5.372 QT
51.897 -5.544 51.686 -5.583 QT
51.475 -5.622 51.038 -5.622 QT
51.038 -6.107 L
53.116 -6.263 L
53.116 2.518 L
53.116 2.815 53.42 2.886 QT
53.725 2.956 54.194 2.956 QT
54.194 3.456 L
51.038 3.456 L
cp}def
f1485410301
f
GR
GS
[1 0 0 1 118.04734 354.87711] CT
N
/f345510013{55.038 3.456 M
55.038 2.956 L
55.506 2.956 55.819 2.886 QT
56.131 2.815 56.131 2.518 QT
56.131 -4.825 L
56.131 -5.2 56.014 -5.372 QT
55.897 -5.544 55.686 -5.583 QT
55.475 -5.622 55.038 -5.622 QT
55.038 -6.107 L
57.116 -6.263 L
57.116 2.518 L
57.116 2.815 57.42 2.886 QT
57.725 2.956 58.194 2.956 QT
58.194 3.456 L
55.038 3.456 L
cp}def
f345510013
f
GR
GS
[1 0 0 1 118.04734 354.87711] CT
N
/f-183805770{62.085 3.612 M
61.225 3.612 60.514 3.167 QT
59.803 2.722 59.397 1.972 QT
58.991 1.222 58.991 0.393 QT
58.991 -0.435 59.366 -1.169 QT
59.741 -1.903 60.405 -2.364 QT
61.069 -2.825 61.881 -2.825 QT
62.538 -2.825 63.006 -2.607 QT
63.475 -2.388 63.788 -2.005 QT
64.1 -1.622 64.256 -1.107 QT
64.413 -0.591 64.413 0.034 QT
64.413 0.222 64.272 0.222 QT
60.21 0.222 L
60.21 0.378 L
60.21 1.534 60.678 2.37 QT
61.147 3.206 62.21 3.206 QT
62.647 3.206 63.006 3.011 QT
63.366 2.815 63.639 2.479 QT
63.913 2.143 64.006 1.753 QT
64.022 1.706 64.061 1.667 QT
64.1 1.628 64.147 1.628 QT
64.272 1.628 L
64.413 1.628 64.413 1.8 QT
64.21 2.597 63.553 3.104 QT
62.897 3.612 62.085 3.612 QT
cp
60.225 -0.122 M
63.413 -0.122 L
63.413 -0.653 63.272 -1.192 QT
63.131 -1.732 62.788 -2.091 QT
62.444 -2.45 61.881 -2.45 QT
61.1 -2.45 60.663 -1.708 QT
60.225 -0.966 60.225 -0.122 QT
cp}def
f-183805770
f
GR
GS
[1 0 0 1 118.04734 354.87711] CT
N
/f1259400817{65.36 3.456 M
65.36 2.956 L
65.844 2.956 66.149 2.886 QT
66.453 2.815 66.453 2.518 QT
66.453 -1.31 L
66.453 -1.685 66.344 -1.849 QT
66.235 -2.013 66.024 -2.052 QT
65.813 -2.091 65.36 -2.091 QT
65.36 -2.575 L
67.36 -2.732 L
67.36 -1.357 L
67.594 -1.966 68.008 -2.349 QT
68.422 -2.732 69.016 -2.732 QT
69.438 -2.732 69.766 -2.482 QT
70.094 -2.232 70.094 -1.841 QT
70.094 -1.575 69.914 -1.388 QT
69.735 -1.2 69.469 -1.2 QT
69.203 -1.2 69.016 -1.388 QT
68.828 -1.575 68.828 -1.841 QT
68.828 -2.216 69.11 -2.372 QT
69.016 -2.372 L
68.453 -2.372 68.094 -1.958 QT
67.735 -1.544 67.586 -0.935 QT
67.438 -0.325 67.438 0.222 QT
67.438 2.518 L
67.438 2.956 68.797 2.956 QT
68.797 3.456 L
65.36 3.456 L
cp}def
f1259400817
f
GR
GS
0.494 0.184 0.557 RC
1 LJ
1.5 LW
N
85.005 354.877 M
115.044 354.877 L
S
GR
GS
0.149 GC
10.0 ML
0.5 LW
N
81 365.5 M
81 291 L
250.5 291 L
250.5 365.5 L
cp
S
GR
%%Trailer
%%Pages: 1
%%EOF
