%!PS-Adobe-3.0 EPSF-3.0
%%Creator: (MATLAB, The Mathworks, Inc. Version 9.1.0.441655 \(R2016b\). Operating System: Mac OS X)
%%Title: ./Random_Walk_error.eps
%%CreationDate: 2019-10-04T21:47:02
%%Pages: (atend)
%%BoundingBox:    47    27   517   396
%%LanguageLevel: 3
%%EndComments
%%BeginProlog
%%BeginResource: procset (Apache XML Graphics Std ProcSet) 1.2 0
%%Version: 1.2 0
%%Copyright: (Copyright 2001-2003,2010 The Apache Software Foundation. License terms: http://www.apache.org/licenses/LICENSE-2.0)
/bd{bind def}bind def
/ld{load def}bd
/GR/grestore ld
/M/moveto ld
/LJ/setlinejoin ld
/C/curveto ld
/f/fill ld
/LW/setlinewidth ld
/GC/setgray ld
/t/show ld
/N/newpath ld
/CT/concat ld
/cp/closepath ld
/S/stroke ld
/L/lineto ld
/CC/setcmykcolor ld
/A/ashow ld
/GS/gsave ld
/RC/setrgbcolor ld
/RM/rmoveto ld
/ML/setmiterlimit ld
/re {4 2 roll M
1 index 0 rlineto
0 exch rlineto
neg 0 rlineto
cp } bd
/_ctm matrix def
/_tm matrix def
/BT { _ctm currentmatrix pop matrix _tm copy pop 0 0 moveto } bd
/ET { _ctm setmatrix } bd
/iTm { _ctm setmatrix _tm concat } bd
/Tm { _tm astore pop iTm 0 0 moveto } bd
/ux 0.0 def
/uy 0.0 def
/F {
  /Tp exch def
  /Tf exch def
  Tf findfont Tp scalefont setfont
  /cf Tf def  /cs Tp def
} bd
/ULS {currentpoint /uy exch def /ux exch def} bd
/ULE {
  /Tcx currentpoint pop def
  gsave
  newpath
  cf findfont cs scalefont dup
  /FontMatrix get 0 get /Ts exch def /FontInfo get dup
  /UnderlinePosition get Ts mul /To exch def
  /UnderlineThickness get Ts mul /Tt exch def
  ux uy To add moveto  Tcx uy To add lineto
  Tt setlinewidth stroke
  grestore
} bd
/OLE {
  /Tcx currentpoint pop def
  gsave
  newpath
  cf findfont cs scalefont dup
  /FontMatrix get 0 get /Ts exch def /FontInfo get dup
  /UnderlinePosition get Ts mul /To exch def
  /UnderlineThickness get Ts mul /Tt exch def
  ux uy To add cs add moveto Tcx uy To add cs add lineto
  Tt setlinewidth stroke
  grestore
} bd
/SOE {
  /Tcx currentpoint pop def
  gsave
  newpath
  cf findfont cs scalefont dup
  /FontMatrix get 0 get /Ts exch def /FontInfo get dup
  /UnderlinePosition get Ts mul /To exch def
  /UnderlineThickness get Ts mul /Tt exch def
  ux uy To add cs 10 mul 26 idiv add moveto Tcx uy To add cs 10 mul 26 idiv add lineto
  Tt setlinewidth stroke
  grestore
} bd
/QT {
/Y22 exch store
/X22 exch store
/Y21 exch store
/X21 exch store
currentpoint
/Y21 load 2 mul add 3 div exch
/X21 load 2 mul add 3 div exch
/X21 load 2 mul /X22 load add 3 div
/Y21 load 2 mul /Y22 load add 3 div
/X22 load /Y22 load curveto
} bd
/SSPD {
dup length /d exch dict def
{
/v exch def
/k exch def
currentpagedevice k known {
/cpdv currentpagedevice k get def
v cpdv ne {
/upd false def
/nullv v type /nulltype eq def
/nullcpdv cpdv type /nulltype eq def
nullv nullcpdv or
{
/upd true def
} {
/sametype v type cpdv type eq def
sametype {
v type /arraytype eq {
/vlen v length def
/cpdvlen cpdv length def
vlen cpdvlen eq {
0 1 vlen 1 sub {
/i exch def
/obj v i get def
/cpdobj cpdv i get def
obj cpdobj ne {
/upd true def
exit
} if
} for
} {
/upd true def
} ifelse
} {
v type /dicttype eq {
v {
/dv exch def
/dk exch def
/cpddv cpdv dk get def
dv cpddv ne {
/upd true def
exit
} if
} forall
} {
/upd true def
} ifelse
} ifelse
} if
} ifelse
upd true eq {
d k v put
} if
} if
} if
} forall
d length 0 gt {
d setpagedevice
} if
} bd
/RE { % /NewFontName [NewEncodingArray] /FontName RE -
  findfont dup length dict begin
  {
    1 index /FID ne
    {def} {pop pop} ifelse
  } forall
  /Encoding exch def
  /FontName 1 index def
  currentdict definefont pop
  end
} bind def
%%EndResource
%%BeginResource: procset (Apache XML Graphics EPS ProcSet) 1.0 0
%%Version: 1.0 0
%%Copyright: (Copyright 2002-2003 The Apache Software Foundation. License terms: http://www.apache.org/licenses/LICENSE-2.0)
/BeginEPSF { %def
/b4_Inc_state save def         % Save state for cleanup
/dict_count countdictstack def % Count objects on dict stack
/op_count count 1 sub def      % Count objects on operand stack
userdict begin                 % Push userdict on dict stack
/showpage { } def              % Redefine showpage, { } = null proc
0 setgray 0 setlinecap         % Prepare graphics state
1 setlinewidth 0 setlinejoin
10 setmiterlimit [ ] 0 setdash newpath
/languagelevel where           % If level not equal to 1 then
{pop languagelevel             % set strokeadjust and
1 ne                           % overprint to their defaults.
{false setstrokeadjust false setoverprint
} if
} if
} bd
/EndEPSF { %def
count op_count sub {pop} repeat            % Clean up stacks
countdictstack dict_count sub {end} repeat
b4_Inc_state restore
} bd
%%EndResource
%FOPBeginFontDict
%%IncludeResource: font Courier-Bold
%%IncludeResource: font Helvetica
%%IncludeResource: font Courier-BoldOblique
%%IncludeResource: font Courier-Oblique
%%IncludeResource: font Times-Roman
%%IncludeResource: font Helvetica-BoldOblique
%%IncludeResource: font Helvetica-Bold
%%IncludeResource: font Helvetica-Oblique
%%IncludeResource: font Times-BoldItalic
%%IncludeResource: font Courier
%%IncludeResource: font Times-Italic
%%IncludeResource: font Times-Bold
%%IncludeResource: font Symbol
%%IncludeResource: font ZapfDingbats
%FOPEndFontDict
%%BeginResource: encoding WinAnsiEncoding
/WinAnsiEncoding [
/.notdef /.notdef /.notdef /.notdef /.notdef
/.notdef /.notdef /.notdef /.notdef /.notdef
/.notdef /.notdef /.notdef /.notdef /.notdef
/.notdef /.notdef /.notdef /.notdef /.notdef
/.notdef /.notdef /.notdef /.notdef /.notdef
/.notdef /.notdef /.notdef /.notdef /.notdef
/.notdef /.notdef /space /exclam /quotedbl
/numbersign /dollar /percent /ampersand /quotesingle
/parenleft /parenright /asterisk /plus /comma
/hyphen /period /slash /zero /one
/two /three /four /five /six
/seven /eight /nine /colon /semicolon
/less /equal /greater /question /at
/A /B /C /D /E
/F /G /H /I /J
/K /L /M /N /O
/P /Q /R /S /T
/U /V /W /X /Y
/Z /bracketleft /backslash /bracketright /asciicircum
/underscore /quoteleft /a /b /c
/d /e /f /g /h
/i /j /k /l /m
/n /o /p /q /r
/s /t /u /v /w
/x /y /z /braceleft /bar
/braceright /asciitilde /bullet /Euro /bullet
/quotesinglbase /florin /quotedblbase /ellipsis /dagger
/daggerdbl /circumflex /perthousand /Scaron /guilsinglleft
/OE /bullet /Zcaron /bullet /bullet
/quoteleft /quoteright /quotedblleft /quotedblright /bullet
/endash /emdash /asciitilde /trademark /scaron
/guilsinglright /oe /bullet /zcaron /Ydieresis
/space /exclamdown /cent /sterling /currency
/yen /brokenbar /section /dieresis /copyright
/ordfeminine /guillemotleft /logicalnot /sfthyphen /registered
/macron /degree /plusminus /twosuperior /threesuperior
/acute /mu /paragraph /middot /cedilla
/onesuperior /ordmasculine /guillemotright /onequarter /onehalf
/threequarters /questiondown /Agrave /Aacute /Acircumflex
/Atilde /Adieresis /Aring /AE /Ccedilla
/Egrave /Eacute /Ecircumflex /Edieresis /Igrave
/Iacute /Icircumflex /Idieresis /Eth /Ntilde
/Ograve /Oacute /Ocircumflex /Otilde /Odieresis
/multiply /Oslash /Ugrave /Uacute /Ucircumflex
/Udieresis /Yacute /Thorn /germandbls /agrave
/aacute /acircumflex /atilde /adieresis /aring
/ae /ccedilla /egrave /eacute /ecircumflex
/edieresis /igrave /iacute /icircumflex /idieresis
/eth /ntilde /ograve /oacute /ocircumflex
/otilde /odieresis /divide /oslash /ugrave
/uacute /ucircumflex /udieresis /yacute /thorn
/ydieresis
] def
%%EndResource
%FOPBeginFontReencode
/Courier-Bold findfont
dup length dict begin
  {1 index /FID ne {def} {pop pop} ifelse} forall
  /Encoding WinAnsiEncoding def
  currentdict
end
/Courier-Bold exch definefont pop
/Helvetica findfont
dup length dict begin
  {1 index /FID ne {def} {pop pop} ifelse} forall
  /Encoding WinAnsiEncoding def
  currentdict
end
/Helvetica exch definefont pop
/Courier-BoldOblique findfont
dup length dict begin
  {1 index /FID ne {def} {pop pop} ifelse} forall
  /Encoding WinAnsiEncoding def
  currentdict
end
/Courier-BoldOblique exch definefont pop
/Courier-Oblique findfont
dup length dict begin
  {1 index /FID ne {def} {pop pop} ifelse} forall
  /Encoding WinAnsiEncoding def
  currentdict
end
/Courier-Oblique exch definefont pop
/Times-Roman findfont
dup length dict begin
  {1 index /FID ne {def} {pop pop} ifelse} forall
  /Encoding WinAnsiEncoding def
  currentdict
end
/Times-Roman exch definefont pop
/Helvetica-BoldOblique findfont
dup length dict begin
  {1 index /FID ne {def} {pop pop} ifelse} forall
  /Encoding WinAnsiEncoding def
  currentdict
end
/Helvetica-BoldOblique exch definefont pop
/Helvetica-Bold findfont
dup length dict begin
  {1 index /FID ne {def} {pop pop} ifelse} forall
  /Encoding WinAnsiEncoding def
  currentdict
end
/Helvetica-Bold exch definefont pop
/Helvetica-Oblique findfont
dup length dict begin
  {1 index /FID ne {def} {pop pop} ifelse} forall
  /Encoding WinAnsiEncoding def
  currentdict
end
/Helvetica-Oblique exch definefont pop
/Times-BoldItalic findfont
dup length dict begin
  {1 index /FID ne {def} {pop pop} ifelse} forall
  /Encoding WinAnsiEncoding def
  currentdict
end
/Times-BoldItalic exch definefont pop
/Courier findfont
dup length dict begin
  {1 index /FID ne {def} {pop pop} ifelse} forall
  /Encoding WinAnsiEncoding def
  currentdict
end
/Courier exch definefont pop
/Times-Italic findfont
dup length dict begin
  {1 index /FID ne {def} {pop pop} ifelse} forall
  /Encoding WinAnsiEncoding def
  currentdict
end
/Times-Italic exch definefont pop
/Times-Bold findfont
dup length dict begin
  {1 index /FID ne {def} {pop pop} ifelse} forall
  /Encoding WinAnsiEncoding def
  currentdict
end
/Times-Bold exch definefont pop
%FOPEndFontReencode
%%EndProlog
%%Page: 1 1
%%PageBoundingBox: 0 0 560 420
%%BeginPageSetup
[1 0 0 -1 0 420] CT
%%EndPageSetup
GS
1 GC
N
0 0 560 420 re
f
GR
GS
1 GC
N
0 0 560 420 re
f
GR
GS
1 GC
N
73 374 M
507 374 L
507 31 L
73 31 L
cp
f
GR
GS
0.149 GC
2 setlinecap
1 LJ
0.5 LW
N
73 374 M
507 374 L
S
GR
GS
0.149 GC
2 setlinecap
1 LJ
0.5 LW
N
73 31 M
507 31 L
S
GR
GS
0.149 GC
2 setlinecap
1 LJ
0.5 LW
N
73 374 M
73 369.66 L
S
GR
GS
0.149 GC
2 setlinecap
1 LJ
0.5 LW
N
159.8 374 M
159.8 369.66 L
S
GR
GS
0.149 GC
2 setlinecap
1 LJ
0.5 LW
N
246.6 374 M
246.6 369.66 L
S
GR
GS
0.149 GC
2 setlinecap
1 LJ
0.5 LW
N
333.4 374 M
333.4 369.66 L
S
GR
GS
0.149 GC
2 setlinecap
1 LJ
0.5 LW
N
420.2 374 M
420.2 369.66 L
S
GR
GS
0.149 GC
2 setlinecap
1 LJ
0.5 LW
N
507 374 M
507 369.66 L
S
GR
GS
0.149 GC
2 setlinecap
1 LJ
0.5 LW
N
73 31 M
73 35.34 L
S
GR
GS
0.149 GC
2 setlinecap
1 LJ
0.5 LW
N
159.8 31 M
159.8 35.34 L
S
GR
GS
0.149 GC
2 setlinecap
1 LJ
0.5 LW
N
246.6 31 M
246.6 35.34 L
S
GR
GS
0.149 GC
2 setlinecap
1 LJ
0.5 LW
N
333.4 31 M
333.4 35.34 L
S
GR
GS
0.149 GC
2 setlinecap
1 LJ
0.5 LW
N
420.2 31 M
420.2 35.34 L
S
GR
GS
0.149 GC
2 setlinecap
1 LJ
0.5 LW
N
507 31 M
507 35.34 L
S
GR
GS
0.149 GC
2 setlinecap
1 LJ
0.5 LW
N
73 374 M
73 371.83 L
S
GR
GS
0.149 GC
2 setlinecap
1 LJ
0.5 LW
N
99.129 374 M
99.129 371.83 L
S
GR
GS
0.149 GC
2 setlinecap
1 LJ
0.5 LW
N
114.414 374 M
114.414 371.83 L
S
GR
GS
0.149 GC
2 setlinecap
1 LJ
0.5 LW
N
125.259 374 M
125.259 371.83 L
S
GR
GS
0.149 GC
2 setlinecap
1 LJ
0.5 LW
N
133.671 374 M
133.671 371.83 L
S
GR
GS
0.149 GC
2 setlinecap
1 LJ
0.5 LW
N
140.544 374 M
140.544 371.83 L
S
GR
GS
0.149 GC
2 setlinecap
1 LJ
0.5 LW
N
146.355 374 M
146.355 371.83 L
S
GR
GS
0.149 GC
2 setlinecap
1 LJ
0.5 LW
N
151.388 374 M
151.388 371.83 L
S
GR
GS
0.149 GC
2 setlinecap
1 LJ
0.5 LW
N
155.828 374 M
155.828 371.83 L
S
GR
GS
0.149 GC
2 setlinecap
1 LJ
0.5 LW
N
159.8 374 M
159.8 371.83 L
S
GR
GS
0.149 GC
2 setlinecap
1 LJ
0.5 LW
N
185.929 374 M
185.929 371.83 L
S
GR
GS
0.149 GC
2 setlinecap
1 LJ
0.5 LW
N
201.214 374 M
201.214 371.83 L
S
GR
GS
0.149 GC
2 setlinecap
1 LJ
0.5 LW
N
212.059 374 M
212.059 371.83 L
S
GR
GS
0.149 GC
2 setlinecap
1 LJ
0.5 LW
N
220.471 374 M
220.471 371.83 L
S
GR
GS
0.149 GC
2 setlinecap
1 LJ
0.5 LW
N
227.344 374 M
227.344 371.83 L
S
GR
GS
0.149 GC
2 setlinecap
1 LJ
0.5 LW
N
233.155 374 M
233.155 371.83 L
S
GR
GS
0.149 GC
2 setlinecap
1 LJ
0.5 LW
N
238.188 374 M
238.188 371.83 L
S
GR
GS
0.149 GC
2 setlinecap
1 LJ
0.5 LW
N
242.628 374 M
242.628 371.83 L
S
GR
GS
0.149 GC
2 setlinecap
1 LJ
0.5 LW
N
246.6 374 M
246.6 371.83 L
S
GR
GS
0.149 GC
2 setlinecap
1 LJ
0.5 LW
N
272.729 374 M
272.729 371.83 L
S
GR
GS
0.149 GC
2 setlinecap
1 LJ
0.5 LW
N
288.014 374 M
288.014 371.83 L
S
GR
GS
0.149 GC
2 setlinecap
1 LJ
0.5 LW
N
298.859 374 M
298.859 371.83 L
S
GR
GS
0.149 GC
2 setlinecap
1 LJ
0.5 LW
N
307.271 374 M
307.271 371.83 L
S
GR
GS
0.149 GC
2 setlinecap
1 LJ
0.5 LW
N
314.144 374 M
314.144 371.83 L
S
GR
GS
0.149 GC
2 setlinecap
1 LJ
0.5 LW
N
319.954 374 M
319.954 371.83 L
S
GR
GS
0.149 GC
2 setlinecap
1 LJ
0.5 LW
N
324.988 374 M
324.988 371.83 L
S
GR
GS
0.149 GC
2 setlinecap
1 LJ
0.5 LW
N
329.428 374 M
329.428 371.83 L
S
GR
GS
0.149 GC
2 setlinecap
1 LJ
0.5 LW
N
333.4 374 M
333.4 371.83 L
S
GR
GS
0.149 GC
2 setlinecap
1 LJ
0.5 LW
N
359.529 374 M
359.529 371.83 L
S
GR
GS
0.149 GC
2 setlinecap
1 LJ
0.5 LW
N
374.814 374 M
374.814 371.83 L
S
GR
GS
0.149 GC
2 setlinecap
1 LJ
0.5 LW
N
385.659 374 M
385.659 371.83 L
S
GR
GS
0.149 GC
2 setlinecap
1 LJ
0.5 LW
N
394.071 374 M
394.071 371.83 L
S
GR
GS
0.149 GC
2 setlinecap
1 LJ
0.5 LW
N
400.944 374 M
400.944 371.83 L
S
GR
GS
0.149 GC
2 setlinecap
1 LJ
0.5 LW
N
406.755 374 M
406.755 371.83 L
S
GR
GS
0.149 GC
2 setlinecap
1 LJ
0.5 LW
N
411.788 374 M
411.788 371.83 L
S
GR
GS
0.149 GC
2 setlinecap
1 LJ
0.5 LW
N
416.228 374 M
416.228 371.83 L
S
GR
GS
0.149 GC
2 setlinecap
1 LJ
0.5 LW
N
420.2 374 M
420.2 371.83 L
S
GR
GS
0.149 GC
2 setlinecap
1 LJ
0.5 LW
N
446.329 374 M
446.329 371.83 L
S
GR
GS
0.149 GC
2 setlinecap
1 LJ
0.5 LW
N
461.614 374 M
461.614 371.83 L
S
GR
GS
0.149 GC
2 setlinecap
1 LJ
0.5 LW
N
472.459 374 M
472.459 371.83 L
S
GR
GS
0.149 GC
2 setlinecap
1 LJ
0.5 LW
N
480.871 374 M
480.871 371.83 L
S
GR
GS
0.149 GC
2 setlinecap
1 LJ
0.5 LW
N
487.744 374 M
487.744 371.83 L
S
GR
GS
0.149 GC
2 setlinecap
1 LJ
0.5 LW
N
493.555 374 M
493.555 371.83 L
S
GR
GS
0.149 GC
2 setlinecap
1 LJ
0.5 LW
N
498.588 374 M
498.588 371.83 L
S
GR
GS
0.149 GC
2 setlinecap
1 LJ
0.5 LW
N
503.028 374 M
503.028 371.83 L
S
GR
GS
0.149 GC
2 setlinecap
1 LJ
0.5 LW
N
507 374 M
507 371.83 L
S
GR
GS
0.149 GC
2 setlinecap
1 LJ
0.5 LW
N
73 31 M
73 33.17 L
S
GR
GS
0.149 GC
2 setlinecap
1 LJ
0.5 LW
N
99.129 31 M
99.129 33.17 L
S
GR
GS
0.149 GC
2 setlinecap
1 LJ
0.5 LW
N
114.414 31 M
114.414 33.17 L
S
GR
GS
0.149 GC
2 setlinecap
1 LJ
0.5 LW
N
125.259 31 M
125.259 33.17 L
S
GR
GS
0.149 GC
2 setlinecap
1 LJ
0.5 LW
N
133.671 31 M
133.671 33.17 L
S
GR
GS
0.149 GC
2 setlinecap
1 LJ
0.5 LW
N
140.544 31 M
140.544 33.17 L
S
GR
GS
0.149 GC
2 setlinecap
1 LJ
0.5 LW
N
146.355 31 M
146.355 33.17 L
S
GR
GS
0.149 GC
2 setlinecap
1 LJ
0.5 LW
N
151.388 31 M
151.388 33.17 L
S
GR
GS
0.149 GC
2 setlinecap
1 LJ
0.5 LW
N
155.828 31 M
155.828 33.17 L
S
GR
GS
0.149 GC
2 setlinecap
1 LJ
0.5 LW
N
159.8 31 M
159.8 33.17 L
S
GR
GS
0.149 GC
2 setlinecap
1 LJ
0.5 LW
N
185.929 31 M
185.929 33.17 L
S
GR
GS
0.149 GC
2 setlinecap
1 LJ
0.5 LW
N
201.214 31 M
201.214 33.17 L
S
GR
GS
0.149 GC
2 setlinecap
1 LJ
0.5 LW
N
212.059 31 M
212.059 33.17 L
S
GR
GS
0.149 GC
2 setlinecap
1 LJ
0.5 LW
N
220.471 31 M
220.471 33.17 L
S
GR
GS
0.149 GC
2 setlinecap
1 LJ
0.5 LW
N
227.344 31 M
227.344 33.17 L
S
GR
GS
0.149 GC
2 setlinecap
1 LJ
0.5 LW
N
233.155 31 M
233.155 33.17 L
S
GR
GS
0.149 GC
2 setlinecap
1 LJ
0.5 LW
N
238.188 31 M
238.188 33.17 L
S
GR
GS
0.149 GC
2 setlinecap
1 LJ
0.5 LW
N
242.628 31 M
242.628 33.17 L
S
GR
GS
0.149 GC
2 setlinecap
1 LJ
0.5 LW
N
246.6 31 M
246.6 33.17 L
S
GR
GS
0.149 GC
2 setlinecap
1 LJ
0.5 LW
N
272.729 31 M
272.729 33.17 L
S
GR
GS
0.149 GC
2 setlinecap
1 LJ
0.5 LW
N
288.014 31 M
288.014 33.17 L
S
GR
GS
0.149 GC
2 setlinecap
1 LJ
0.5 LW
N
298.859 31 M
298.859 33.17 L
S
GR
GS
0.149 GC
2 setlinecap
1 LJ
0.5 LW
N
307.271 31 M
307.271 33.17 L
S
GR
GS
0.149 GC
2 setlinecap
1 LJ
0.5 LW
N
314.144 31 M
314.144 33.17 L
S
GR
GS
0.149 GC
2 setlinecap
1 LJ
0.5 LW
N
319.954 31 M
319.954 33.17 L
S
GR
GS
0.149 GC
2 setlinecap
1 LJ
0.5 LW
N
324.988 31 M
324.988 33.17 L
S
GR
GS
0.149 GC
2 setlinecap
1 LJ
0.5 LW
N
329.428 31 M
329.428 33.17 L
S
GR
GS
0.149 GC
2 setlinecap
1 LJ
0.5 LW
N
333.4 31 M
333.4 33.17 L
S
GR
GS
0.149 GC
2 setlinecap
1 LJ
0.5 LW
N
359.529 31 M
359.529 33.17 L
S
GR
GS
0.149 GC
2 setlinecap
1 LJ
0.5 LW
N
374.814 31 M
374.814 33.17 L
S
GR
GS
0.149 GC
2 setlinecap
1 LJ
0.5 LW
N
385.659 31 M
385.659 33.17 L
S
GR
GS
0.149 GC
2 setlinecap
1 LJ
0.5 LW
N
394.071 31 M
394.071 33.17 L
S
GR
GS
0.149 GC
2 setlinecap
1 LJ
0.5 LW
N
400.944 31 M
400.944 33.17 L
S
GR
GS
0.149 GC
2 setlinecap
1 LJ
0.5 LW
N
406.755 31 M
406.755 33.17 L
S
GR
GS
0.149 GC
2 setlinecap
1 LJ
0.5 LW
N
411.788 31 M
411.788 33.17 L
S
GR
GS
0.149 GC
2 setlinecap
1 LJ
0.5 LW
N
416.228 31 M
416.228 33.17 L
S
GR
GS
0.149 GC
2 setlinecap
1 LJ
0.5 LW
N
420.2 31 M
420.2 33.17 L
S
GR
GS
0.149 GC
2 setlinecap
1 LJ
0.5 LW
N
446.329 31 M
446.329 33.17 L
S
GR
GS
0.149 GC
2 setlinecap
1 LJ
0.5 LW
N
461.614 31 M
461.614 33.17 L
S
GR
GS
0.149 GC
2 setlinecap
1 LJ
0.5 LW
N
472.459 31 M
472.459 33.17 L
S
GR
GS
0.149 GC
2 setlinecap
1 LJ
0.5 LW
N
480.871 31 M
480.871 33.17 L
S
GR
GS
0.149 GC
2 setlinecap
1 LJ
0.5 LW
N
487.744 31 M
487.744 33.17 L
S
GR
GS
0.149 GC
2 setlinecap
1 LJ
0.5 LW
N
493.555 31 M
493.555 33.17 L
S
GR
GS
0.149 GC
2 setlinecap
1 LJ
0.5 LW
N
498.588 31 M
498.588 33.17 L
S
GR
GS
0.149 GC
2 setlinecap
1 LJ
0.5 LW
N
503.028 31 M
503.028 33.17 L
S
GR
GS
0.149 GC
2 setlinecap
1 LJ
0.5 LW
N
507 31 M
507 33.17 L
S
GR
GS
[1 0 0 1 73 379.20001] CT
0.149 GC
N
-9.716 13.44 M
-9.716 12.877 L
-7.716 12.877 -7.716 12.362 QT
-7.716 3.971 L
-8.544 4.362 -9.809 4.362 QT
-9.809 3.799 L
-7.841 3.799 -6.841 2.784 QT
-6.622 2.784 L
-6.559 2.784 -6.513 2.823 QT
-6.466 2.862 -6.466 2.924 QT
-6.466 12.362 L
-6.466 12.877 -4.466 12.877 QT
-4.466 13.44 L
-9.716 13.44 L
cp
f
GR
GS
[1 0 0 1 73 379.20001] CT
0.149 GC
N
0.8 13.799 M
-1.153 13.799 -1.864 12.182 QT
-2.575 10.565 -2.575 8.331 QT
-2.575 6.94 -2.317 5.713 QT
-2.059 4.487 -1.309 3.635 QT
-0.559 2.784 0.8 2.784 QT
1.862 2.784 2.534 3.299 QT
3.206 3.815 3.558 4.627 QT
3.909 5.44 4.034 6.377 QT
4.159 7.315 4.159 8.331 QT
4.159 9.706 3.909 10.909 QT
3.659 12.112 2.917 12.956 QT
2.175 13.799 0.8 13.799 QT
cp
0.8 13.377 M
1.691 13.377 2.128 12.463 QT
2.566 11.549 2.667 10.44 QT
2.769 9.331 2.769 8.081 QT
2.769 6.877 2.667 5.862 QT
2.566 4.846 2.136 4.018 QT
1.706 3.19 0.8 3.19 QT
-0.106 3.19 -0.544 4.018 QT
-0.981 4.846 -1.083 5.862 QT
-1.184 6.877 -1.184 8.081 QT
-1.184 8.971 -1.138 9.76 QT
-1.091 10.549 -0.903 11.385 QT
-0.716 12.221 -0.302 12.799 QT
0.112 13.377 0.8 13.377 QT
cp
f
GR
GS
[1 0 0 1 73 379.20001] CT
0.149 GC
N
5.816 7.634 M
5.816 7.243 L
7.191 7.243 7.191 6.899 QT
7.191 1.118 L
6.628 1.399 5.753 1.399 QT
5.753 1.009 L
7.097 1.009 7.784 0.306 QT
7.941 0.306 L
7.988 0.306 8.019 0.337 QT
8.05 0.368 8.05 0.399 QT
8.05 6.899 L
8.05 7.243 9.425 7.243 QT
9.425 7.634 L
5.816 7.634 L
cp
f
GR
GS
[1 0 0 1 159.8 379.20001] CT
0.149 GC
N
/f1694880289{-9.716 13.44 M
-9.716 12.877 L
-7.716 12.877 -7.716 12.362 QT
-7.716 3.971 L
-8.544 4.362 -9.809 4.362 QT
-9.809 3.799 L
-7.841 3.799 -6.841 2.784 QT
-6.622 2.784 L
-6.559 2.784 -6.513 2.823 QT
-6.466 2.862 -6.466 2.924 QT
-6.466 12.362 L
-6.466 12.877 -4.466 12.877 QT
-4.466 13.44 L
-9.716 13.44 L
cp}def
f1694880289
f
GR
GS
[1 0 0 1 159.8 379.20001] CT
0.149 GC
N
/f-570576543{0.8 13.799 M
-1.153 13.799 -1.864 12.182 QT
-2.575 10.565 -2.575 8.331 QT
-2.575 6.94 -2.317 5.713 QT
-2.059 4.487 -1.309 3.635 QT
-0.559 2.784 0.8 2.784 QT
1.862 2.784 2.534 3.299 QT
3.206 3.815 3.558 4.627 QT
3.909 5.44 4.034 6.377 QT
4.159 7.315 4.159 8.331 QT
4.159 9.706 3.909 10.909 QT
3.659 12.112 2.917 12.956 QT
2.175 13.799 0.8 13.799 QT
cp
0.8 13.377 M
1.691 13.377 2.128 12.463 QT
2.566 11.549 2.667 10.44 QT
2.769 9.331 2.769 8.081 QT
2.769 6.877 2.667 5.862 QT
2.566 4.846 2.136 4.018 QT
1.706 3.19 0.8 3.19 QT
-0.106 3.19 -0.544 4.018 QT
-0.981 4.846 -1.083 5.862 QT
-1.184 6.877 -1.184 8.081 QT
-1.184 8.971 -1.138 9.76 QT
-1.091 10.549 -0.903 11.385 QT
-0.716 12.221 -0.302 12.799 QT
0.112 13.377 0.8 13.377 QT
cp}def
f-570576543
f
GR
GS
[1 0 0 1 159.8 379.20001] CT
0.149 GC
N
/f-425490914{5.347 7.634 M
5.347 7.337 L
5.347 7.306 5.363 7.274 QT
7.081 5.384 L
7.472 4.962 7.706 4.681 QT
7.941 4.399 8.183 4.032 QT
8.425 3.665 8.558 3.274 QT
8.691 2.884 8.691 2.462 QT
8.691 2.009 8.527 1.595 QT
8.363 1.181 8.034 0.938 QT
7.706 0.696 7.238 0.696 QT
6.753 0.696 6.37 0.985 QT
5.988 1.274 5.831 1.727 QT
5.878 1.712 5.956 1.712 QT
6.206 1.712 6.378 1.876 QT
6.55 2.04 6.55 2.306 QT
6.55 2.556 6.378 2.735 QT
6.206 2.915 5.956 2.915 QT
5.691 2.915 5.519 2.735 QT
5.347 2.556 5.347 2.306 QT
5.347 1.899 5.503 1.532 QT
5.659 1.165 5.948 0.884 QT
6.238 0.602 6.613 0.454 QT
6.988 0.306 7.394 0.306 QT
8.019 0.306 8.566 0.571 QT
9.113 0.837 9.425 1.321 QT
9.738 1.806 9.738 2.462 QT
9.738 2.946 9.527 3.376 QT
9.316 3.806 8.995 4.157 QT
8.675 4.509 8.159 4.954 QT
7.644 5.399 7.488 5.54 QT
6.238 6.743 L
7.3 6.743 L
8.081 6.743 8.605 6.727 QT
9.128 6.712 9.159 6.681 QT
9.284 6.556 9.425 5.681 QT
9.738 5.681 L
9.425 7.634 L
5.347 7.634 L
cp}def
f-425490914
f
GR
GS
[1 0 0 1 246.60001 379.20001] CT
0.149 GC
N
f1694880289
f
GR
GS
[1 0 0 1 246.60001 379.20001] CT
0.149 GC
N
f-570576543
f
GR
GS
[1 0 0 1 246.60001 379.20001] CT
0.149 GC
N
/f2098139249{5.847 6.79 M
6.113 7.165 6.542 7.345 QT
6.972 7.524 7.472 7.524 QT
8.113 7.524 8.378 6.977 QT
8.644 6.431 8.644 5.743 QT
8.644 5.431 8.589 5.118 QT
8.534 4.806 8.402 4.54 QT
8.269 4.274 8.034 4.11 QT
7.8 3.946 7.472 3.946 QT
6.738 3.946 L
6.644 3.946 6.644 3.852 QT
6.644 3.743 L
6.644 3.665 6.738 3.665 QT
7.347 3.618 L
7.722 3.618 7.98 3.329 QT
8.238 3.04 8.355 2.618 QT
8.472 2.196 8.472 1.821 QT
8.472 1.306 8.23 0.962 QT
7.988 0.618 7.472 0.618 QT
7.05 0.618 6.675 0.782 QT
6.3 0.946 6.066 1.259 QT
6.097 1.259 6.113 1.259 QT
6.128 1.259 6.144 1.259 QT
6.394 1.259 6.558 1.431 QT
6.722 1.602 6.722 1.837 QT
6.722 2.071 6.558 2.243 QT
6.394 2.415 6.144 2.415 QT
5.894 2.415 5.722 2.243 QT
5.55 2.071 5.55 1.837 QT
5.55 1.368 5.839 1.016 QT
6.128 0.665 6.573 0.485 QT
7.019 0.306 7.472 0.306 QT
7.816 0.306 8.183 0.407 QT
8.55 0.509 8.847 0.696 QT
9.144 0.884 9.339 1.173 QT
9.534 1.462 9.534 1.821 QT
9.534 2.29 9.323 2.681 QT
9.113 3.071 8.753 3.36 QT
8.394 3.649 7.972 3.79 QT
8.441 3.868 8.87 4.141 QT
9.3 4.415 9.566 4.829 QT
9.831 5.243 9.831 5.727 QT
9.831 6.337 9.495 6.829 QT
9.159 7.321 8.62 7.595 QT
8.081 7.868 7.472 7.868 QT
6.956 7.868 6.441 7.673 QT
5.925 7.477 5.597 7.087 QT
5.269 6.696 5.269 6.149 QT
5.269 5.884 5.448 5.696 QT
5.628 5.509 5.894 5.509 QT
6.081 5.509 6.23 5.595 QT
6.378 5.681 6.456 5.829 QT
6.534 5.977 6.534 6.149 QT
6.534 6.415 6.347 6.602 QT
6.159 6.79 5.894 6.79 QT
5.847 6.79 L
cp}def
f2098139249
f
GR
GS
[1 0 0 1 333.40002 379.20001] CT
0.149 GC
N
f1694880289
f
GR
GS
[1 0 0 1 333.40002 379.20001] CT
0.149 GC
N
f-570576543
f
GR
GS
[1 0 0 1 333.40002 379.20001] CT
0.149 GC
N
/f1797150449{5.113 5.821 M
5.113 5.431 L
8.503 0.368 L
8.55 0.306 8.613 0.306 QT
8.784 0.306 L
8.909 0.306 8.909 0.431 QT
8.909 5.431 L
9.988 5.431 L
9.988 5.821 L
8.909 5.821 L
8.909 6.899 L
8.909 7.118 9.23 7.181 QT
9.55 7.243 9.972 7.243 QT
9.972 7.634 L
6.941 7.634 L
6.941 7.243 L
7.363 7.243 7.691 7.181 QT
8.019 7.118 8.019 6.899 QT
8.019 5.821 L
5.113 5.821 L
cp
5.472 5.431 M
8.081 5.431 L
8.081 1.54 L
5.472 5.431 L
cp}def
f1797150449
f
GR
GS
[1 0 0 1 420.20001 379.20001] CT
0.149 GC
N
f1694880289
f
GR
GS
[1 0 0 1 420.20001 379.20001] CT
0.149 GC
N
f-570576543
f
GR
GS
[1 0 0 1 420.20001 379.20001] CT
0.149 GC
N
/f-1936515010{5.753 6.384 M
5.863 6.712 6.097 6.97 QT
6.331 7.227 6.652 7.376 QT
6.972 7.524 7.316 7.524 QT
8.113 7.524 8.417 6.907 QT
8.722 6.29 8.722 5.415 QT
8.722 5.024 8.706 4.766 QT
8.691 4.509 8.628 4.259 QT
8.534 3.884 8.277 3.595 QT
8.019 3.306 7.644 3.306 QT
7.269 3.306 7.003 3.415 QT
6.738 3.524 6.573 3.673 QT
6.409 3.821 6.284 3.993 QT
6.159 4.165 6.128 4.165 QT
6.003 4.165 L
5.972 4.165 5.933 4.134 QT
5.894 4.102 5.894 4.071 QT
5.894 0.399 L
5.894 0.368 5.925 0.337 QT
5.956 0.306 6.003 0.306 QT
6.034 0.306 L
6.769 0.665 7.597 0.665 QT
8.425 0.665 9.175 0.306 QT
9.206 0.306 L
9.253 0.306 9.284 0.337 QT
9.316 0.368 9.316 0.399 QT
9.316 0.493 L
9.316 0.556 9.284 0.556 QT
8.909 1.056 8.347 1.329 QT
7.784 1.602 7.175 1.602 QT
6.738 1.602 6.269 1.477 QT
6.269 3.556 L
6.644 3.274 6.925 3.141 QT
7.206 3.009 7.659 3.009 QT
8.269 3.009 8.745 3.36 QT
9.222 3.712 9.48 4.274 QT
9.738 4.837 9.738 5.415 QT
9.738 6.087 9.417 6.649 QT
9.097 7.212 8.534 7.54 QT
7.972 7.868 7.316 7.868 QT
6.784 7.868 6.323 7.595 QT
5.863 7.321 5.605 6.845 QT
5.347 6.368 5.347 5.837 QT
5.347 5.587 5.511 5.431 QT
5.675 5.274 5.909 5.274 QT
6.159 5.274 6.323 5.438 QT
6.488 5.602 6.488 5.837 QT
6.488 6.071 6.323 6.235 QT
6.159 6.399 5.909 6.399 QT
5.878 6.399 5.831 6.391 QT
5.784 6.384 5.753 6.384 QT
cp}def
f-1936515010
f
GR
GS
[1 0 0 1 507 379.20001] CT
0.149 GC
N
f1694880289
f
GR
GS
[1 0 0 1 507 379.20001] CT
0.149 GC
N
f-570576543
f
GR
GS
[1 0 0 1 507 379.20001] CT
0.149 GC
N
/f-1909405552{7.55 7.868 M
6.863 7.868 6.409 7.509 QT
5.956 7.149 5.706 6.571 QT
5.456 5.993 5.363 5.36 QT
5.269 4.727 5.269 4.071 QT
5.269 3.212 5.605 2.337 QT
5.941 1.462 6.597 0.884 QT
7.253 0.306 8.159 0.306 QT
8.534 0.306 8.863 0.446 QT
9.191 0.587 9.37 0.868 QT
9.55 1.149 9.55 1.54 QT
9.55 1.759 9.402 1.915 QT
9.253 2.071 9.019 2.071 QT
8.8 2.071 8.652 1.915 QT
8.503 1.759 8.503 1.54 QT
8.503 1.321 8.652 1.165 QT
8.8 1.009 9.019 1.009 QT
9.081 1.009 L
8.941 0.806 8.683 0.712 QT
8.425 0.618 8.159 0.618 QT
7.831 0.618 7.542 0.766 QT
7.253 0.915 7.034 1.165 QT
6.816 1.415 6.659 1.712 QT
6.503 2.009 6.425 2.391 QT
6.347 2.774 6.323 3.102 QT
6.3 3.431 6.3 3.931 QT
6.488 3.493 6.847 3.204 QT
7.206 2.915 7.644 2.915 QT
8.128 2.915 8.534 3.11 QT
8.941 3.306 9.23 3.657 QT
9.519 4.009 9.675 4.462 QT
9.831 4.915 9.831 5.384 QT
9.831 6.024 9.542 6.602 QT
9.253 7.181 8.73 7.524 QT
8.206 7.868 7.55 7.868 QT
cp
7.55 7.524 M
7.972 7.524 8.23 7.329 QT
8.488 7.134 8.613 6.813 QT
8.738 6.493 8.761 6.173 QT
8.784 5.852 8.784 5.384 QT
8.784 4.759 8.73 4.313 QT
8.675 3.868 8.409 3.532 QT
8.144 3.196 7.597 3.196 QT
7.159 3.196 6.87 3.501 QT
6.581 3.806 6.448 4.266 QT
6.316 4.727 6.316 5.149 QT
6.316 5.29 6.331 5.368 QT
6.331 5.384 6.331 5.391 QT
6.331 5.399 6.316 5.415 QT
6.316 5.899 6.417 6.376 QT
6.519 6.852 6.792 7.188 QT
7.066 7.524 7.55 7.524 QT
cp}def
f-1909405552
f
GR
GS
0.149 GC
2 setlinecap
1 LJ
0.5 LW
N
73 374 M
73 31 L
S
GR
GS
0.149 GC
2 setlinecap
1 LJ
0.5 LW
N
507 374 M
507 31 L
S
GR
GS
0.149 GC
2 setlinecap
1 LJ
0.5 LW
N
73 374 M
77.34 374 L
S
GR
GS
0.149 GC
2 setlinecap
1 LJ
0.5 LW
N
73 335.889 M
77.34 335.889 L
S
GR
GS
0.149 GC
2 setlinecap
1 LJ
0.5 LW
N
73 297.778 M
77.34 297.778 L
S
GR
GS
0.149 GC
2 setlinecap
1 LJ
0.5 LW
N
73 259.667 M
77.34 259.667 L
S
GR
GS
0.149 GC
2 setlinecap
1 LJ
0.5 LW
N
73 221.556 M
77.34 221.556 L
S
GR
GS
0.149 GC
2 setlinecap
1 LJ
0.5 LW
N
73 183.444 M
77.34 183.444 L
S
GR
GS
0.149 GC
2 setlinecap
1 LJ
0.5 LW
N
73 145.333 M
77.34 145.333 L
S
GR
GS
0.149 GC
2 setlinecap
1 LJ
0.5 LW
N
73 107.222 M
77.34 107.222 L
S
GR
GS
0.149 GC
2 setlinecap
1 LJ
0.5 LW
N
73 69.111 M
77.34 69.111 L
S
GR
GS
0.149 GC
2 setlinecap
1 LJ
0.5 LW
N
73 31 M
77.34 31 L
S
GR
GS
0.149 GC
2 setlinecap
1 LJ
0.5 LW
N
507 374 M
502.66 374 L
S
GR
GS
0.149 GC
2 setlinecap
1 LJ
0.5 LW
N
507 335.889 M
502.66 335.889 L
S
GR
GS
0.149 GC
2 setlinecap
1 LJ
0.5 LW
N
507 297.778 M
502.66 297.778 L
S
GR
GS
0.149 GC
2 setlinecap
1 LJ
0.5 LW
N
507 259.667 M
502.66 259.667 L
S
GR
GS
0.149 GC
2 setlinecap
1 LJ
0.5 LW
N
507 221.556 M
502.66 221.556 L
S
GR
GS
0.149 GC
2 setlinecap
1 LJ
0.5 LW
N
507 183.444 M
502.66 183.444 L
S
GR
GS
0.149 GC
2 setlinecap
1 LJ
0.5 LW
N
507 145.333 M
502.66 145.333 L
S
GR
GS
0.149 GC
2 setlinecap
1 LJ
0.5 LW
N
507 107.222 M
502.66 107.222 L
S
GR
GS
0.149 GC
2 setlinecap
1 LJ
0.5 LW
N
507 69.111 M
502.66 69.111 L
S
GR
GS
0.149 GC
2 setlinecap
1 LJ
0.5 LW
N
507 31 M
502.66 31 L
S
GR
GS
[1 0 0 1 67.8 374] CT
0.149 GC
N
/f-778410435{-4 4.199 M
-5.953 4.199 -6.664 2.582 QT
-7.375 0.965 -7.375 -1.269 QT
-7.375 -2.66 -7.117 -3.887 QT
-6.859 -5.113 -6.109 -5.965 QT
-5.359 -6.816 -4 -6.816 QT
-2.938 -6.816 -2.266 -6.301 QT
-1.594 -5.785 -1.242 -4.973 QT
-0.891 -4.16 -0.766 -3.223 QT
-0.641 -2.285 -0.641 -1.269 QT
-0.641 0.106 -0.891 1.309 QT
-1.141 2.512 -1.883 3.356 QT
-2.625 4.199 -4 4.199 QT
cp
-4 3.777 M
-3.109 3.777 -2.672 2.863 QT
-2.234 1.949 -2.133 0.84 QT
-2.031 -0.269 -2.031 -1.519 QT
-2.031 -2.723 -2.133 -3.738 QT
-2.234 -4.754 -2.664 -5.582 QT
-3.094 -6.41 -4 -6.41 QT
-4.906 -6.41 -5.344 -5.582 QT
-5.781 -4.754 -5.883 -3.738 QT
-5.984 -2.723 -5.984 -1.519 QT
-5.984 -0.629 -5.938 0.16 QT
-5.891 0.949 -5.703 1.785 QT
-5.516 2.621 -5.102 3.199 QT
-4.688 3.777 -4 3.777 QT
cp}def
f-778410435
f
GR
GS
[1 0 0 1 67.8 335.88889] CT
0.149 GC
N
/f1595697370{-16.445 4.199 M
-18.398 4.199 -19.109 2.582 QT
-19.82 0.965 -19.82 -1.269 QT
-19.82 -2.66 -19.562 -3.887 QT
-19.304 -5.113 -18.554 -5.965 QT
-17.804 -6.816 -16.445 -6.816 QT
-15.382 -6.816 -14.71 -6.301 QT
-14.038 -5.785 -13.687 -4.973 QT
-13.335 -4.16 -13.21 -3.223 QT
-13.085 -2.285 -13.085 -1.269 QT
-13.085 0.106 -13.335 1.309 QT
-13.585 2.512 -14.327 3.356 QT
-15.07 4.199 -16.445 4.199 QT
cp
-16.445 3.777 M
-15.554 3.777 -15.116 2.863 QT
-14.679 1.949 -14.577 0.84 QT
-14.476 -0.269 -14.476 -1.519 QT
-14.476 -2.723 -14.577 -3.738 QT
-14.679 -4.754 -15.109 -5.582 QT
-15.538 -6.41 -16.445 -6.41 QT
-17.351 -6.41 -17.788 -5.582 QT
-18.226 -4.754 -18.327 -3.738 QT
-18.429 -2.723 -18.429 -1.519 QT
-18.429 -0.629 -18.382 0.16 QT
-18.335 0.949 -18.148 1.785 QT
-17.96 2.621 -17.546 3.199 QT
-17.132 3.777 -16.445 3.777 QT
cp}def
f1595697370
f
GR
GS
[1 0 0 1 67.8 335.88889] CT
0.149 GC
N
/f772294982{-11.101 2.949 M
-11.101 2.59 -10.835 2.332 QT
-10.569 2.074 -10.21 2.074 QT
-9.991 2.074 -9.78 2.192 QT
-9.569 2.309 -9.452 2.52 QT
-9.335 2.731 -9.335 2.949 QT
-9.335 3.309 -9.593 3.574 QT
-9.851 3.84 -10.21 3.84 QT
-10.569 3.84 -10.835 3.574 QT
-11.101 3.309 -11.101 2.949 QT
cp}def
f772294982
f
GR
GS
[1 0 0 1 67.8 335.88889] CT
0.149 GC
N
/f-355840897{-7.203 3.84 M
-7.203 3.402 L
-7.203 3.371 -7.172 3.324 QT
-4.688 0.574 L
-4.125 -0.035 -3.773 -0.449 QT
-3.422 -0.863 -3.078 -1.402 QT
-2.734 -1.941 -2.531 -2.504 QT
-2.328 -3.066 -2.328 -3.691 QT
-2.328 -4.348 -2.57 -4.941 QT
-2.813 -5.535 -3.297 -5.894 QT
-3.781 -6.254 -4.453 -6.254 QT
-5.156 -6.254 -5.711 -5.84 QT
-6.266 -5.426 -6.484 -4.754 QT
-6.422 -4.769 -6.313 -4.769 QT
-5.953 -4.769 -5.703 -4.527 QT
-5.453 -4.285 -5.453 -3.91 QT
-5.453 -3.535 -5.703 -3.285 QT
-5.953 -3.035 -6.313 -3.035 QT
-6.688 -3.035 -6.945 -3.293 QT
-7.203 -3.551 -7.203 -3.91 QT
-7.203 -4.504 -6.977 -5.035 QT
-6.75 -5.566 -6.32 -5.973 QT
-5.891 -6.379 -5.359 -6.598 QT
-4.828 -6.816 -4.219 -6.816 QT
-3.313 -6.816 -2.523 -6.433 QT
-1.734 -6.051 -1.273 -5.34 QT
-0.813 -4.629 -0.813 -3.691 QT
-0.813 -2.988 -1.117 -2.363 QT
-1.422 -1.738 -1.898 -1.23 QT
-2.375 -0.723 -3.117 -0.074 QT
-3.859 0.574 -4.094 0.793 QT
-5.906 2.543 L
-4.359 2.543 L
-3.234 2.543 -2.469 2.52 QT
-1.703 2.496 -1.656 2.465 QT
-1.469 2.262 -1.281 0.981 QT
-0.813 0.981 L
-1.266 3.84 L
-7.203 3.84 L
cp}def
f-355840897
f
GR
GS
[1 0 0 1 67.8 297.77777] CT
0.149 GC
N
f1595697370
f
GR
GS
[1 0 0 1 67.8 297.77777] CT
0.149 GC
N
f772294982
f
GR
GS
[1 0 0 1 67.8 297.77777] CT
0.149 GC
N
/f42575179{-7.547 1.199 M
-7.547 0.637 L
-2.609 -6.738 L
-2.547 -6.816 -2.438 -6.816 QT
-2.203 -6.816 L
-2.031 -6.816 -2.031 -6.644 QT
-2.031 0.637 L
-0.453 0.637 L
-0.453 1.199 L
-2.031 1.199 L
-2.031 2.762 L
-2.031 3.09 -1.563 3.184 QT
-1.094 3.277 -0.469 3.277 QT
-0.469 3.84 L
-4.875 3.84 L
-4.875 3.277 L
-4.266 3.277 -3.797 3.184 QT
-3.328 3.09 -3.328 2.762 QT
-3.328 1.199 L
-7.547 1.199 L
cp
-7.016 0.637 M
-3.234 0.637 L
-3.234 -5.035 L
-7.016 0.637 L
cp}def
f42575179
f
GR
GS
[1 0 0 1 67.8 259.66666] CT
0.149 GC
N
f1595697370
f
GR
GS
[1 0 0 1 67.8 259.66666] CT
0.149 GC
N
f772294982
f
GR
GS
[1 0 0 1 67.8 259.66666] CT
0.149 GC
N
/f359229147{-4 4.199 M
-4.984 4.199 -5.648 3.668 QT
-6.313 3.137 -6.68 2.293 QT
-7.047 1.449 -7.188 0.527 QT
-7.328 -0.394 -7.328 -1.332 QT
-7.328 -2.598 -6.836 -3.871 QT
-6.344 -5.144 -5.383 -5.98 QT
-4.422 -6.816 -3.109 -6.816 QT
-2.563 -6.816 -2.094 -6.613 QT
-1.625 -6.41 -1.352 -6.004 QT
-1.078 -5.598 -1.078 -5.035 QT
-1.078 -4.707 -1.305 -4.48 QT
-1.531 -4.254 -1.859 -4.254 QT
-2.172 -4.254 -2.398 -4.48 QT
-2.625 -4.707 -2.625 -5.035 QT
-2.625 -5.348 -2.398 -5.574 QT
-2.172 -5.801 -1.859 -5.801 QT
-1.766 -5.801 L
-1.969 -6.082 -2.344 -6.223 QT
-2.719 -6.363 -3.109 -6.363 QT
-3.594 -6.363 -4.008 -6.152 QT
-4.422 -5.941 -4.75 -5.582 QT
-5.078 -5.223 -5.297 -4.785 QT
-5.516 -4.348 -5.633 -3.793 QT
-5.75 -3.238 -5.781 -2.754 QT
-5.813 -2.269 -5.813 -1.535 QT
-5.531 -2.191 -5.016 -2.613 QT
-4.5 -3.035 -3.859 -3.035 QT
-3.141 -3.035 -2.555 -2.746 QT
-1.969 -2.457 -1.547 -1.941 QT
-1.125 -1.426 -0.906 -0.769 QT
-0.688 -0.113 -0.688 0.559 QT
-0.688 1.496 -1.102 2.34 QT
-1.516 3.184 -2.273 3.692 QT
-3.031 4.199 -4 4.199 QT
cp
-4 3.684 M
-3.375 3.684 -3 3.402 QT
-2.625 3.121 -2.453 2.652 QT
-2.281 2.184 -2.234 1.715 QT
-2.188 1.246 -2.188 0.559 QT
-2.188 -0.348 -2.273 -0.988 QT
-2.359 -1.629 -2.742 -2.121 QT
-3.125 -2.613 -3.922 -2.613 QT
-4.563 -2.613 -4.984 -2.176 QT
-5.406 -1.738 -5.594 -1.066 QT
-5.781 -0.394 -5.781 0.215 QT
-5.781 0.434 -5.766 0.543 QT
-5.766 0.559 -5.773 0.574 QT
-5.781 0.59 -5.781 0.621 QT
-5.781 1.309 -5.641 2.012 QT
-5.5 2.715 -5.102 3.199 QT
-4.703 3.684 -4 3.684 QT
cp}def
f359229147
f
GR
GS
[1 0 0 1 67.8 221.55556] CT
0.149 GC
N
f1595697370
f
GR
GS
[1 0 0 1 67.8 221.55556] CT
0.149 GC
N
f772294982
f
GR
GS
[1 0 0 1 67.8 221.55556] CT
0.149 GC
N
/f1082849849{-7.328 1.402 M
-7.328 0.449 -6.695 -0.293 QT
-6.063 -1.035 -5.063 -1.519 QT
-5.656 -1.91 L
-6.203 -2.269 -6.547 -2.863 QT
-6.891 -3.457 -6.891 -4.113 QT
-6.891 -4.879 -6.492 -5.496 QT
-6.094 -6.113 -5.422 -6.465 QT
-4.75 -6.816 -4 -6.816 QT
-3.281 -6.816 -2.625 -6.527 QT
-1.969 -6.238 -1.539 -5.699 QT
-1.109 -5.16 -1.109 -4.426 QT
-1.109 -3.879 -1.367 -3.418 QT
-1.625 -2.957 -2.063 -2.59 QT
-2.5 -2.223 -3 -1.973 QT
-2.094 -1.379 L
-1.453 -0.973 -1.07 -0.301 QT
-0.688 0.371 -0.688 1.121 QT
-0.688 1.981 -1.148 2.692 QT
-1.609 3.402 -2.375 3.801 QT
-3.141 4.199 -4 4.199 QT
-4.828 4.199 -5.594 3.856 QT
-6.359 3.512 -6.844 2.879 QT
-7.328 2.246 -7.328 1.402 QT
cp
-6.453 1.402 M
-6.453 2.043 -6.109 2.567 QT
-5.766 3.09 -5.195 3.387 QT
-4.625 3.684 -4 3.684 QT
-3.063 3.684 -2.305 3.137 QT
-1.547 2.59 -1.547 1.699 QT
-1.547 1.387 -1.672 1.09 QT
-1.797 0.793 -2.008 0.543 QT
-2.219 0.293 -2.484 0.137 QT
-4.641 -1.254 L
-5.141 -0.988 -5.555 -0.582 QT
-5.969 -0.176 -6.211 0.332 QT
-6.453 0.84 -6.453 1.402 QT
cp
-5.359 -3.473 M
-3.422 -2.223 L
-2.75 -2.613 -2.32 -3.168 QT
-1.891 -3.723 -1.891 -4.426 QT
-1.891 -4.957 -2.188 -5.41 QT
-2.484 -5.863 -2.969 -6.113 QT
-3.453 -6.363 -4.016 -6.363 QT
-4.5 -6.363 -4.992 -6.176 QT
-5.484 -5.988 -5.805 -5.613 QT
-6.125 -5.238 -6.125 -4.738 QT
-6.125 -3.988 -5.359 -3.473 QT
cp}def
f1082849849
f
GR
GS
[1 0 0 1 67.8 183.44444] CT
0.149 GC
N
/f287216437{-6.516 3.84 M
-6.516 3.277 L
-4.516 3.277 -4.516 2.762 QT
-4.516 -5.629 L
-5.344 -5.238 -6.609 -5.238 QT
-6.609 -5.801 L
-4.641 -5.801 -3.641 -6.816 QT
-3.422 -6.816 L
-3.359 -6.816 -3.313 -6.777 QT
-3.266 -6.738 -3.266 -6.676 QT
-3.266 2.762 L
-3.266 3.277 -1.266 3.277 QT
-1.266 3.84 L
-6.516 3.84 L
cp}def
f287216437
f
GR
GS
[1 0 0 1 67.8 145.33333] CT
0.149 GC
N
/f-1136904996{-18.96 3.84 M
-18.96 3.277 L
-16.96 3.277 -16.96 2.762 QT
-16.96 -5.629 L
-17.788 -5.238 -19.054 -5.238 QT
-19.054 -5.801 L
-17.085 -5.801 -16.085 -6.816 QT
-15.866 -6.816 L
-15.804 -6.816 -15.757 -6.777 QT
-15.71 -6.738 -15.71 -6.676 QT
-15.71 2.762 L
-15.71 3.277 -13.71 3.277 QT
-13.71 3.84 L
-18.96 3.84 L
cp}def
f-1136904996
f
GR
GS
[1 0 0 1 67.8 145.33333] CT
0.149 GC
N
f772294982
f
GR
GS
[1 0 0 1 67.8 145.33333] CT
0.149 GC
N
f-355840897
f
GR
GS
[1 0 0 1 67.8 107.22222] CT
0.149 GC
N
f-1136904996
f
GR
GS
[1 0 0 1 67.8 107.22222] CT
0.149 GC
N
f772294982
f
GR
GS
[1 0 0 1 67.8 107.22222] CT
0.149 GC
N
f42575179
f
GR
GS
[1 0 0 1 67.8 69.11111] CT
0.149 GC
N
f-1136904996
f
GR
GS
[1 0 0 1 67.8 69.11111] CT
0.149 GC
N
f772294982
f
GR
GS
[1 0 0 1 67.8 69.11111] CT
0.149 GC
N
f359229147
f
GR
GS
[1 0 0 1 67.8 31] CT
0.149 GC
N
f-1136904996
f
GR
GS
[1 0 0 1 67.8 31] CT
0.149 GC
N
f772294982
f
GR
GS
[1 0 0 1 67.8 31] CT
0.149 GC
N
f1082849849
f
GR
GS
0 0.447 0.741 RC
1 LJ
0.5 LW
N
73 288.273 M
76.593 305.197 L
82.89 225.849 L
85.684 311.733 L
90.718 121.561 L
95.158 66.538 L
99.129 222.177 L
104.398 355.859 L
107.541 156.556 L
111.813 265.479 L
116.847 320.56 L
121.287 188.73 L
125.259 364.448 L
129.699 267.712 L
134.417 363.938 L
138.61 248.872 L
142.976 94.649 L
147.416 241.851 L
151.857 201.257 L
156.245 327.044 L
160.546 260.612 L
165.069 353.844 L
169.399 342.501 L
173.807 325.981 L
178.218 352.378 L
182.581 325.469 L
187.044 308.109 L
191.362 338.781 L
195.82 365.444 L
200.195 367.659 L
204.463 306.79 L
208.916 369.604 L
213.264 366.325 L
217.654 346.116 L
222.022 350.842 L
226.454 334.924 L
230.822 339.503 L
235.198 339.023 L
239.576 369.254 L
243.986 362.857 L
248.367 351.837 L
252.743 368.116 L
257.123 356.852 L
261.506 348.228 L
265.887 363.346 L
270.276 354.525 L
274.658 361.449 L
279.033 346.804 L
283.423 373.16 L
287.813 345.841 L
292.196 368.865 L
296.576 367.578 L
300.957 372.856 L
305.345 369.33 L
309.729 370.004 L
314.112 365.118 L
318.494 363.694 L
322.881 363.026 L
327.265 371.761 L
331.645 368.97 L
336.031 367.587 L
340.414 347.667 L
344.797 369.042 L
349.182 372.39 L
353.567 365.917 L
357.949 367.628 L
362.333 371.772 L
366.717 373.662 L
371.101 373.098 L
375.485 365.284 L
379.869 370.035 L
384.252 370.647 L
388.637 372.946 L
393.02 371.957 L
397.404 373.746 L
401.788 372.913 L
406.172 368.831 L
410.555 373.704 L
414.939 372.544 L
419.323 370.191 L
423.707 371.602 L
428.091 372.506 L
432.475 373.615 L
436.859 372.945 L
441.242 373.284 L
445.626 371.508 L
450.01 373.563 L
454.394 371.772 L
458.778 371.763 L
463.162 372.927 L
467.545 372.802 L
471.929 373.068 L
476.313 371.479 L
480.697 373.654 L
485.081 372.66 L
489.465 373.998 L
493.848 373.144 L
498.232 372.714 L
502.616 373.044 L
507 372.502 L
S
GR
%%Trailer
%%Pages: 1
%%EOF
