%!PS-Adobe-3.0 EPSF-3.0
%%Creator: (MATLAB, The Mathworks, Inc. Version 9.1.0.441655 \(R2016b\). Operating System: Mac OS X)
%%Title: ./Random_Walk_Standard_Deviation.eps
%%CreationDate: 2019-10-04T21:47:01
%%Pages: (atend)
%%BoundingBox:    14     6   517   396
%%LanguageLevel: 3
%%EndComments
%%BeginProlog
%%BeginResource: procset (Apache XML Graphics Std ProcSet) 1.2 0
%%Version: 1.2 0
%%Copyright: (Copyright 2001-2003,2010 The Apache Software Foundation. License terms: http://www.apache.org/licenses/LICENSE-2.0)
/bd{bind def}bind def
/ld{load def}bd
/GR/grestore ld
/M/moveto ld
/LJ/setlinejoin ld
/C/curveto ld
/f/fill ld
/LW/setlinewidth ld
/GC/setgray ld
/t/show ld
/N/newpath ld
/CT/concat ld
/cp/closepath ld
/S/stroke ld
/L/lineto ld
/CC/setcmykcolor ld
/A/ashow ld
/GS/gsave ld
/RC/setrgbcolor ld
/RM/rmoveto ld
/ML/setmiterlimit ld
/re {4 2 roll M
1 index 0 rlineto
0 exch rlineto
neg 0 rlineto
cp } bd
/_ctm matrix def
/_tm matrix def
/BT { _ctm currentmatrix pop matrix _tm copy pop 0 0 moveto } bd
/ET { _ctm setmatrix } bd
/iTm { _ctm setmatrix _tm concat } bd
/Tm { _tm astore pop iTm 0 0 moveto } bd
/ux 0.0 def
/uy 0.0 def
/F {
  /Tp exch def
  /Tf exch def
  Tf findfont Tp scalefont setfont
  /cf Tf def  /cs Tp def
} bd
/ULS {currentpoint /uy exch def /ux exch def} bd
/ULE {
  /Tcx currentpoint pop def
  gsave
  newpath
  cf findfont cs scalefont dup
  /FontMatrix get 0 get /Ts exch def /FontInfo get dup
  /UnderlinePosition get Ts mul /To exch def
  /UnderlineThickness get Ts mul /Tt exch def
  ux uy To add moveto  Tcx uy To add lineto
  Tt setlinewidth stroke
  grestore
} bd
/OLE {
  /Tcx currentpoint pop def
  gsave
  newpath
  cf findfont cs scalefont dup
  /FontMatrix get 0 get /Ts exch def /FontInfo get dup
  /UnderlinePosition get Ts mul /To exch def
  /UnderlineThickness get Ts mul /Tt exch def
  ux uy To add cs add moveto Tcx uy To add cs add lineto
  Tt setlinewidth stroke
  grestore
} bd
/SOE {
  /Tcx currentpoint pop def
  gsave
  newpath
  cf findfont cs scalefont dup
  /FontMatrix get 0 get /Ts exch def /FontInfo get dup
  /UnderlinePosition get Ts mul /To exch def
  /UnderlineThickness get Ts mul /Tt exch def
  ux uy To add cs 10 mul 26 idiv add moveto Tcx uy To add cs 10 mul 26 idiv add lineto
  Tt setlinewidth stroke
  grestore
} bd
/QT {
/Y22 exch store
/X22 exch store
/Y21 exch store
/X21 exch store
currentpoint
/Y21 load 2 mul add 3 div exch
/X21 load 2 mul add 3 div exch
/X21 load 2 mul /X22 load add 3 div
/Y21 load 2 mul /Y22 load add 3 div
/X22 load /Y22 load curveto
} bd
/SSPD {
dup length /d exch dict def
{
/v exch def
/k exch def
currentpagedevice k known {
/cpdv currentpagedevice k get def
v cpdv ne {
/upd false def
/nullv v type /nulltype eq def
/nullcpdv cpdv type /nulltype eq def
nullv nullcpdv or
{
/upd true def
} {
/sametype v type cpdv type eq def
sametype {
v type /arraytype eq {
/vlen v length def
/cpdvlen cpdv length def
vlen cpdvlen eq {
0 1 vlen 1 sub {
/i exch def
/obj v i get def
/cpdobj cpdv i get def
obj cpdobj ne {
/upd true def
exit
} if
} for
} {
/upd true def
} ifelse
} {
v type /dicttype eq {
v {
/dv exch def
/dk exch def
/cpddv cpdv dk get def
dv cpddv ne {
/upd true def
exit
} if
} forall
} {
/upd true def
} ifelse
} ifelse
} if
} ifelse
upd true eq {
d k v put
} if
} if
} if
} forall
d length 0 gt {
d setpagedevice
} if
} bd
/RE { % /NewFontName [NewEncodingArray] /FontName RE -
  findfont dup length dict begin
  {
    1 index /FID ne
    {def} {pop pop} ifelse
  } forall
  /Encoding exch def
  /FontName 1 index def
  currentdict definefont pop
  end
} bind def
%%EndResource
%%BeginResource: procset (Apache XML Graphics EPS ProcSet) 1.0 0
%%Version: 1.0 0
%%Copyright: (Copyright 2002-2003 The Apache Software Foundation. License terms: http://www.apache.org/licenses/LICENSE-2.0)
/BeginEPSF { %def
/b4_Inc_state save def         % Save state for cleanup
/dict_count countdictstack def % Count objects on dict stack
/op_count count 1 sub def      % Count objects on operand stack
userdict begin                 % Push userdict on dict stack
/showpage { } def              % Redefine showpage, { } = null proc
0 setgray 0 setlinecap         % Prepare graphics state
1 setlinewidth 0 setlinejoin
10 setmiterlimit [ ] 0 setdash newpath
/languagelevel where           % If level not equal to 1 then
{pop languagelevel             % set strokeadjust and
1 ne                           % overprint to their defaults.
{false setstrokeadjust false setoverprint
} if
} if
} bd
/EndEPSF { %def
count op_count sub {pop} repeat            % Clean up stacks
countdictstack dict_count sub {end} repeat
b4_Inc_state restore
} bd
%%EndResource
%FOPBeginFontDict
%%IncludeResource: font Courier-Bold
%%IncludeResource: font Helvetica
%%IncludeResource: font Courier-BoldOblique
%%IncludeResource: font Courier-Oblique
%%IncludeResource: font Times-Roman
%%IncludeResource: font Helvetica-BoldOblique
%%IncludeResource: font Helvetica-Bold
%%IncludeResource: font Helvetica-Oblique
%%IncludeResource: font Times-BoldItalic
%%IncludeResource: font Courier
%%IncludeResource: font Times-Italic
%%IncludeResource: font Times-Bold
%%IncludeResource: font Symbol
%%IncludeResource: font ZapfDingbats
%FOPEndFontDict
%%BeginResource: encoding WinAnsiEncoding
/WinAnsiEncoding [
/.notdef /.notdef /.notdef /.notdef /.notdef
/.notdef /.notdef /.notdef /.notdef /.notdef
/.notdef /.notdef /.notdef /.notdef /.notdef
/.notdef /.notdef /.notdef /.notdef /.notdef
/.notdef /.notdef /.notdef /.notdef /.notdef
/.notdef /.notdef /.notdef /.notdef /.notdef
/.notdef /.notdef /space /exclam /quotedbl
/numbersign /dollar /percent /ampersand /quotesingle
/parenleft /parenright /asterisk /plus /comma
/hyphen /period /slash /zero /one
/two /three /four /five /six
/seven /eight /nine /colon /semicolon
/less /equal /greater /question /at
/A /B /C /D /E
/F /G /H /I /J
/K /L /M /N /O
/P /Q /R /S /T
/U /V /W /X /Y
/Z /bracketleft /backslash /bracketright /asciicircum
/underscore /quoteleft /a /b /c
/d /e /f /g /h
/i /j /k /l /m
/n /o /p /q /r
/s /t /u /v /w
/x /y /z /braceleft /bar
/braceright /asciitilde /bullet /Euro /bullet
/quotesinglbase /florin /quotedblbase /ellipsis /dagger
/daggerdbl /circumflex /perthousand /Scaron /guilsinglleft
/OE /bullet /Zcaron /bullet /bullet
/quoteleft /quoteright /quotedblleft /quotedblright /bullet
/endash /emdash /asciitilde /trademark /scaron
/guilsinglright /oe /bullet /zcaron /Ydieresis
/space /exclamdown /cent /sterling /currency
/yen /brokenbar /section /dieresis /copyright
/ordfeminine /guillemotleft /logicalnot /sfthyphen /registered
/macron /degree /plusminus /twosuperior /threesuperior
/acute /mu /paragraph /middot /cedilla
/onesuperior /ordmasculine /guillemotright /onequarter /onehalf
/threequarters /questiondown /Agrave /Aacute /Acircumflex
/Atilde /Adieresis /Aring /AE /Ccedilla
/Egrave /Eacute /Ecircumflex /Edieresis /Igrave
/Iacute /Icircumflex /Idieresis /Eth /Ntilde
/Ograve /Oacute /Ocircumflex /Otilde /Odieresis
/multiply /Oslash /Ugrave /Uacute /Ucircumflex
/Udieresis /Yacute /Thorn /germandbls /agrave
/aacute /acircumflex /atilde /adieresis /aring
/ae /ccedilla /egrave /eacute /ecircumflex
/edieresis /igrave /iacute /icircumflex /idieresis
/eth /ntilde /ograve /oacute /ocircumflex
/otilde /odieresis /divide /oslash /ugrave
/uacute /ucircumflex /udieresis /yacute /thorn
/ydieresis
] def
%%EndResource
%FOPBeginFontReencode
/Courier-Bold findfont
dup length dict begin
  {1 index /FID ne {def} {pop pop} ifelse} forall
  /Encoding WinAnsiEncoding def
  currentdict
end
/Courier-Bold exch definefont pop
/Helvetica findfont
dup length dict begin
  {1 index /FID ne {def} {pop pop} ifelse} forall
  /Encoding WinAnsiEncoding def
  currentdict
end
/Helvetica exch definefont pop
/Courier-BoldOblique findfont
dup length dict begin
  {1 index /FID ne {def} {pop pop} ifelse} forall
  /Encoding WinAnsiEncoding def
  currentdict
end
/Courier-BoldOblique exch definefont pop
/Courier-Oblique findfont
dup length dict begin
  {1 index /FID ne {def} {pop pop} ifelse} forall
  /Encoding WinAnsiEncoding def
  currentdict
end
/Courier-Oblique exch definefont pop
/Times-Roman findfont
dup length dict begin
  {1 index /FID ne {def} {pop pop} ifelse} forall
  /Encoding WinAnsiEncoding def
  currentdict
end
/Times-Roman exch definefont pop
/Helvetica-BoldOblique findfont
dup length dict begin
  {1 index /FID ne {def} {pop pop} ifelse} forall
  /Encoding WinAnsiEncoding def
  currentdict
end
/Helvetica-BoldOblique exch definefont pop
/Helvetica-Bold findfont
dup length dict begin
  {1 index /FID ne {def} {pop pop} ifelse} forall
  /Encoding WinAnsiEncoding def
  currentdict
end
/Helvetica-Bold exch definefont pop
/Helvetica-Oblique findfont
dup length dict begin
  {1 index /FID ne {def} {pop pop} ifelse} forall
  /Encoding WinAnsiEncoding def
  currentdict
end
/Helvetica-Oblique exch definefont pop
/Times-BoldItalic findfont
dup length dict begin
  {1 index /FID ne {def} {pop pop} ifelse} forall
  /Encoding WinAnsiEncoding def
  currentdict
end
/Times-BoldItalic exch definefont pop
/Courier findfont
dup length dict begin
  {1 index /FID ne {def} {pop pop} ifelse} forall
  /Encoding WinAnsiEncoding def
  currentdict
end
/Courier exch definefont pop
/Times-Italic findfont
dup length dict begin
  {1 index /FID ne {def} {pop pop} ifelse} forall
  /Encoding WinAnsiEncoding def
  currentdict
end
/Times-Italic exch definefont pop
/Times-Bold findfont
dup length dict begin
  {1 index /FID ne {def} {pop pop} ifelse} forall
  /Encoding WinAnsiEncoding def
  currentdict
end
/Times-Bold exch definefont pop
%FOPEndFontReencode
%%EndProlog
%%Page: 1 1
%%PageBoundingBox: 0 0 560 420
%%BeginPageSetup
[1 0 0 -1 0 420] CT
%%EndPageSetup
GS
1 GC
N
0 0 560 420 re
f
GR
GS
1 GC
N
0 0 560 420 re
f
GR
GS
1 GC
N
73 373 M
507 373 L
507 31 L
73 31 L
cp
f
GR
GS
0.149 GC
2 setlinecap
1 LJ
0.5 LW
N
73 373 M
507 373 L
S
GR
GS
0.149 GC
2 setlinecap
1 LJ
0.5 LW
N
73 31 M
507 31 L
S
GR
GS
0.149 GC
2 setlinecap
1 LJ
0.5 LW
N
73 373 M
73 368.66 L
S
GR
GS
0.149 GC
2 setlinecap
1 LJ
0.5 LW
N
159.8 373 M
159.8 368.66 L
S
GR
GS
0.149 GC
2 setlinecap
1 LJ
0.5 LW
N
246.6 373 M
246.6 368.66 L
S
GR
GS
0.149 GC
2 setlinecap
1 LJ
0.5 LW
N
333.4 373 M
333.4 368.66 L
S
GR
GS
0.149 GC
2 setlinecap
1 LJ
0.5 LW
N
420.2 373 M
420.2 368.66 L
S
GR
GS
0.149 GC
2 setlinecap
1 LJ
0.5 LW
N
507 373 M
507 368.66 L
S
GR
GS
0.149 GC
2 setlinecap
1 LJ
0.5 LW
N
73 31 M
73 35.34 L
S
GR
GS
0.149 GC
2 setlinecap
1 LJ
0.5 LW
N
159.8 31 M
159.8 35.34 L
S
GR
GS
0.149 GC
2 setlinecap
1 LJ
0.5 LW
N
246.6 31 M
246.6 35.34 L
S
GR
GS
0.149 GC
2 setlinecap
1 LJ
0.5 LW
N
333.4 31 M
333.4 35.34 L
S
GR
GS
0.149 GC
2 setlinecap
1 LJ
0.5 LW
N
420.2 31 M
420.2 35.34 L
S
GR
GS
0.149 GC
2 setlinecap
1 LJ
0.5 LW
N
507 31 M
507 35.34 L
S
GR
GS
0.149 GC
2 setlinecap
1 LJ
0.5 LW
N
73 373 M
73 370.83 L
S
GR
GS
0.149 GC
2 setlinecap
1 LJ
0.5 LW
N
99.129 373 M
99.129 370.83 L
S
GR
GS
0.149 GC
2 setlinecap
1 LJ
0.5 LW
N
114.414 373 M
114.414 370.83 L
S
GR
GS
0.149 GC
2 setlinecap
1 LJ
0.5 LW
N
125.259 373 M
125.259 370.83 L
S
GR
GS
0.149 GC
2 setlinecap
1 LJ
0.5 LW
N
133.671 373 M
133.671 370.83 L
S
GR
GS
0.149 GC
2 setlinecap
1 LJ
0.5 LW
N
140.544 373 M
140.544 370.83 L
S
GR
GS
0.149 GC
2 setlinecap
1 LJ
0.5 LW
N
146.355 373 M
146.355 370.83 L
S
GR
GS
0.149 GC
2 setlinecap
1 LJ
0.5 LW
N
151.388 373 M
151.388 370.83 L
S
GR
GS
0.149 GC
2 setlinecap
1 LJ
0.5 LW
N
155.828 373 M
155.828 370.83 L
S
GR
GS
0.149 GC
2 setlinecap
1 LJ
0.5 LW
N
159.8 373 M
159.8 370.83 L
S
GR
GS
0.149 GC
2 setlinecap
1 LJ
0.5 LW
N
185.929 373 M
185.929 370.83 L
S
GR
GS
0.149 GC
2 setlinecap
1 LJ
0.5 LW
N
201.214 373 M
201.214 370.83 L
S
GR
GS
0.149 GC
2 setlinecap
1 LJ
0.5 LW
N
212.059 373 M
212.059 370.83 L
S
GR
GS
0.149 GC
2 setlinecap
1 LJ
0.5 LW
N
220.471 373 M
220.471 370.83 L
S
GR
GS
0.149 GC
2 setlinecap
1 LJ
0.5 LW
N
227.344 373 M
227.344 370.83 L
S
GR
GS
0.149 GC
2 setlinecap
1 LJ
0.5 LW
N
233.155 373 M
233.155 370.83 L
S
GR
GS
0.149 GC
2 setlinecap
1 LJ
0.5 LW
N
238.188 373 M
238.188 370.83 L
S
GR
GS
0.149 GC
2 setlinecap
1 LJ
0.5 LW
N
242.628 373 M
242.628 370.83 L
S
GR
GS
0.149 GC
2 setlinecap
1 LJ
0.5 LW
N
246.6 373 M
246.6 370.83 L
S
GR
GS
0.149 GC
2 setlinecap
1 LJ
0.5 LW
N
272.729 373 M
272.729 370.83 L
S
GR
GS
0.149 GC
2 setlinecap
1 LJ
0.5 LW
N
288.014 373 M
288.014 370.83 L
S
GR
GS
0.149 GC
2 setlinecap
1 LJ
0.5 LW
N
298.859 373 M
298.859 370.83 L
S
GR
GS
0.149 GC
2 setlinecap
1 LJ
0.5 LW
N
307.271 373 M
307.271 370.83 L
S
GR
GS
0.149 GC
2 setlinecap
1 LJ
0.5 LW
N
314.144 373 M
314.144 370.83 L
S
GR
GS
0.149 GC
2 setlinecap
1 LJ
0.5 LW
N
319.954 373 M
319.954 370.83 L
S
GR
GS
0.149 GC
2 setlinecap
1 LJ
0.5 LW
N
324.988 373 M
324.988 370.83 L
S
GR
GS
0.149 GC
2 setlinecap
1 LJ
0.5 LW
N
329.428 373 M
329.428 370.83 L
S
GR
GS
0.149 GC
2 setlinecap
1 LJ
0.5 LW
N
333.4 373 M
333.4 370.83 L
S
GR
GS
0.149 GC
2 setlinecap
1 LJ
0.5 LW
N
359.529 373 M
359.529 370.83 L
S
GR
GS
0.149 GC
2 setlinecap
1 LJ
0.5 LW
N
374.814 373 M
374.814 370.83 L
S
GR
GS
0.149 GC
2 setlinecap
1 LJ
0.5 LW
N
385.659 373 M
385.659 370.83 L
S
GR
GS
0.149 GC
2 setlinecap
1 LJ
0.5 LW
N
394.071 373 M
394.071 370.83 L
S
GR
GS
0.149 GC
2 setlinecap
1 LJ
0.5 LW
N
400.944 373 M
400.944 370.83 L
S
GR
GS
0.149 GC
2 setlinecap
1 LJ
0.5 LW
N
406.755 373 M
406.755 370.83 L
S
GR
GS
0.149 GC
2 setlinecap
1 LJ
0.5 LW
N
411.788 373 M
411.788 370.83 L
S
GR
GS
0.149 GC
2 setlinecap
1 LJ
0.5 LW
N
416.228 373 M
416.228 370.83 L
S
GR
GS
0.149 GC
2 setlinecap
1 LJ
0.5 LW
N
420.2 373 M
420.2 370.83 L
S
GR
GS
0.149 GC
2 setlinecap
1 LJ
0.5 LW
N
446.329 373 M
446.329 370.83 L
S
GR
GS
0.149 GC
2 setlinecap
1 LJ
0.5 LW
N
461.614 373 M
461.614 370.83 L
S
GR
GS
0.149 GC
2 setlinecap
1 LJ
0.5 LW
N
472.459 373 M
472.459 370.83 L
S
GR
GS
0.149 GC
2 setlinecap
1 LJ
0.5 LW
N
480.871 373 M
480.871 370.83 L
S
GR
GS
0.149 GC
2 setlinecap
1 LJ
0.5 LW
N
487.744 373 M
487.744 370.83 L
S
GR
GS
0.149 GC
2 setlinecap
1 LJ
0.5 LW
N
493.555 373 M
493.555 370.83 L
S
GR
GS
0.149 GC
2 setlinecap
1 LJ
0.5 LW
N
498.588 373 M
498.588 370.83 L
S
GR
GS
0.149 GC
2 setlinecap
1 LJ
0.5 LW
N
503.028 373 M
503.028 370.83 L
S
GR
GS
0.149 GC
2 setlinecap
1 LJ
0.5 LW
N
507 373 M
507 370.83 L
S
GR
GS
0.149 GC
2 setlinecap
1 LJ
0.5 LW
N
73 31 M
73 33.17 L
S
GR
GS
0.149 GC
2 setlinecap
1 LJ
0.5 LW
N
99.129 31 M
99.129 33.17 L
S
GR
GS
0.149 GC
2 setlinecap
1 LJ
0.5 LW
N
114.414 31 M
114.414 33.17 L
S
GR
GS
0.149 GC
2 setlinecap
1 LJ
0.5 LW
N
125.259 31 M
125.259 33.17 L
S
GR
GS
0.149 GC
2 setlinecap
1 LJ
0.5 LW
N
133.671 31 M
133.671 33.17 L
S
GR
GS
0.149 GC
2 setlinecap
1 LJ
0.5 LW
N
140.544 31 M
140.544 33.17 L
S
GR
GS
0.149 GC
2 setlinecap
1 LJ
0.5 LW
N
146.355 31 M
146.355 33.17 L
S
GR
GS
0.149 GC
2 setlinecap
1 LJ
0.5 LW
N
151.388 31 M
151.388 33.17 L
S
GR
GS
0.149 GC
2 setlinecap
1 LJ
0.5 LW
N
155.828 31 M
155.828 33.17 L
S
GR
GS
0.149 GC
2 setlinecap
1 LJ
0.5 LW
N
159.8 31 M
159.8 33.17 L
S
GR
GS
0.149 GC
2 setlinecap
1 LJ
0.5 LW
N
185.929 31 M
185.929 33.17 L
S
GR
GS
0.149 GC
2 setlinecap
1 LJ
0.5 LW
N
201.214 31 M
201.214 33.17 L
S
GR
GS
0.149 GC
2 setlinecap
1 LJ
0.5 LW
N
212.059 31 M
212.059 33.17 L
S
GR
GS
0.149 GC
2 setlinecap
1 LJ
0.5 LW
N
220.471 31 M
220.471 33.17 L
S
GR
GS
0.149 GC
2 setlinecap
1 LJ
0.5 LW
N
227.344 31 M
227.344 33.17 L
S
GR
GS
0.149 GC
2 setlinecap
1 LJ
0.5 LW
N
233.155 31 M
233.155 33.17 L
S
GR
GS
0.149 GC
2 setlinecap
1 LJ
0.5 LW
N
238.188 31 M
238.188 33.17 L
S
GR
GS
0.149 GC
2 setlinecap
1 LJ
0.5 LW
N
242.628 31 M
242.628 33.17 L
S
GR
GS
0.149 GC
2 setlinecap
1 LJ
0.5 LW
N
246.6 31 M
246.6 33.17 L
S
GR
GS
0.149 GC
2 setlinecap
1 LJ
0.5 LW
N
272.729 31 M
272.729 33.17 L
S
GR
GS
0.149 GC
2 setlinecap
1 LJ
0.5 LW
N
288.014 31 M
288.014 33.17 L
S
GR
GS
0.149 GC
2 setlinecap
1 LJ
0.5 LW
N
298.859 31 M
298.859 33.17 L
S
GR
GS
0.149 GC
2 setlinecap
1 LJ
0.5 LW
N
307.271 31 M
307.271 33.17 L
S
GR
GS
0.149 GC
2 setlinecap
1 LJ
0.5 LW
N
314.144 31 M
314.144 33.17 L
S
GR
GS
0.149 GC
2 setlinecap
1 LJ
0.5 LW
N
319.954 31 M
319.954 33.17 L
S
GR
GS
0.149 GC
2 setlinecap
1 LJ
0.5 LW
N
324.988 31 M
324.988 33.17 L
S
GR
GS
0.149 GC
2 setlinecap
1 LJ
0.5 LW
N
329.428 31 M
329.428 33.17 L
S
GR
GS
0.149 GC
2 setlinecap
1 LJ
0.5 LW
N
333.4 31 M
333.4 33.17 L
S
GR
GS
0.149 GC
2 setlinecap
1 LJ
0.5 LW
N
359.529 31 M
359.529 33.17 L
S
GR
GS
0.149 GC
2 setlinecap
1 LJ
0.5 LW
N
374.814 31 M
374.814 33.17 L
S
GR
GS
0.149 GC
2 setlinecap
1 LJ
0.5 LW
N
385.659 31 M
385.659 33.17 L
S
GR
GS
0.149 GC
2 setlinecap
1 LJ
0.5 LW
N
394.071 31 M
394.071 33.17 L
S
GR
GS
0.149 GC
2 setlinecap
1 LJ
0.5 LW
N
400.944 31 M
400.944 33.17 L
S
GR
GS
0.149 GC
2 setlinecap
1 LJ
0.5 LW
N
406.755 31 M
406.755 33.17 L
S
GR
GS
0.149 GC
2 setlinecap
1 LJ
0.5 LW
N
411.788 31 M
411.788 33.17 L
S
GR
GS
0.149 GC
2 setlinecap
1 LJ
0.5 LW
N
416.228 31 M
416.228 33.17 L
S
GR
GS
0.149 GC
2 setlinecap
1 LJ
0.5 LW
N
420.2 31 M
420.2 33.17 L
S
GR
GS
0.149 GC
2 setlinecap
1 LJ
0.5 LW
N
446.329 31 M
446.329 33.17 L
S
GR
GS
0.149 GC
2 setlinecap
1 LJ
0.5 LW
N
461.614 31 M
461.614 33.17 L
S
GR
GS
0.149 GC
2 setlinecap
1 LJ
0.5 LW
N
472.459 31 M
472.459 33.17 L
S
GR
GS
0.149 GC
2 setlinecap
1 LJ
0.5 LW
N
480.871 31 M
480.871 33.17 L
S
GR
GS
0.149 GC
2 setlinecap
1 LJ
0.5 LW
N
487.744 31 M
487.744 33.17 L
S
GR
GS
0.149 GC
2 setlinecap
1 LJ
0.5 LW
N
493.555 31 M
493.555 33.17 L
S
GR
GS
0.149 GC
2 setlinecap
1 LJ
0.5 LW
N
498.588 31 M
498.588 33.17 L
S
GR
GS
0.149 GC
2 setlinecap
1 LJ
0.5 LW
N
503.028 31 M
503.028 33.17 L
S
GR
GS
0.149 GC
2 setlinecap
1 LJ
0.5 LW
N
507 31 M
507 33.17 L
S
GR
GS
[1 0 0 1 73 378.20001] CT
0.149 GC
N
-9.716 13.44 M
-9.716 12.877 L
-7.716 12.877 -7.716 12.362 QT
-7.716 3.971 L
-8.544 4.362 -9.809 4.362 QT
-9.809 3.799 L
-7.841 3.799 -6.841 2.784 QT
-6.622 2.784 L
-6.559 2.784 -6.513 2.823 QT
-6.466 2.862 -6.466 2.924 QT
-6.466 12.362 L
-6.466 12.877 -4.466 12.877 QT
-4.466 13.44 L
-9.716 13.44 L
cp
f
GR
GS
[1 0 0 1 73 378.20001] CT
0.149 GC
N
0.8 13.799 M
-1.153 13.799 -1.864 12.182 QT
-2.575 10.565 -2.575 8.331 QT
-2.575 6.94 -2.317 5.713 QT
-2.059 4.487 -1.309 3.635 QT
-0.559 2.784 0.8 2.784 QT
1.862 2.784 2.534 3.299 QT
3.206 3.815 3.558 4.627 QT
3.909 5.44 4.034 6.377 QT
4.159 7.315 4.159 8.331 QT
4.159 9.706 3.909 10.909 QT
3.659 12.112 2.917 12.956 QT
2.175 13.799 0.8 13.799 QT
cp
0.8 13.377 M
1.691 13.377 2.128 12.463 QT
2.566 11.549 2.667 10.44 QT
2.769 9.331 2.769 8.081 QT
2.769 6.877 2.667 5.862 QT
2.566 4.846 2.136 4.018 QT
1.706 3.19 0.8 3.19 QT
-0.106 3.19 -0.544 4.018 QT
-0.981 4.846 -1.083 5.862 QT
-1.184 6.877 -1.184 8.081 QT
-1.184 8.971 -1.138 9.76 QT
-1.091 10.549 -0.903 11.385 QT
-0.716 12.221 -0.302 12.799 QT
0.112 13.377 0.8 13.377 QT
cp
f
GR
GS
[1 0 0 1 73 378.20001] CT
0.149 GC
N
5.816 7.634 M
5.816 7.243 L
7.191 7.243 7.191 6.899 QT
7.191 1.118 L
6.628 1.399 5.753 1.399 QT
5.753 1.009 L
7.097 1.009 7.784 0.306 QT
7.941 0.306 L
7.988 0.306 8.019 0.337 QT
8.05 0.368 8.05 0.399 QT
8.05 6.899 L
8.05 7.243 9.425 7.243 QT
9.425 7.634 L
5.816 7.634 L
cp
f
GR
GS
[1 0 0 1 159.8 378.20001] CT
0.149 GC
N
/f1694880289{-9.716 13.44 M
-9.716 12.877 L
-7.716 12.877 -7.716 12.362 QT
-7.716 3.971 L
-8.544 4.362 -9.809 4.362 QT
-9.809 3.799 L
-7.841 3.799 -6.841 2.784 QT
-6.622 2.784 L
-6.559 2.784 -6.513 2.823 QT
-6.466 2.862 -6.466 2.924 QT
-6.466 12.362 L
-6.466 12.877 -4.466 12.877 QT
-4.466 13.44 L
-9.716 13.44 L
cp}def
f1694880289
f
GR
GS
[1 0 0 1 159.8 378.20001] CT
0.149 GC
N
/f-570576543{0.8 13.799 M
-1.153 13.799 -1.864 12.182 QT
-2.575 10.565 -2.575 8.331 QT
-2.575 6.94 -2.317 5.713 QT
-2.059 4.487 -1.309 3.635 QT
-0.559 2.784 0.8 2.784 QT
1.862 2.784 2.534 3.299 QT
3.206 3.815 3.558 4.627 QT
3.909 5.44 4.034 6.377 QT
4.159 7.315 4.159 8.331 QT
4.159 9.706 3.909 10.909 QT
3.659 12.112 2.917 12.956 QT
2.175 13.799 0.8 13.799 QT
cp
0.8 13.377 M
1.691 13.377 2.128 12.463 QT
2.566 11.549 2.667 10.44 QT
2.769 9.331 2.769 8.081 QT
2.769 6.877 2.667 5.862 QT
2.566 4.846 2.136 4.018 QT
1.706 3.19 0.8 3.19 QT
-0.106 3.19 -0.544 4.018 QT
-0.981 4.846 -1.083 5.862 QT
-1.184 6.877 -1.184 8.081 QT
-1.184 8.971 -1.138 9.76 QT
-1.091 10.549 -0.903 11.385 QT
-0.716 12.221 -0.302 12.799 QT
0.112 13.377 0.8 13.377 QT
cp}def
f-570576543
f
GR
GS
[1 0 0 1 159.8 378.20001] CT
0.149 GC
N
/f-425490914{5.347 7.634 M
5.347 7.337 L
5.347 7.306 5.363 7.274 QT
7.081 5.384 L
7.472 4.962 7.706 4.681 QT
7.941 4.399 8.183 4.032 QT
8.425 3.665 8.558 3.274 QT
8.691 2.884 8.691 2.462 QT
8.691 2.009 8.527 1.595 QT
8.363 1.181 8.034 0.938 QT
7.706 0.696 7.238 0.696 QT
6.753 0.696 6.37 0.985 QT
5.988 1.274 5.831 1.727 QT
5.878 1.712 5.956 1.712 QT
6.206 1.712 6.378 1.876 QT
6.55 2.04 6.55 2.306 QT
6.55 2.556 6.378 2.735 QT
6.206 2.915 5.956 2.915 QT
5.691 2.915 5.519 2.735 QT
5.347 2.556 5.347 2.306 QT
5.347 1.899 5.503 1.532 QT
5.659 1.165 5.948 0.884 QT
6.238 0.602 6.613 0.454 QT
6.988 0.306 7.394 0.306 QT
8.019 0.306 8.566 0.571 QT
9.113 0.837 9.425 1.321 QT
9.738 1.806 9.738 2.462 QT
9.738 2.946 9.527 3.376 QT
9.316 3.806 8.995 4.157 QT
8.675 4.509 8.159 4.954 QT
7.644 5.399 7.488 5.54 QT
6.238 6.743 L
7.3 6.743 L
8.081 6.743 8.605 6.727 QT
9.128 6.712 9.159 6.681 QT
9.284 6.556 9.425 5.681 QT
9.738 5.681 L
9.425 7.634 L
5.347 7.634 L
cp}def
f-425490914
f
GR
GS
[1 0 0 1 246.60001 378.20001] CT
0.149 GC
N
f1694880289
f
GR
GS
[1 0 0 1 246.60001 378.20001] CT
0.149 GC
N
f-570576543
f
GR
GS
[1 0 0 1 246.60001 378.20001] CT
0.149 GC
N
/f2098139249{5.847 6.79 M
6.113 7.165 6.542 7.345 QT
6.972 7.524 7.472 7.524 QT
8.113 7.524 8.378 6.977 QT
8.644 6.431 8.644 5.743 QT
8.644 5.431 8.589 5.118 QT
8.534 4.806 8.402 4.54 QT
8.269 4.274 8.034 4.11 QT
7.8 3.946 7.472 3.946 QT
6.738 3.946 L
6.644 3.946 6.644 3.852 QT
6.644 3.743 L
6.644 3.665 6.738 3.665 QT
7.347 3.618 L
7.722 3.618 7.98 3.329 QT
8.238 3.04 8.355 2.618 QT
8.472 2.196 8.472 1.821 QT
8.472 1.306 8.23 0.962 QT
7.988 0.618 7.472 0.618 QT
7.05 0.618 6.675 0.782 QT
6.3 0.946 6.066 1.259 QT
6.097 1.259 6.113 1.259 QT
6.128 1.259 6.144 1.259 QT
6.394 1.259 6.558 1.431 QT
6.722 1.602 6.722 1.837 QT
6.722 2.071 6.558 2.243 QT
6.394 2.415 6.144 2.415 QT
5.894 2.415 5.722 2.243 QT
5.55 2.071 5.55 1.837 QT
5.55 1.368 5.839 1.016 QT
6.128 0.665 6.573 0.485 QT
7.019 0.306 7.472 0.306 QT
7.816 0.306 8.183 0.407 QT
8.55 0.509 8.847 0.696 QT
9.144 0.884 9.339 1.173 QT
9.534 1.462 9.534 1.821 QT
9.534 2.29 9.323 2.681 QT
9.113 3.071 8.753 3.36 QT
8.394 3.649 7.972 3.79 QT
8.441 3.868 8.87 4.141 QT
9.3 4.415 9.566 4.829 QT
9.831 5.243 9.831 5.727 QT
9.831 6.337 9.495 6.829 QT
9.159 7.321 8.62 7.595 QT
8.081 7.868 7.472 7.868 QT
6.956 7.868 6.441 7.673 QT
5.925 7.477 5.597 7.087 QT
5.269 6.696 5.269 6.149 QT
5.269 5.884 5.448 5.696 QT
5.628 5.509 5.894 5.509 QT
6.081 5.509 6.23 5.595 QT
6.378 5.681 6.456 5.829 QT
6.534 5.977 6.534 6.149 QT
6.534 6.415 6.347 6.602 QT
6.159 6.79 5.894 6.79 QT
5.847 6.79 L
cp}def
f2098139249
f
GR
GS
[1 0 0 1 333.40002 378.20001] CT
0.149 GC
N
f1694880289
f
GR
GS
[1 0 0 1 333.40002 378.20001] CT
0.149 GC
N
f-570576543
f
GR
GS
[1 0 0 1 333.40002 378.20001] CT
0.149 GC
N
/f1797150449{5.113 5.821 M
5.113 5.431 L
8.503 0.368 L
8.55 0.306 8.613 0.306 QT
8.784 0.306 L
8.909 0.306 8.909 0.431 QT
8.909 5.431 L
9.988 5.431 L
9.988 5.821 L
8.909 5.821 L
8.909 6.899 L
8.909 7.118 9.23 7.181 QT
9.55 7.243 9.972 7.243 QT
9.972 7.634 L
6.941 7.634 L
6.941 7.243 L
7.363 7.243 7.691 7.181 QT
8.019 7.118 8.019 6.899 QT
8.019 5.821 L
5.113 5.821 L
cp
5.472 5.431 M
8.081 5.431 L
8.081 1.54 L
5.472 5.431 L
cp}def
f1797150449
f
GR
GS
[1 0 0 1 420.20001 378.20001] CT
0.149 GC
N
f1694880289
f
GR
GS
[1 0 0 1 420.20001 378.20001] CT
0.149 GC
N
f-570576543
f
GR
GS
[1 0 0 1 420.20001 378.20001] CT
0.149 GC
N
/f-1936515010{5.753 6.384 M
5.863 6.712 6.097 6.97 QT
6.331 7.227 6.652 7.376 QT
6.972 7.524 7.316 7.524 QT
8.113 7.524 8.417 6.907 QT
8.722 6.29 8.722 5.415 QT
8.722 5.024 8.706 4.766 QT
8.691 4.509 8.628 4.259 QT
8.534 3.884 8.277 3.595 QT
8.019 3.306 7.644 3.306 QT
7.269 3.306 7.003 3.415 QT
6.738 3.524 6.573 3.673 QT
6.409 3.821 6.284 3.993 QT
6.159 4.165 6.128 4.165 QT
6.003 4.165 L
5.972 4.165 5.933 4.134 QT
5.894 4.102 5.894 4.071 QT
5.894 0.399 L
5.894 0.368 5.925 0.337 QT
5.956 0.306 6.003 0.306 QT
6.034 0.306 L
6.769 0.665 7.597 0.665 QT
8.425 0.665 9.175 0.306 QT
9.206 0.306 L
9.253 0.306 9.284 0.337 QT
9.316 0.368 9.316 0.399 QT
9.316 0.493 L
9.316 0.556 9.284 0.556 QT
8.909 1.056 8.347 1.329 QT
7.784 1.602 7.175 1.602 QT
6.738 1.602 6.269 1.477 QT
6.269 3.556 L
6.644 3.274 6.925 3.141 QT
7.206 3.009 7.659 3.009 QT
8.269 3.009 8.745 3.36 QT
9.222 3.712 9.48 4.274 QT
9.738 4.837 9.738 5.415 QT
9.738 6.087 9.417 6.649 QT
9.097 7.212 8.534 7.54 QT
7.972 7.868 7.316 7.868 QT
6.784 7.868 6.323 7.595 QT
5.863 7.321 5.605 6.845 QT
5.347 6.368 5.347 5.837 QT
5.347 5.587 5.511 5.431 QT
5.675 5.274 5.909 5.274 QT
6.159 5.274 6.323 5.438 QT
6.488 5.602 6.488 5.837 QT
6.488 6.071 6.323 6.235 QT
6.159 6.399 5.909 6.399 QT
5.878 6.399 5.831 6.391 QT
5.784 6.384 5.753 6.384 QT
cp}def
f-1936515010
f
GR
GS
[1 0 0 1 507 378.20001] CT
0.149 GC
N
f1694880289
f
GR
GS
[1 0 0 1 507 378.20001] CT
0.149 GC
N
f-570576543
f
GR
GS
[1 0 0 1 507 378.20001] CT
0.149 GC
N
/f-1909405552{7.55 7.868 M
6.863 7.868 6.409 7.509 QT
5.956 7.149 5.706 6.571 QT
5.456 5.993 5.363 5.36 QT
5.269 4.727 5.269 4.071 QT
5.269 3.212 5.605 2.337 QT
5.941 1.462 6.597 0.884 QT
7.253 0.306 8.159 0.306 QT
8.534 0.306 8.863 0.446 QT
9.191 0.587 9.37 0.868 QT
9.55 1.149 9.55 1.54 QT
9.55 1.759 9.402 1.915 QT
9.253 2.071 9.019 2.071 QT
8.8 2.071 8.652 1.915 QT
8.503 1.759 8.503 1.54 QT
8.503 1.321 8.652 1.165 QT
8.8 1.009 9.019 1.009 QT
9.081 1.009 L
8.941 0.806 8.683 0.712 QT
8.425 0.618 8.159 0.618 QT
7.831 0.618 7.542 0.766 QT
7.253 0.915 7.034 1.165 QT
6.816 1.415 6.659 1.712 QT
6.503 2.009 6.425 2.391 QT
6.347 2.774 6.323 3.102 QT
6.3 3.431 6.3 3.931 QT
6.488 3.493 6.847 3.204 QT
7.206 2.915 7.644 2.915 QT
8.128 2.915 8.534 3.11 QT
8.941 3.306 9.23 3.657 QT
9.519 4.009 9.675 4.462 QT
9.831 4.915 9.831 5.384 QT
9.831 6.024 9.542 6.602 QT
9.253 7.181 8.73 7.524 QT
8.206 7.868 7.55 7.868 QT
cp
7.55 7.524 M
7.972 7.524 8.23 7.329 QT
8.488 7.134 8.613 6.813 QT
8.738 6.493 8.761 6.173 QT
8.784 5.852 8.784 5.384 QT
8.784 4.759 8.73 4.313 QT
8.675 3.868 8.409 3.532 QT
8.144 3.196 7.597 3.196 QT
7.159 3.196 6.87 3.501 QT
6.581 3.806 6.448 4.266 QT
6.316 4.727 6.316 5.149 QT
6.316 5.29 6.331 5.368 QT
6.331 5.384 6.331 5.391 QT
6.331 5.399 6.316 5.415 QT
6.316 5.899 6.417 6.376 QT
6.519 6.852 6.792 7.188 QT
7.066 7.524 7.55 7.524 QT
cp}def
f-1909405552
f
GR
GS
[1 0 0 1 290.00021 398.39999] CT
0.149 GC
N
/f-1221703417{-5.145 14.784 M
-5.317 14.784 -5.317 14.55 QT
-5.317 14.503 -5.286 14.393 QT
-5.255 14.284 -5.208 14.214 QT
-5.161 14.143 -5.098 14.143 QT
-3.989 14.143 -3.567 14.034 QT
-3.333 13.956 -3.223 13.55 QT
-0.755 3.659 L
-0.708 3.487 -0.708 3.409 QT
-0.708 3.221 -0.942 3.19 QT
-1.27 3.128 -2.223 3.128 QT
-2.395 3.128 -2.395 2.878 QT
-2.348 2.659 -2.309 2.573 QT
-2.27 2.487 -2.098 2.487 QT
3.214 2.487 L
3.37 2.487 3.37 2.721 QT
3.339 2.909 3.308 3.018 QT
3.277 3.128 3.136 3.128 QT
1.808 3.128 1.355 3.206 QT
0.917 3.284 0.808 3.737 QT
-1.645 13.612 L
-1.723 13.831 -1.723 14.003 QT
-1.723 14.143 -1.114 14.143 QT
0.558 14.143 L
1.98 14.143 2.855 13.581 QT
3.73 13.018 4.152 12.315 QT
4.574 11.612 4.863 10.854 QT
5.152 10.096 5.277 10.065 QT
5.433 10.065 L
5.62 10.065 5.62 10.3 QT
4.027 14.659 L
3.995 14.784 3.855 14.784 QT
-5.145 14.784 L
cp}def
f-1221703417
f
GR
GS
0.149 GC
2 setlinecap
1 LJ
0.5 LW
N
73 373 M
73 31 L
S
GR
GS
0.149 GC
2 setlinecap
1 LJ
0.5 LW
N
507 373 M
507 31 L
S
GR
GS
0.149 GC
2 setlinecap
1 LJ
0.5 LW
N
73 373 M
77.34 373 L
S
GR
GS
0.149 GC
2 setlinecap
1 LJ
0.5 LW
N
73 330.25 M
77.34 330.25 L
S
GR
GS
0.149 GC
2 setlinecap
1 LJ
0.5 LW
N
73 287.5 M
77.34 287.5 L
S
GR
GS
0.149 GC
2 setlinecap
1 LJ
0.5 LW
N
73 244.75 M
77.34 244.75 L
S
GR
GS
0.149 GC
2 setlinecap
1 LJ
0.5 LW
N
73 202 M
77.34 202 L
S
GR
GS
0.149 GC
2 setlinecap
1 LJ
0.5 LW
N
73 159.25 M
77.34 159.25 L
S
GR
GS
0.149 GC
2 setlinecap
1 LJ
0.5 LW
N
73 116.5 M
77.34 116.5 L
S
GR
GS
0.149 GC
2 setlinecap
1 LJ
0.5 LW
N
73 73.75 M
77.34 73.75 L
S
GR
GS
0.149 GC
2 setlinecap
1 LJ
0.5 LW
N
73 31 M
77.34 31 L
S
GR
GS
0.149 GC
2 setlinecap
1 LJ
0.5 LW
N
507 373 M
502.66 373 L
S
GR
GS
0.149 GC
2 setlinecap
1 LJ
0.5 LW
N
507 330.25 M
502.66 330.25 L
S
GR
GS
0.149 GC
2 setlinecap
1 LJ
0.5 LW
N
507 287.5 M
502.66 287.5 L
S
GR
GS
0.149 GC
2 setlinecap
1 LJ
0.5 LW
N
507 244.75 M
502.66 244.75 L
S
GR
GS
0.149 GC
2 setlinecap
1 LJ
0.5 LW
N
507 202 M
502.66 202 L
S
GR
GS
0.149 GC
2 setlinecap
1 LJ
0.5 LW
N
507 159.25 M
502.66 159.25 L
S
GR
GS
0.149 GC
2 setlinecap
1 LJ
0.5 LW
N
507 116.5 M
502.66 116.5 L
S
GR
GS
0.149 GC
2 setlinecap
1 LJ
0.5 LW
N
507 73.75 M
502.66 73.75 L
S
GR
GS
0.149 GC
2 setlinecap
1 LJ
0.5 LW
N
507 31 M
502.66 31 L
S
GR
GS
[1 0 0 1 67.8 373] CT
0.149 GC
N
/f1082849849{-7.328 1.402 M
-7.328 0.449 -6.695 -0.293 QT
-6.063 -1.035 -5.063 -1.519 QT
-5.656 -1.91 L
-6.203 -2.269 -6.547 -2.863 QT
-6.891 -3.457 -6.891 -4.113 QT
-6.891 -4.879 -6.492 -5.496 QT
-6.094 -6.113 -5.422 -6.465 QT
-4.75 -6.816 -4 -6.816 QT
-3.281 -6.816 -2.625 -6.527 QT
-1.969 -6.238 -1.539 -5.699 QT
-1.109 -5.16 -1.109 -4.426 QT
-1.109 -3.879 -1.367 -3.418 QT
-1.625 -2.957 -2.063 -2.59 QT
-2.5 -2.223 -3 -1.973 QT
-2.094 -1.379 L
-1.453 -0.973 -1.07 -0.301 QT
-0.688 0.371 -0.688 1.121 QT
-0.688 1.981 -1.148 2.692 QT
-1.609 3.402 -2.375 3.801 QT
-3.141 4.199 -4 4.199 QT
-4.828 4.199 -5.594 3.856 QT
-6.359 3.512 -6.844 2.879 QT
-7.328 2.246 -7.328 1.402 QT
cp
-6.453 1.402 M
-6.453 2.043 -6.109 2.567 QT
-5.766 3.09 -5.195 3.387 QT
-4.625 3.684 -4 3.684 QT
-3.063 3.684 -2.305 3.137 QT
-1.547 2.59 -1.547 1.699 QT
-1.547 1.387 -1.672 1.09 QT
-1.797 0.793 -2.008 0.543 QT
-2.219 0.293 -2.484 0.137 QT
-4.641 -1.254 L
-5.141 -0.988 -5.555 -0.582 QT
-5.969 -0.176 -6.211 0.332 QT
-6.453 0.84 -6.453 1.402 QT
cp
-5.359 -3.473 M
-3.422 -2.223 L
-2.75 -2.613 -2.32 -3.168 QT
-1.891 -3.723 -1.891 -4.426 QT
-1.891 -4.957 -2.188 -5.41 QT
-2.484 -5.863 -2.969 -6.113 QT
-3.453 -6.363 -4.016 -6.363 QT
-4.5 -6.363 -4.992 -6.176 QT
-5.484 -5.988 -5.805 -5.613 QT
-6.125 -5.238 -6.125 -4.738 QT
-6.125 -3.988 -5.359 -3.473 QT
cp}def
f1082849849
f
GR
GS
[1 0 0 1 67.8 330.25] CT
0.149 GC
N
/f-1073364832{-19.773 1.402 M
-19.773 0.449 -19.14 -0.293 QT
-18.507 -1.035 -17.507 -1.519 QT
-18.101 -1.91 L
-18.648 -2.269 -18.991 -2.863 QT
-19.335 -3.457 -19.335 -4.113 QT
-19.335 -4.879 -18.937 -5.496 QT
-18.538 -6.113 -17.866 -6.465 QT
-17.195 -6.816 -16.445 -6.816 QT
-15.726 -6.816 -15.07 -6.527 QT
-14.413 -6.238 -13.984 -5.699 QT
-13.554 -5.16 -13.554 -4.426 QT
-13.554 -3.879 -13.812 -3.418 QT
-14.07 -2.957 -14.507 -2.59 QT
-14.945 -2.223 -15.445 -1.973 QT
-14.538 -1.379 L
-13.898 -0.973 -13.515 -0.301 QT
-13.132 0.371 -13.132 1.121 QT
-13.132 1.981 -13.593 2.692 QT
-14.054 3.402 -14.82 3.801 QT
-15.585 4.199 -16.445 4.199 QT
-17.273 4.199 -18.038 3.856 QT
-18.804 3.512 -19.288 2.879 QT
-19.773 2.246 -19.773 1.402 QT
cp
-18.898 1.402 M
-18.898 2.043 -18.554 2.567 QT
-18.21 3.09 -17.64 3.387 QT
-17.07 3.684 -16.445 3.684 QT
-15.507 3.684 -14.749 3.137 QT
-13.991 2.59 -13.991 1.699 QT
-13.991 1.387 -14.116 1.09 QT
-14.241 0.793 -14.452 0.543 QT
-14.663 0.293 -14.929 0.137 QT
-17.085 -1.254 L
-17.585 -0.988 -17.999 -0.582 QT
-18.413 -0.176 -18.655 0.332 QT
-18.898 0.84 -18.898 1.402 QT
cp
-17.804 -3.473 M
-15.866 -2.223 L
-15.195 -2.613 -14.765 -3.168 QT
-14.335 -3.723 -14.335 -4.426 QT
-14.335 -4.957 -14.632 -5.41 QT
-14.929 -5.863 -15.413 -6.113 QT
-15.898 -6.363 -16.46 -6.363 QT
-16.945 -6.363 -17.437 -6.176 QT
-17.929 -5.988 -18.249 -5.613 QT
-18.57 -5.238 -18.57 -4.738 QT
-18.57 -3.988 -17.804 -3.473 QT
cp}def
f-1073364832
f
GR
GS
[1 0 0 1 67.8 330.25] CT
0.149 GC
N
/f772294982{-11.101 2.949 M
-11.101 2.59 -10.835 2.332 QT
-10.569 2.074 -10.21 2.074 QT
-9.991 2.074 -9.78 2.192 QT
-9.569 2.309 -9.452 2.52 QT
-9.335 2.731 -9.335 2.949 QT
-9.335 3.309 -9.593 3.574 QT
-9.851 3.84 -10.21 3.84 QT
-10.569 3.84 -10.835 3.574 QT
-11.101 3.309 -11.101 2.949 QT
cp}def
f772294982
f
GR
GS
[1 0 0 1 67.8 330.25] CT
0.149 GC
N
/f1964111568{-6.609 2.012 M
-6.438 2.481 -6.102 2.863 QT
-5.766 3.246 -5.297 3.465 QT
-4.828 3.684 -4.328 3.684 QT
-3.172 3.684 -2.734 2.785 QT
-2.297 1.887 -2.297 0.606 QT
-2.297 0.043 -2.32 -0.332 QT
-2.344 -0.707 -2.422 -1.066 QT
-2.578 -1.629 -2.945 -2.051 QT
-3.313 -2.473 -3.859 -2.473 QT
-4.391 -2.473 -4.781 -2.308 QT
-5.172 -2.144 -5.414 -1.926 QT
-5.656 -1.707 -5.844 -1.465 QT
-6.031 -1.223 -6.078 -1.207 QT
-6.25 -1.207 L
-6.297 -1.207 -6.352 -1.254 QT
-6.406 -1.301 -6.406 -1.348 QT
-6.406 -6.691 L
-6.406 -6.738 -6.359 -6.777 QT
-6.313 -6.816 -6.25 -6.816 QT
-6.203 -6.816 L
-5.125 -6.301 -3.922 -6.301 QT
-2.734 -6.301 -1.625 -6.816 QT
-1.578 -6.816 L
-1.531 -6.816 -1.484 -6.777 QT
-1.438 -6.738 -1.438 -6.691 QT
-1.438 -6.551 L
-1.438 -6.473 -1.469 -6.473 QT
-2.016 -5.738 -2.836 -5.332 QT
-3.656 -4.926 -4.547 -4.926 QT
-5.188 -4.926 -5.859 -5.113 QT
-5.859 -2.082 L
-5.328 -2.519 -4.906 -2.699 QT
-4.484 -2.879 -3.844 -2.879 QT
-2.953 -2.879 -2.258 -2.371 QT
-1.563 -1.863 -1.188 -1.051 QT
-0.813 -0.238 -0.813 0.621 QT
-0.813 1.574 -1.281 2.395 QT
-1.75 3.215 -2.563 3.707 QT
-3.375 4.199 -4.328 4.199 QT
-5.125 4.199 -5.781 3.785 QT
-6.438 3.371 -6.82 2.684 QT
-7.203 1.996 -7.203 1.231 QT
-7.203 0.871 -6.969 0.645 QT
-6.734 0.418 -6.375 0.418 QT
-6.031 0.418 -5.789 0.645 QT
-5.547 0.871 -5.547 1.231 QT
-5.547 1.574 -5.789 1.809 QT
-6.031 2.043 -6.375 2.043 QT
-6.438 2.043 -6.508 2.035 QT
-6.578 2.027 -6.609 2.012 QT
cp}def
f1964111568
f
GR
GS
[1 0 0 1 67.8 287.5] CT
0.149 GC
N
/f-1341065651{-6.188 3.168 M
-5.75 3.684 -4.672 3.684 QT
-4.063 3.684 -3.531 3.27 QT
-3 2.856 -2.719 2.246 QT
-2.375 1.574 -2.281 0.801 QT
-2.188 0.027 -2.188 -1.113 QT
-2.469 -0.457 -2.977 -0.043 QT
-3.484 0.371 -4.156 0.371 QT
-5.078 0.371 -5.813 -0.137 QT
-6.547 -0.644 -6.938 -1.465 QT
-7.328 -2.285 -7.328 -3.223 QT
-7.328 -4.176 -6.891 -5.012 QT
-6.453 -5.848 -5.68 -6.332 QT
-4.906 -6.816 -3.922 -6.816 QT
-2.953 -6.816 -2.297 -6.293 QT
-1.641 -5.769 -1.297 -4.933 QT
-0.953 -4.098 -0.82 -3.168 QT
-0.688 -2.238 -0.688 -1.332 QT
-0.688 -0.098 -1.141 1.184 QT
-1.594 2.465 -2.492 3.332 QT
-3.391 4.199 -4.672 4.199 QT
-5.609 4.199 -6.266 3.746 QT
-6.922 3.293 -6.922 2.402 QT
-6.922 2.074 -6.703 1.848 QT
-6.484 1.621 -6.156 1.621 QT
-5.828 1.621 -5.609 1.848 QT
-5.391 2.074 -5.391 2.402 QT
-5.391 2.715 -5.617 2.942 QT
-5.844 3.168 -6.156 3.168 QT
-6.188 3.168 L
cp
-4.094 -0.051 M
-3.438 -0.051 -3.016 -0.496 QT
-2.594 -0.941 -2.406 -1.598 QT
-2.219 -2.254 -2.219 -2.894 QT
-2.219 -3.207 L
-2.219 -3.269 L
-2.219 -4.473 -2.57 -5.418 QT
-2.922 -6.363 -3.922 -6.363 QT
-4.547 -6.363 -4.945 -6.082 QT
-5.344 -5.801 -5.531 -5.34 QT
-5.719 -4.879 -5.766 -4.355 QT
-5.813 -3.832 -5.813 -3.223 QT
-5.813 -2.316 -5.727 -1.676 QT
-5.641 -1.035 -5.258 -0.543 QT
-4.875 -0.051 -4.094 -0.051 QT
cp}def
f-1341065651
f
GR
GS
[1 0 0 1 67.8 244.75] CT
0.149 GC
N
/f1461752592{-18.632 3.168 M
-18.195 3.684 -17.116 3.684 QT
-16.507 3.684 -15.976 3.27 QT
-15.445 2.856 -15.163 2.246 QT
-14.82 1.574 -14.726 0.801 QT
-14.632 0.027 -14.632 -1.113 QT
-14.913 -0.457 -15.421 -0.043 QT
-15.929 0.371 -16.601 0.371 QT
-17.523 0.371 -18.257 -0.137 QT
-18.991 -0.644 -19.382 -1.465 QT
-19.773 -2.285 -19.773 -3.223 QT
-19.773 -4.176 -19.335 -5.012 QT
-18.898 -5.848 -18.124 -6.332 QT
-17.351 -6.816 -16.366 -6.816 QT
-15.398 -6.816 -14.741 -6.293 QT
-14.085 -5.769 -13.741 -4.933 QT
-13.398 -4.098 -13.265 -3.168 QT
-13.132 -2.238 -13.132 -1.332 QT
-13.132 -0.098 -13.585 1.184 QT
-14.038 2.465 -14.937 3.332 QT
-15.835 4.199 -17.116 4.199 QT
-18.054 4.199 -18.71 3.746 QT
-19.366 3.293 -19.366 2.402 QT
-19.366 2.074 -19.148 1.848 QT
-18.929 1.621 -18.601 1.621 QT
-18.273 1.621 -18.054 1.848 QT
-17.835 2.074 -17.835 2.402 QT
-17.835 2.715 -18.062 2.942 QT
-18.288 3.168 -18.601 3.168 QT
-18.632 3.168 L
cp
-16.538 -0.051 M
-15.882 -0.051 -15.46 -0.496 QT
-15.038 -0.941 -14.851 -1.598 QT
-14.663 -2.254 -14.663 -2.894 QT
-14.663 -3.207 L
-14.663 -3.269 L
-14.663 -4.473 -15.015 -5.418 QT
-15.366 -6.363 -16.366 -6.363 QT
-16.991 -6.363 -17.39 -6.082 QT
-17.788 -5.801 -17.976 -5.34 QT
-18.163 -4.879 -18.21 -4.355 QT
-18.257 -3.832 -18.257 -3.223 QT
-18.257 -2.316 -18.171 -1.676 QT
-18.085 -1.035 -17.702 -0.543 QT
-17.32 -0.051 -16.538 -0.051 QT
cp}def
f1461752592
f
GR
GS
[1 0 0 1 67.8 244.75] CT
0.149 GC
N
f772294982
f
GR
GS
[1 0 0 1 67.8 244.75] CT
0.149 GC
N
f1964111568
f
GR
GS
[1 0 0 1 67.8 202] CT
0.149 GC
N
/f-36096227{-14.516 3.84 M
-14.516 3.277 L
-12.516 3.277 -12.516 2.762 QT
-12.516 -5.629 L
-13.344 -5.238 -14.609 -5.238 QT
-14.609 -5.801 L
-12.641 -5.801 -11.641 -6.816 QT
-11.422 -6.816 L
-11.359 -6.816 -11.313 -6.777 QT
-11.266 -6.738 -11.266 -6.676 QT
-11.266 2.762 L
-11.266 3.277 -9.266 3.277 QT
-9.266 3.84 L
-14.516 3.84 L
cp}def
f-36096227
f
GR
GS
[1 0 0 1 67.8 202] CT
0.149 GC
N
/f-778410435{-4 4.199 M
-5.953 4.199 -6.664 2.582 QT
-7.375 0.965 -7.375 -1.269 QT
-7.375 -2.66 -7.117 -3.887 QT
-6.859 -5.113 -6.109 -5.965 QT
-5.359 -6.816 -4 -6.816 QT
-2.938 -6.816 -2.266 -6.301 QT
-1.594 -5.785 -1.242 -4.973 QT
-0.891 -4.16 -0.766 -3.223 QT
-0.641 -2.285 -0.641 -1.269 QT
-0.641 0.106 -0.891 1.309 QT
-1.141 2.512 -1.883 3.356 QT
-2.625 4.199 -4 4.199 QT
cp
-4 3.777 M
-3.109 3.777 -2.672 2.863 QT
-2.234 1.949 -2.133 0.84 QT
-2.031 -0.269 -2.031 -1.519 QT
-2.031 -2.723 -2.133 -3.738 QT
-2.234 -4.754 -2.664 -5.582 QT
-3.094 -6.41 -4 -6.41 QT
-4.906 -6.41 -5.344 -5.582 QT
-5.781 -4.754 -5.883 -3.738 QT
-5.984 -2.723 -5.984 -1.519 QT
-5.984 -0.629 -5.938 0.16 QT
-5.891 0.949 -5.703 1.785 QT
-5.516 2.621 -5.102 3.199 QT
-4.688 3.777 -4 3.777 QT
cp}def
f-778410435
f
GR
GS
[1 0 0 1 67.8 159.25] CT
0.149 GC
N
/f-1059109054{-26.96 3.84 M
-26.96 3.277 L
-24.96 3.277 -24.96 2.762 QT
-24.96 -5.629 L
-25.788 -5.238 -27.054 -5.238 QT
-27.054 -5.801 L
-25.085 -5.801 -24.085 -6.816 QT
-23.866 -6.816 L
-23.804 -6.816 -23.757 -6.777 QT
-23.71 -6.738 -23.71 -6.676 QT
-23.71 2.762 L
-23.71 3.277 -21.71 3.277 QT
-21.71 3.84 L
-26.96 3.84 L
cp}def
f-1059109054
f
GR
GS
[1 0 0 1 67.8 159.25] CT
0.149 GC
N
/f1595697370{-16.445 4.199 M
-18.398 4.199 -19.109 2.582 QT
-19.82 0.965 -19.82 -1.269 QT
-19.82 -2.66 -19.562 -3.887 QT
-19.304 -5.113 -18.554 -5.965 QT
-17.804 -6.816 -16.445 -6.816 QT
-15.382 -6.816 -14.71 -6.301 QT
-14.038 -5.785 -13.687 -4.973 QT
-13.335 -4.16 -13.21 -3.223 QT
-13.085 -2.285 -13.085 -1.269 QT
-13.085 0.106 -13.335 1.309 QT
-13.585 2.512 -14.327 3.356 QT
-15.07 4.199 -16.445 4.199 QT
cp
-16.445 3.777 M
-15.554 3.777 -15.116 2.863 QT
-14.679 1.949 -14.577 0.84 QT
-14.476 -0.269 -14.476 -1.519 QT
-14.476 -2.723 -14.577 -3.738 QT
-14.679 -4.754 -15.109 -5.582 QT
-15.538 -6.41 -16.445 -6.41 QT
-17.351 -6.41 -17.788 -5.582 QT
-18.226 -4.754 -18.327 -3.738 QT
-18.429 -2.723 -18.429 -1.519 QT
-18.429 -0.629 -18.382 0.16 QT
-18.335 0.949 -18.148 1.785 QT
-17.96 2.621 -17.546 3.199 QT
-17.132 3.777 -16.445 3.777 QT
cp}def
f1595697370
f
GR
GS
[1 0 0 1 67.8 159.25] CT
0.149 GC
N
f772294982
f
GR
GS
[1 0 0 1 67.8 159.25] CT
0.149 GC
N
f1964111568
f
GR
GS
[1 0 0 1 67.8 116.5] CT
0.149 GC
N
f-36096227
f
GR
GS
[1 0 0 1 67.8 116.5] CT
0.149 GC
N
/f287216437{-6.516 3.84 M
-6.516 3.277 L
-4.516 3.277 -4.516 2.762 QT
-4.516 -5.629 L
-5.344 -5.238 -6.609 -5.238 QT
-6.609 -5.801 L
-4.641 -5.801 -3.641 -6.816 QT
-3.422 -6.816 L
-3.359 -6.816 -3.313 -6.777 QT
-3.266 -6.738 -3.266 -6.676 QT
-3.266 2.762 L
-3.266 3.277 -1.266 3.277 QT
-1.266 3.84 L
-6.516 3.84 L
cp}def
f287216437
f
GR
GS
[1 0 0 1 67.8 73.75] CT
0.149 GC
N
f-1059109054
f
GR
GS
[1 0 0 1 67.8 73.75] CT
0.149 GC
N
/f-1136904996{-18.96 3.84 M
-18.96 3.277 L
-16.96 3.277 -16.96 2.762 QT
-16.96 -5.629 L
-17.788 -5.238 -19.054 -5.238 QT
-19.054 -5.801 L
-17.085 -5.801 -16.085 -6.816 QT
-15.866 -6.816 L
-15.804 -6.816 -15.757 -6.777 QT
-15.71 -6.738 -15.71 -6.676 QT
-15.71 2.762 L
-15.71 3.277 -13.71 3.277 QT
-13.71 3.84 L
-18.96 3.84 L
cp}def
f-1136904996
f
GR
GS
[1 0 0 1 67.8 73.75] CT
0.149 GC
N
f772294982
f
GR
GS
[1 0 0 1 67.8 73.75] CT
0.149 GC
N
f1964111568
f
GR
GS
[1 0 0 1 67.8 31] CT
0.149 GC
N
f-36096227
f
GR
GS
[1 0 0 1 67.8 31] CT
0.149 GC
N
/f-355840897{-7.203 3.84 M
-7.203 3.402 L
-7.203 3.371 -7.172 3.324 QT
-4.688 0.574 L
-4.125 -0.035 -3.773 -0.449 QT
-3.422 -0.863 -3.078 -1.402 QT
-2.734 -1.941 -2.531 -2.504 QT
-2.328 -3.066 -2.328 -3.691 QT
-2.328 -4.348 -2.57 -4.941 QT
-2.813 -5.535 -3.297 -5.894 QT
-3.781 -6.254 -4.453 -6.254 QT
-5.156 -6.254 -5.711 -5.84 QT
-6.266 -5.426 -6.484 -4.754 QT
-6.422 -4.769 -6.313 -4.769 QT
-5.953 -4.769 -5.703 -4.527 QT
-5.453 -4.285 -5.453 -3.91 QT
-5.453 -3.535 -5.703 -3.285 QT
-5.953 -3.035 -6.313 -3.035 QT
-6.688 -3.035 -6.945 -3.293 QT
-7.203 -3.551 -7.203 -3.91 QT
-7.203 -4.504 -6.977 -5.035 QT
-6.75 -5.566 -6.32 -5.973 QT
-5.891 -6.379 -5.359 -6.598 QT
-4.828 -6.816 -4.219 -6.816 QT
-3.313 -6.816 -2.523 -6.433 QT
-1.734 -6.051 -1.273 -5.34 QT
-0.813 -4.629 -0.813 -3.691 QT
-0.813 -2.988 -1.117 -2.363 QT
-1.422 -1.738 -1.898 -1.23 QT
-2.375 -0.723 -3.117 -0.074 QT
-3.859 0.574 -4.094 0.793 QT
-5.906 2.543 L
-4.359 2.543 L
-3.234 2.543 -2.469 2.52 QT
-1.703 2.496 -1.656 2.465 QT
-1.469 2.262 -1.281 0.981 QT
-0.813 0.981 L
-1.266 3.84 L
-7.203 3.84 L
cp}def
f-355840897
f
GR
GS
[0 -1 1 0 36.35547 201.99983] CT
0.149 GC
N
/f1191833518{-29.868 -4.22 M
-33.446 -12.095 L
-34.509 -11.298 L
-34.556 -11.236 -34.634 -11.236 QT
-34.712 -11.236 -34.798 -11.314 QT
-34.884 -11.392 -34.884 -11.501 QT
-34.884 -11.579 -34.806 -11.642 QT
-32.681 -13.251 L
-32.618 -13.298 -32.54 -13.298 QT
-32.431 -13.298 -32.368 -13.189 QT
-29.134 -6.095 L
-21.493 -21.939 L
-21.4 -22.111 -21.181 -22.111 QT
-21.04 -22.111 -20.931 -22.009 QT
-20.821 -21.908 -20.821 -21.751 QT
-20.821 -21.658 -20.837 -21.626 QT
-29.212 -4.267 L
-29.321 -4.111 -29.493 -4.111 QT
-29.696 -4.111 L
-29.79 -4.111 -29.868 -4.22 QT
cp}def
f1191833518
f
GR
GS
[0 -1 1 0 36.35547 201.99983] CT
0.149 GC
N
-21.514 -22.096 57.695 0.704 re
f
GR
GS
[0 -1 1 0 36.35547 201.99983] CT
0.149 GC
N
/f669157764{-19.842 -10.524 M
-20.014 -10.602 -20.014 -10.836 QT
-20.014 -11.07 -19.78 -11.18 QT
-9.514 -16.024 L
-9.436 -16.055 -9.389 -16.055 QT
-9.233 -16.055 -9.131 -15.945 QT
-9.03 -15.836 -9.03 -15.695 QT
-9.03 -15.477 -9.233 -15.352 QT
-18.811 -10.836 L
-9.186 -6.289 L
-9.03 -6.227 -9.03 -5.977 QT
-9.03 -5.836 -9.131 -5.727 QT
-9.233 -5.617 -9.389 -5.617 QT
-9.436 -5.617 -9.514 -5.649 QT
-19.842 -10.524 L
cp}def
f669157764
f
GR
GS
[0 -1 1 0 36.35547 201.99983] CT
0.149 GC
N
/f1306586472{-2.061 -6.336 M
-2.233 -6.336 -2.233 -6.57 QT
-2.218 -6.617 -2.194 -6.727 QT
-2.171 -6.836 -2.124 -6.906 QT
-2.077 -6.977 -1.999 -6.977 QT
-0.905 -6.977 -0.468 -7.086 QT
-0.233 -7.164 -0.14 -7.57 QT
2.345 -17.461 L
2.376 -17.633 2.376 -17.711 QT
2.376 -17.899 2.157 -17.93 QT
1.814 -17.992 0.86 -17.992 QT
0.689 -17.992 0.689 -18.242 QT
0.689 -18.274 0.72 -18.391 QT
0.751 -18.508 0.798 -18.57 QT
0.845 -18.633 0.907 -18.633 QT
6.376 -18.633 L
7.017 -18.633 7.72 -18.485 QT
8.423 -18.336 9.017 -18.016 QT
9.61 -17.695 9.985 -17.164 QT
10.36 -16.633 10.36 -15.914 QT
10.36 -15.008 9.767 -14.297 QT
9.173 -13.586 8.259 -13.11 QT
7.345 -12.633 6.47 -12.43 QT
7.173 -12.18 7.626 -11.625 QT
8.079 -11.07 8.079 -10.336 QT
8.079 -10.242 8.071 -10.195 QT
8.064 -10.149 8.064 -10.086 QT
7.923 -8.477 L
7.907 -8.133 7.884 -7.883 QT
7.86 -7.633 7.86 -7.492 QT
7.86 -6.992 8.009 -6.703 QT
8.157 -6.414 8.579 -6.414 QT
9.142 -6.414 9.571 -6.93 QT
10.001 -7.445 10.126 -8.07 QT
10.22 -8.227 10.314 -8.227 QT
10.47 -8.227 L
10.657 -8.227 10.657 -7.992 QT
10.517 -7.477 10.235 -7.008 QT
9.954 -6.539 9.517 -6.242 QT
9.079 -5.945 8.564 -5.945 QT
7.517 -5.945 6.775 -6.414 QT
6.032 -6.883 6.032 -7.883 QT
6.032 -8.258 6.095 -8.555 QT
6.501 -10.149 L
6.564 -10.367 6.564 -10.664 QT
6.564 -11.414 6.056 -11.836 QT
5.548 -12.258 4.782 -12.258 QT
2.579 -12.258 L
1.392 -7.508 L
1.345 -7.352 1.345 -7.258 QT
1.345 -7.07 1.564 -7.039 QT
1.907 -6.977 2.86 -6.977 QT
3.048 -6.977 3.048 -6.727 QT
2.985 -6.477 2.946 -6.406 QT
2.907 -6.336 2.735 -6.336 QT
-2.061 -6.336 L
cp
2.673 -12.727 M
4.673 -12.727 L
6.642 -12.727 7.626 -13.727 QT
8.079 -14.18 8.353 -14.883 QT
8.626 -15.586 8.626 -16.289 QT
8.626 -16.961 8.235 -17.336 QT
7.845 -17.711 7.267 -17.852 QT
6.689 -17.992 6.001 -17.992 QT
4.782 -17.992 L
4.298 -17.992 4.142 -17.914 QT
3.985 -17.836 3.845 -17.383 QT
2.673 -12.727 L
cp}def
f1306586472
f
GR
GS
[0 -1 1 0 36.35547 201.99983] CT
0.149 GC
N
/f231234849{11.157 -11.421 M
11.157 -11.749 L
11.157 -11.78 11.188 -11.811 QT
13.047 -13.874 L
13.469 -14.327 13.735 -14.639 QT
14.001 -14.952 14.258 -15.358 QT
14.516 -15.764 14.665 -16.178 QT
14.813 -16.592 14.813 -17.061 QT
14.813 -17.561 14.633 -18.006 QT
14.454 -18.452 14.094 -18.725 QT
13.735 -18.999 13.219 -18.999 QT
12.704 -18.999 12.282 -18.678 QT
11.86 -18.358 11.688 -17.874 QT
11.735 -17.874 11.829 -17.874 QT
12.094 -17.874 12.282 -17.694 QT
12.469 -17.514 12.469 -17.233 QT
12.469 -16.952 12.282 -16.764 QT
12.094 -16.577 11.829 -16.577 QT
11.547 -16.577 11.352 -16.772 QT
11.157 -16.967 11.157 -17.233 QT
11.157 -17.686 11.329 -18.077 QT
11.501 -18.467 11.821 -18.78 QT
12.141 -19.092 12.54 -19.256 QT
12.938 -19.421 13.391 -19.421 QT
14.079 -19.421 14.672 -19.124 QT
15.266 -18.827 15.61 -18.303 QT
15.954 -17.78 15.954 -17.061 QT
15.954 -16.546 15.727 -16.077 QT
15.501 -15.608 15.141 -15.225 QT
14.782 -14.842 14.227 -14.35 QT
13.672 -13.858 13.501 -13.702 QT
12.141 -12.389 L
13.282 -12.389 L
14.141 -12.389 14.712 -12.405 QT
15.282 -12.421 15.313 -12.452 QT
15.454 -12.608 15.61 -13.561 QT
15.954 -13.561 L
15.61 -11.421 L
11.157 -11.421 L
cp}def
f231234849
f
GR
GS
[0 -1 1 0 36.35547 201.99983] CT
0.149 GC
N
/f150947899{23.992 -5.977 M
23.992 -6.211 24.226 -6.32 QT
33.773 -10.836 L
24.164 -15.383 L
23.992 -15.445 23.992 -15.695 QT
23.992 -15.82 24.093 -15.938 QT
24.195 -16.055 24.351 -16.055 QT
24.382 -16.055 24.492 -16.024 QT
34.82 -11.149 L
34.976 -11.07 34.976 -10.836 QT
34.976 -10.602 34.773 -10.508 QT
24.492 -5.649 L
24.382 -5.617 24.351 -5.617 QT
24.195 -5.617 24.093 -5.735 QT
23.992 -5.852 23.992 -5.977 QT
cp}def
f150947899
f
GR
GS
0 0.447 0.741 RC
1 LJ
0.5 LW
N
73 163.535 M
76.593 232.871 L
82.89 135.526 L
85.684 229.939 L
90.718 88.734 L
95.158 339.954 L
99.129 270.121 L
104.398 193.86 L
107.541 299.565 L
111.813 153.308 L
116.847 178.022 L
121.287 285.129 L
125.259 206.286 L
129.699 154.31 L
134.417 197.485 L
138.61 258.143 L
142.976 76.659 L
147.416 261.293 L
151.857 279.508 L
156.245 180.932 L
160.546 151.124 L
165.069 211.044 L
169.399 187.867 L
173.807 180.454 L
178.218 192.299 L
182.581 180.225 L
187.044 231.565 L
191.362 217.803 L
195.82 198.161 L
200.195 204.845 L
204.463 232.156 L
208.916 200.027 L
213.264 205.443 L
217.654 214.511 L
222.022 191.609 L
226.454 184.467 L
230.822 186.521 L
235.198 217.694 L
239.576 199.87 L
243.986 207 L
248.367 192.056 L
252.743 199.36 L
257.123 194.306 L
261.506 190.436 L
265.887 206.78 L
270.276 193.262 L
274.658 196.369 L
279.033 189.797 L
283.423 202.377 L
287.813 214.635 L
292.196 204.304 L
296.576 199.119 L
300.957 201.487 L
305.345 204.096 L
309.729 203.793 L
314.112 198.015 L
318.494 197.376 L
322.881 197.076 L
327.265 200.995 L
331.645 199.743 L
336.031 199.122 L
340.414 190.185 L
344.797 199.775 L
349.182 201.277 L
353.567 205.627 L
357.949 204.859 L
362.333 203 L
366.717 201.848 L
371.101 201.595 L
375.485 198.089 L
379.869 200.221 L
384.252 203.505 L
388.637 201.527 L
393.02 201.084 L
397.404 201.886 L
401.788 202.488 L
406.172 204.319 L
410.555 201.867 L
414.939 202.653 L
419.323 200.291 L
423.707 203.076 L
428.091 202.67 L
432.475 202.173 L
436.859 202.473 L
441.242 202.321 L
445.626 203.118 L
450.01 202.196 L
454.394 201 L
458.778 203.004 L
463.162 201.519 L
467.545 202.538 L
471.929 201.582 L
476.313 200.869 L
480.697 201.845 L
485.081 202.601 L
489.465 202.001 L
493.848 201.616 L
498.232 202.577 L
502.616 201.571 L
507 201.328 L
S
GR
GS
1 0 0 RC
[10 6] 0 setdash
2 LJ
0.5 LW
N
73 202 M
507 202 L
S
GR
%%Trailer
%%Pages: 1
%%EOF
