%!PS-Adobe-3.0 EPSF-3.0
%%Creator: (MATLAB, The Mathworks, Inc. Version 9.1.0.441655 \(R2016b\). Operating System: Mac OS X)
%%Title: /Users/xander/git/Brownian_dynamics/Q1/uni_sig.eps
%%CreationDate: 2019-10-04T20:54:00
%%Pages: (atend)
%%BoundingBox: 0 0 560 420
%%LanguageLevel: 3
%%EndComments
%%BeginProlog
%%BeginResource: procset (Apache XML Graphics Std ProcSet) 1.2 0
%%Version: 1.2 0
%%Copyright: (Copyright 2001-2003,2010 The Apache Software Foundation. License terms: http://www.apache.org/licenses/LICENSE-2.0)
/bd{bind def}bind def
/ld{load def}bd
/GR/grestore ld
/M/moveto ld
/LJ/setlinejoin ld
/C/curveto ld
/f/fill ld
/LW/setlinewidth ld
/GC/setgray ld
/t/show ld
/N/newpath ld
/CT/concat ld
/cp/closepath ld
/S/stroke ld
/L/lineto ld
/CC/setcmykcolor ld
/A/ashow ld
/GS/gsave ld
/RC/setrgbcolor ld
/RM/rmoveto ld
/ML/setmiterlimit ld
/re {4 2 roll M
1 index 0 rlineto
0 exch rlineto
neg 0 rlineto
cp } bd
/_ctm matrix def
/_tm matrix def
/BT { _ctm currentmatrix pop matrix _tm copy pop 0 0 moveto } bd
/ET { _ctm setmatrix } bd
/iTm { _ctm setmatrix _tm concat } bd
/Tm { _tm astore pop iTm 0 0 moveto } bd
/ux 0.0 def
/uy 0.0 def
/F {
  /Tp exch def
  /Tf exch def
  Tf findfont Tp scalefont setfont
  /cf Tf def  /cs Tp def
} bd
/ULS {currentpoint /uy exch def /ux exch def} bd
/ULE {
  /Tcx currentpoint pop def
  gsave
  newpath
  cf findfont cs scalefont dup
  /FontMatrix get 0 get /Ts exch def /FontInfo get dup
  /UnderlinePosition get Ts mul /To exch def
  /UnderlineThickness get Ts mul /Tt exch def
  ux uy To add moveto  Tcx uy To add lineto
  Tt setlinewidth stroke
  grestore
} bd
/OLE {
  /Tcx currentpoint pop def
  gsave
  newpath
  cf findfont cs scalefont dup
  /FontMatrix get 0 get /Ts exch def /FontInfo get dup
  /UnderlinePosition get Ts mul /To exch def
  /UnderlineThickness get Ts mul /Tt exch def
  ux uy To add cs add moveto Tcx uy To add cs add lineto
  Tt setlinewidth stroke
  grestore
} bd
/SOE {
  /Tcx currentpoint pop def
  gsave
  newpath
  cf findfont cs scalefont dup
  /FontMatrix get 0 get /Ts exch def /FontInfo get dup
  /UnderlinePosition get Ts mul /To exch def
  /UnderlineThickness get Ts mul /Tt exch def
  ux uy To add cs 10 mul 26 idiv add moveto Tcx uy To add cs 10 mul 26 idiv add lineto
  Tt setlinewidth stroke
  grestore
} bd
/QT {
/Y22 exch store
/X22 exch store
/Y21 exch store
/X21 exch store
currentpoint
/Y21 load 2 mul add 3 div exch
/X21 load 2 mul add 3 div exch
/X21 load 2 mul /X22 load add 3 div
/Y21 load 2 mul /Y22 load add 3 div
/X22 load /Y22 load curveto
} bd
/SSPD {
dup length /d exch dict def
{
/v exch def
/k exch def
currentpagedevice k known {
/cpdv currentpagedevice k get def
v cpdv ne {
/upd false def
/nullv v type /nulltype eq def
/nullcpdv cpdv type /nulltype eq def
nullv nullcpdv or
{
/upd true def
} {
/sametype v type cpdv type eq def
sametype {
v type /arraytype eq {
/vlen v length def
/cpdvlen cpdv length def
vlen cpdvlen eq {
0 1 vlen 1 sub {
/i exch def
/obj v i get def
/cpdobj cpdv i get def
obj cpdobj ne {
/upd true def
exit
} if
} for
} {
/upd true def
} ifelse
} {
v type /dicttype eq {
v {
/dv exch def
/dk exch def
/cpddv cpdv dk get def
dv cpddv ne {
/upd true def
exit
} if
} forall
} {
/upd true def
} ifelse
} ifelse
} if
} ifelse
upd true eq {
d k v put
} if
} if
} if
} forall
d length 0 gt {
d setpagedevice
} if
} bd
/RE { % /NewFontName [NewEncodingArray] /FontName RE -
  findfont dup length dict begin
  {
    1 index /FID ne
    {def} {pop pop} ifelse
  } forall
  /Encoding exch def
  /FontName 1 index def
  currentdict definefont pop
  end
} bind def
%%EndResource
%%BeginResource: procset (Apache XML Graphics EPS ProcSet) 1.0 0
%%Version: 1.0 0
%%Copyright: (Copyright 2002-2003 The Apache Software Foundation. License terms: http://www.apache.org/licenses/LICENSE-2.0)
/BeginEPSF { %def
/b4_Inc_state save def         % Save state for cleanup
/dict_count countdictstack def % Count objects on dict stack
/op_count count 1 sub def      % Count objects on operand stack
userdict begin                 % Push userdict on dict stack
/showpage { } def              % Redefine showpage, { } = null proc
0 setgray 0 setlinecap         % Prepare graphics state
1 setlinewidth 0 setlinejoin
10 setmiterlimit [ ] 0 setdash newpath
/languagelevel where           % If level not equal to 1 then
{pop languagelevel             % set strokeadjust and
1 ne                           % overprint to their defaults.
{false setstrokeadjust false setoverprint
} if
} if
} bd
/EndEPSF { %def
count op_count sub {pop} repeat            % Clean up stacks
countdictstack dict_count sub {end} repeat
b4_Inc_state restore
} bd
%%EndResource
%FOPBeginFontDict
%%IncludeResource: font Courier-Bold
%%IncludeResource: font Helvetica
%%IncludeResource: font Courier-BoldOblique
%%IncludeResource: font Courier-Oblique
%%IncludeResource: font Times-Roman
%%IncludeResource: font Helvetica-BoldOblique
%%IncludeResource: font Helvetica-Bold
%%IncludeResource: font Helvetica-Oblique
%%IncludeResource: font Times-BoldItalic
%%IncludeResource: font Courier
%%IncludeResource: font Times-Italic
%%IncludeResource: font Times-Bold
%%IncludeResource: font Symbol
%%IncludeResource: font ZapfDingbats
%FOPEndFontDict
%%BeginResource: encoding WinAnsiEncoding
/WinAnsiEncoding [
/.notdef /.notdef /.notdef /.notdef /.notdef
/.notdef /.notdef /.notdef /.notdef /.notdef
/.notdef /.notdef /.notdef /.notdef /.notdef
/.notdef /.notdef /.notdef /.notdef /.notdef
/.notdef /.notdef /.notdef /.notdef /.notdef
/.notdef /.notdef /.notdef /.notdef /.notdef
/.notdef /.notdef /space /exclam /quotedbl
/numbersign /dollar /percent /ampersand /quotesingle
/parenleft /parenright /asterisk /plus /comma
/hyphen /period /slash /zero /one
/two /three /four /five /six
/seven /eight /nine /colon /semicolon
/less /equal /greater /question /at
/A /B /C /D /E
/F /G /H /I /J
/K /L /M /N /O
/P /Q /R /S /T
/U /V /W /X /Y
/Z /bracketleft /backslash /bracketright /asciicircum
/underscore /quoteleft /a /b /c
/d /e /f /g /h
/i /j /k /l /m
/n /o /p /q /r
/s /t /u /v /w
/x /y /z /braceleft /bar
/braceright /asciitilde /bullet /Euro /bullet
/quotesinglbase /florin /quotedblbase /ellipsis /dagger
/daggerdbl /circumflex /perthousand /Scaron /guilsinglleft
/OE /bullet /Zcaron /bullet /bullet
/quoteleft /quoteright /quotedblleft /quotedblright /bullet
/endash /emdash /asciitilde /trademark /scaron
/guilsinglright /oe /bullet /zcaron /Ydieresis
/space /exclamdown /cent /sterling /currency
/yen /brokenbar /section /dieresis /copyright
/ordfeminine /guillemotleft /logicalnot /sfthyphen /registered
/macron /degree /plusminus /twosuperior /threesuperior
/acute /mu /paragraph /middot /cedilla
/onesuperior /ordmasculine /guillemotright /onequarter /onehalf
/threequarters /questiondown /Agrave /Aacute /Acircumflex
/Atilde /Adieresis /Aring /AE /Ccedilla
/Egrave /Eacute /Ecircumflex /Edieresis /Igrave
/Iacute /Icircumflex /Idieresis /Eth /Ntilde
/Ograve /Oacute /Ocircumflex /Otilde /Odieresis
/multiply /Oslash /Ugrave /Uacute /Ucircumflex
/Udieresis /Yacute /Thorn /germandbls /agrave
/aacute /acircumflex /atilde /adieresis /aring
/ae /ccedilla /egrave /eacute /ecircumflex
/edieresis /igrave /iacute /icircumflex /idieresis
/eth /ntilde /ograve /oacute /ocircumflex
/otilde /odieresis /divide /oslash /ugrave
/uacute /ucircumflex /udieresis /yacute /thorn
/ydieresis
] def
%%EndResource
%FOPBeginFontReencode
/Courier-Bold findfont
dup length dict begin
  {1 index /FID ne {def} {pop pop} ifelse} forall
  /Encoding WinAnsiEncoding def
  currentdict
end
/Courier-Bold exch definefont pop
/Helvetica findfont
dup length dict begin
  {1 index /FID ne {def} {pop pop} ifelse} forall
  /Encoding WinAnsiEncoding def
  currentdict
end
/Helvetica exch definefont pop
/Courier-BoldOblique findfont
dup length dict begin
  {1 index /FID ne {def} {pop pop} ifelse} forall
  /Encoding WinAnsiEncoding def
  currentdict
end
/Courier-BoldOblique exch definefont pop
/Courier-Oblique findfont
dup length dict begin
  {1 index /FID ne {def} {pop pop} ifelse} forall
  /Encoding WinAnsiEncoding def
  currentdict
end
/Courier-Oblique exch definefont pop
/Times-Roman findfont
dup length dict begin
  {1 index /FID ne {def} {pop pop} ifelse} forall
  /Encoding WinAnsiEncoding def
  currentdict
end
/Times-Roman exch definefont pop
/Helvetica-BoldOblique findfont
dup length dict begin
  {1 index /FID ne {def} {pop pop} ifelse} forall
  /Encoding WinAnsiEncoding def
  currentdict
end
/Helvetica-BoldOblique exch definefont pop
/Helvetica-Bold findfont
dup length dict begin
  {1 index /FID ne {def} {pop pop} ifelse} forall
  /Encoding WinAnsiEncoding def
  currentdict
end
/Helvetica-Bold exch definefont pop
/Helvetica-Oblique findfont
dup length dict begin
  {1 index /FID ne {def} {pop pop} ifelse} forall
  /Encoding WinAnsiEncoding def
  currentdict
end
/Helvetica-Oblique exch definefont pop
/Times-BoldItalic findfont
dup length dict begin
  {1 index /FID ne {def} {pop pop} ifelse} forall
  /Encoding WinAnsiEncoding def
  currentdict
end
/Times-BoldItalic exch definefont pop
/Courier findfont
dup length dict begin
  {1 index /FID ne {def} {pop pop} ifelse} forall
  /Encoding WinAnsiEncoding def
  currentdict
end
/Courier exch definefont pop
/Times-Italic findfont
dup length dict begin
  {1 index /FID ne {def} {pop pop} ifelse} forall
  /Encoding WinAnsiEncoding def
  currentdict
end
/Times-Italic exch definefont pop
/Times-Bold findfont
dup length dict begin
  {1 index /FID ne {def} {pop pop} ifelse} forall
  /Encoding WinAnsiEncoding def
  currentdict
end
/Times-Bold exch definefont pop
%FOPEndFontReencode
%%EndProlog
%%Page: 1 1
%%PageBoundingBox: 0 0 560 420
%%BeginPageSetup
[1 0 0 -1 0 420] CT
%%EndPageSetup
GS
1 GC
N
0 0 560 420 re
f
GR
GS
1 GC
N
0 0 560 420 re
f
GR
GS
1 GC
N
73 373 M
507 373 L
507 31 L
73 31 L
cp
f
GR
GS
0.149 GC
2 setlinecap
1 LJ
0.5 LW
N
73 373 M
507 373 L
S
GR
GS
0.149 GC
2 setlinecap
1 LJ
0.5 LW
N
73 31 M
507 31 L
S
GR
GS
0.149 GC
2 setlinecap
1 LJ
0.5 LW
N
73 373 M
73 368.66 L
S
GR
GS
0.149 GC
2 setlinecap
1 LJ
0.5 LW
N
159.8 373 M
159.8 368.66 L
S
GR
GS
0.149 GC
2 setlinecap
1 LJ
0.5 LW
N
246.6 373 M
246.6 368.66 L
S
GR
GS
0.149 GC
2 setlinecap
1 LJ
0.5 LW
N
333.4 373 M
333.4 368.66 L
S
GR
GS
0.149 GC
2 setlinecap
1 LJ
0.5 LW
N
420.2 373 M
420.2 368.66 L
S
GR
GS
0.149 GC
2 setlinecap
1 LJ
0.5 LW
N
507 373 M
507 368.66 L
S
GR
GS
0.149 GC
2 setlinecap
1 LJ
0.5 LW
N
73 31 M
73 35.34 L
S
GR
GS
0.149 GC
2 setlinecap
1 LJ
0.5 LW
N
159.8 31 M
159.8 35.34 L
S
GR
GS
0.149 GC
2 setlinecap
1 LJ
0.5 LW
N
246.6 31 M
246.6 35.34 L
S
GR
GS
0.149 GC
2 setlinecap
1 LJ
0.5 LW
N
333.4 31 M
333.4 35.34 L
S
GR
GS
0.149 GC
2 setlinecap
1 LJ
0.5 LW
N
420.2 31 M
420.2 35.34 L
S
GR
GS
0.149 GC
2 setlinecap
1 LJ
0.5 LW
N
507 31 M
507 35.34 L
S
GR
GS
0.149 GC
2 setlinecap
1 LJ
0.5 LW
N
73 373 M
73 370.83 L
S
GR
GS
0.149 GC
2 setlinecap
1 LJ
0.5 LW
N
99.129 373 M
99.129 370.83 L
S
GR
GS
0.149 GC
2 setlinecap
1 LJ
0.5 LW
N
114.414 373 M
114.414 370.83 L
S
GR
GS
0.149 GC
2 setlinecap
1 LJ
0.5 LW
N
125.259 373 M
125.259 370.83 L
S
GR
GS
0.149 GC
2 setlinecap
1 LJ
0.5 LW
N
133.671 373 M
133.671 370.83 L
S
GR
GS
0.149 GC
2 setlinecap
1 LJ
0.5 LW
N
140.544 373 M
140.544 370.83 L
S
GR
GS
0.149 GC
2 setlinecap
1 LJ
0.5 LW
N
146.355 373 M
146.355 370.83 L
S
GR
GS
0.149 GC
2 setlinecap
1 LJ
0.5 LW
N
151.388 373 M
151.388 370.83 L
S
GR
GS
0.149 GC
2 setlinecap
1 LJ
0.5 LW
N
155.828 373 M
155.828 370.83 L
S
GR
GS
0.149 GC
2 setlinecap
1 LJ
0.5 LW
N
159.8 373 M
159.8 370.83 L
S
GR
GS
0.149 GC
2 setlinecap
1 LJ
0.5 LW
N
185.929 373 M
185.929 370.83 L
S
GR
GS
0.149 GC
2 setlinecap
1 LJ
0.5 LW
N
201.214 373 M
201.214 370.83 L
S
GR
GS
0.149 GC
2 setlinecap
1 LJ
0.5 LW
N
212.059 373 M
212.059 370.83 L
S
GR
GS
0.149 GC
2 setlinecap
1 LJ
0.5 LW
N
220.471 373 M
220.471 370.83 L
S
GR
GS
0.149 GC
2 setlinecap
1 LJ
0.5 LW
N
227.344 373 M
227.344 370.83 L
S
GR
GS
0.149 GC
2 setlinecap
1 LJ
0.5 LW
N
233.155 373 M
233.155 370.83 L
S
GR
GS
0.149 GC
2 setlinecap
1 LJ
0.5 LW
N
238.188 373 M
238.188 370.83 L
S
GR
GS
0.149 GC
2 setlinecap
1 LJ
0.5 LW
N
242.628 373 M
242.628 370.83 L
S
GR
GS
0.149 GC
2 setlinecap
1 LJ
0.5 LW
N
246.6 373 M
246.6 370.83 L
S
GR
GS
0.149 GC
2 setlinecap
1 LJ
0.5 LW
N
272.729 373 M
272.729 370.83 L
S
GR
GS
0.149 GC
2 setlinecap
1 LJ
0.5 LW
N
288.014 373 M
288.014 370.83 L
S
GR
GS
0.149 GC
2 setlinecap
1 LJ
0.5 LW
N
298.859 373 M
298.859 370.83 L
S
GR
GS
0.149 GC
2 setlinecap
1 LJ
0.5 LW
N
307.271 373 M
307.271 370.83 L
S
GR
GS
0.149 GC
2 setlinecap
1 LJ
0.5 LW
N
314.144 373 M
314.144 370.83 L
S
GR
GS
0.149 GC
2 setlinecap
1 LJ
0.5 LW
N
319.954 373 M
319.954 370.83 L
S
GR
GS
0.149 GC
2 setlinecap
1 LJ
0.5 LW
N
324.988 373 M
324.988 370.83 L
S
GR
GS
0.149 GC
2 setlinecap
1 LJ
0.5 LW
N
329.428 373 M
329.428 370.83 L
S
GR
GS
0.149 GC
2 setlinecap
1 LJ
0.5 LW
N
333.4 373 M
333.4 370.83 L
S
GR
GS
0.149 GC
2 setlinecap
1 LJ
0.5 LW
N
359.529 373 M
359.529 370.83 L
S
GR
GS
0.149 GC
2 setlinecap
1 LJ
0.5 LW
N
374.814 373 M
374.814 370.83 L
S
GR
GS
0.149 GC
2 setlinecap
1 LJ
0.5 LW
N
385.659 373 M
385.659 370.83 L
S
GR
GS
0.149 GC
2 setlinecap
1 LJ
0.5 LW
N
394.071 373 M
394.071 370.83 L
S
GR
GS
0.149 GC
2 setlinecap
1 LJ
0.5 LW
N
400.944 373 M
400.944 370.83 L
S
GR
GS
0.149 GC
2 setlinecap
1 LJ
0.5 LW
N
406.755 373 M
406.755 370.83 L
S
GR
GS
0.149 GC
2 setlinecap
1 LJ
0.5 LW
N
411.788 373 M
411.788 370.83 L
S
GR
GS
0.149 GC
2 setlinecap
1 LJ
0.5 LW
N
416.228 373 M
416.228 370.83 L
S
GR
GS
0.149 GC
2 setlinecap
1 LJ
0.5 LW
N
420.2 373 M
420.2 370.83 L
S
GR
GS
0.149 GC
2 setlinecap
1 LJ
0.5 LW
N
446.329 373 M
446.329 370.83 L
S
GR
GS
0.149 GC
2 setlinecap
1 LJ
0.5 LW
N
461.614 373 M
461.614 370.83 L
S
GR
GS
0.149 GC
2 setlinecap
1 LJ
0.5 LW
N
472.459 373 M
472.459 370.83 L
S
GR
GS
0.149 GC
2 setlinecap
1 LJ
0.5 LW
N
480.871 373 M
480.871 370.83 L
S
GR
GS
0.149 GC
2 setlinecap
1 LJ
0.5 LW
N
487.744 373 M
487.744 370.83 L
S
GR
GS
0.149 GC
2 setlinecap
1 LJ
0.5 LW
N
493.555 373 M
493.555 370.83 L
S
GR
GS
0.149 GC
2 setlinecap
1 LJ
0.5 LW
N
498.588 373 M
498.588 370.83 L
S
GR
GS
0.149 GC
2 setlinecap
1 LJ
0.5 LW
N
503.028 373 M
503.028 370.83 L
S
GR
GS
0.149 GC
2 setlinecap
1 LJ
0.5 LW
N
507 373 M
507 370.83 L
S
GR
GS
0.149 GC
2 setlinecap
1 LJ
0.5 LW
N
73 31 M
73 33.17 L
S
GR
GS
0.149 GC
2 setlinecap
1 LJ
0.5 LW
N
99.129 31 M
99.129 33.17 L
S
GR
GS
0.149 GC
2 setlinecap
1 LJ
0.5 LW
N
114.414 31 M
114.414 33.17 L
S
GR
GS
0.149 GC
2 setlinecap
1 LJ
0.5 LW
N
125.259 31 M
125.259 33.17 L
S
GR
GS
0.149 GC
2 setlinecap
1 LJ
0.5 LW
N
133.671 31 M
133.671 33.17 L
S
GR
GS
0.149 GC
2 setlinecap
1 LJ
0.5 LW
N
140.544 31 M
140.544 33.17 L
S
GR
GS
0.149 GC
2 setlinecap
1 LJ
0.5 LW
N
146.355 31 M
146.355 33.17 L
S
GR
GS
0.149 GC
2 setlinecap
1 LJ
0.5 LW
N
151.388 31 M
151.388 33.17 L
S
GR
GS
0.149 GC
2 setlinecap
1 LJ
0.5 LW
N
155.828 31 M
155.828 33.17 L
S
GR
GS
0.149 GC
2 setlinecap
1 LJ
0.5 LW
N
159.8 31 M
159.8 33.17 L
S
GR
GS
0.149 GC
2 setlinecap
1 LJ
0.5 LW
N
185.929 31 M
185.929 33.17 L
S
GR
GS
0.149 GC
2 setlinecap
1 LJ
0.5 LW
N
201.214 31 M
201.214 33.17 L
S
GR
GS
0.149 GC
2 setlinecap
1 LJ
0.5 LW
N
212.059 31 M
212.059 33.17 L
S
GR
GS
0.149 GC
2 setlinecap
1 LJ
0.5 LW
N
220.471 31 M
220.471 33.17 L
S
GR
GS
0.149 GC
2 setlinecap
1 LJ
0.5 LW
N
227.344 31 M
227.344 33.17 L
S
GR
GS
0.149 GC
2 setlinecap
1 LJ
0.5 LW
N
233.155 31 M
233.155 33.17 L
S
GR
GS
0.149 GC
2 setlinecap
1 LJ
0.5 LW
N
238.188 31 M
238.188 33.17 L
S
GR
GS
0.149 GC
2 setlinecap
1 LJ
0.5 LW
N
242.628 31 M
242.628 33.17 L
S
GR
GS
0.149 GC
2 setlinecap
1 LJ
0.5 LW
N
246.6 31 M
246.6 33.17 L
S
GR
GS
0.149 GC
2 setlinecap
1 LJ
0.5 LW
N
272.729 31 M
272.729 33.17 L
S
GR
GS
0.149 GC
2 setlinecap
1 LJ
0.5 LW
N
288.014 31 M
288.014 33.17 L
S
GR
GS
0.149 GC
2 setlinecap
1 LJ
0.5 LW
N
298.859 31 M
298.859 33.17 L
S
GR
GS
0.149 GC
2 setlinecap
1 LJ
0.5 LW
N
307.271 31 M
307.271 33.17 L
S
GR
GS
0.149 GC
2 setlinecap
1 LJ
0.5 LW
N
314.144 31 M
314.144 33.17 L
S
GR
GS
0.149 GC
2 setlinecap
1 LJ
0.5 LW
N
319.954 31 M
319.954 33.17 L
S
GR
GS
0.149 GC
2 setlinecap
1 LJ
0.5 LW
N
324.988 31 M
324.988 33.17 L
S
GR
GS
0.149 GC
2 setlinecap
1 LJ
0.5 LW
N
329.428 31 M
329.428 33.17 L
S
GR
GS
0.149 GC
2 setlinecap
1 LJ
0.5 LW
N
333.4 31 M
333.4 33.17 L
S
GR
GS
0.149 GC
2 setlinecap
1 LJ
0.5 LW
N
359.529 31 M
359.529 33.17 L
S
GR
GS
0.149 GC
2 setlinecap
1 LJ
0.5 LW
N
374.814 31 M
374.814 33.17 L
S
GR
GS
0.149 GC
2 setlinecap
1 LJ
0.5 LW
N
385.659 31 M
385.659 33.17 L
S
GR
GS
0.149 GC
2 setlinecap
1 LJ
0.5 LW
N
394.071 31 M
394.071 33.17 L
S
GR
GS
0.149 GC
2 setlinecap
1 LJ
0.5 LW
N
400.944 31 M
400.944 33.17 L
S
GR
GS
0.149 GC
2 setlinecap
1 LJ
0.5 LW
N
406.755 31 M
406.755 33.17 L
S
GR
GS
0.149 GC
2 setlinecap
1 LJ
0.5 LW
N
411.788 31 M
411.788 33.17 L
S
GR
GS
0.149 GC
2 setlinecap
1 LJ
0.5 LW
N
416.228 31 M
416.228 33.17 L
S
GR
GS
0.149 GC
2 setlinecap
1 LJ
0.5 LW
N
420.2 31 M
420.2 33.17 L
S
GR
GS
0.149 GC
2 setlinecap
1 LJ
0.5 LW
N
446.329 31 M
446.329 33.17 L
S
GR
GS
0.149 GC
2 setlinecap
1 LJ
0.5 LW
N
461.614 31 M
461.614 33.17 L
S
GR
GS
0.149 GC
2 setlinecap
1 LJ
0.5 LW
N
472.459 31 M
472.459 33.17 L
S
GR
GS
0.149 GC
2 setlinecap
1 LJ
0.5 LW
N
480.871 31 M
480.871 33.17 L
S
GR
GS
0.149 GC
2 setlinecap
1 LJ
0.5 LW
N
487.744 31 M
487.744 33.17 L
S
GR
GS
0.149 GC
2 setlinecap
1 LJ
0.5 LW
N
493.555 31 M
493.555 33.17 L
S
GR
GS
0.149 GC
2 setlinecap
1 LJ
0.5 LW
N
498.588 31 M
498.588 33.17 L
S
GR
GS
0.149 GC
2 setlinecap
1 LJ
0.5 LW
N
503.028 31 M
503.028 33.17 L
S
GR
GS
0.149 GC
2 setlinecap
1 LJ
0.5 LW
N
507 31 M
507 33.17 L
S
GR
GS
[1 0 0 1 73 378.20001] CT
0.149 GC
N
-9.716 13.44 M
-9.716 12.877 L
-7.716 12.877 -7.716 12.362 QT
-7.716 3.971 L
-8.544 4.362 -9.809 4.362 QT
-9.809 3.799 L
-7.841 3.799 -6.841 2.784 QT
-6.622 2.784 L
-6.559 2.784 -6.513 2.823 QT
-6.466 2.862 -6.466 2.924 QT
-6.466 12.362 L
-6.466 12.877 -4.466 12.877 QT
-4.466 13.44 L
-9.716 13.44 L
cp
f
GR
GS
[1 0 0 1 73 378.20001] CT
0.149 GC
N
0.8 13.799 M
-1.153 13.799 -1.864 12.182 QT
-2.575 10.565 -2.575 8.331 QT
-2.575 6.94 -2.317 5.713 QT
-2.059 4.487 -1.309 3.635 QT
-0.559 2.784 0.8 2.784 QT
1.862 2.784 2.534 3.299 QT
3.206 3.815 3.558 4.627 QT
3.909 5.44 4.034 6.377 QT
4.159 7.315 4.159 8.331 QT
4.159 9.706 3.909 10.909 QT
3.659 12.112 2.917 12.956 QT
2.175 13.799 0.8 13.799 QT
cp
0.8 13.377 M
1.691 13.377 2.128 12.463 QT
2.566 11.549 2.667 10.44 QT
2.769 9.331 2.769 8.081 QT
2.769 6.877 2.667 5.862 QT
2.566 4.846 2.136 4.018 QT
1.706 3.19 0.8 3.19 QT
-0.106 3.19 -0.544 4.018 QT
-0.981 4.846 -1.083 5.862 QT
-1.184 6.877 -1.184 8.081 QT
-1.184 8.971 -1.138 9.76 QT
-1.091 10.549 -0.903 11.385 QT
-0.716 12.221 -0.302 12.799 QT
0.112 13.377 0.8 13.377 QT
cp
f
GR
GS
[1 0 0 1 73 378.20001] CT
0.149 GC
N
5.347 7.634 M
5.347 7.337 L
5.347 7.306 5.363 7.274 QT
7.081 5.384 L
7.472 4.962 7.706 4.681 QT
7.941 4.399 8.183 4.032 QT
8.425 3.665 8.558 3.274 QT
8.691 2.884 8.691 2.462 QT
8.691 2.009 8.527 1.595 QT
8.363 1.181 8.034 0.938 QT
7.706 0.696 7.238 0.696 QT
6.753 0.696 6.37 0.985 QT
5.988 1.274 5.831 1.727 QT
5.878 1.712 5.956 1.712 QT
6.206 1.712 6.378 1.876 QT
6.55 2.04 6.55 2.306 QT
6.55 2.556 6.378 2.735 QT
6.206 2.915 5.956 2.915 QT
5.691 2.915 5.519 2.735 QT
5.347 2.556 5.347 2.306 QT
5.347 1.899 5.503 1.532 QT
5.659 1.165 5.948 0.884 QT
6.238 0.602 6.613 0.454 QT
6.988 0.306 7.394 0.306 QT
8.019 0.306 8.566 0.571 QT
9.113 0.837 9.425 1.321 QT
9.738 1.806 9.738 2.462 QT
9.738 2.946 9.527 3.376 QT
9.316 3.806 8.995 4.157 QT
8.675 4.509 8.159 4.954 QT
7.644 5.399 7.488 5.54 QT
6.238 6.743 L
7.3 6.743 L
8.081 6.743 8.605 6.727 QT
9.128 6.712 9.159 6.681 QT
9.284 6.556 9.425 5.681 QT
9.738 5.681 L
9.425 7.634 L
5.347 7.634 L
cp
f
GR
GS
[1 0 0 1 159.8 378.20001] CT
0.149 GC
N
/f1694880289{-9.716 13.44 M
-9.716 12.877 L
-7.716 12.877 -7.716 12.362 QT
-7.716 3.971 L
-8.544 4.362 -9.809 4.362 QT
-9.809 3.799 L
-7.841 3.799 -6.841 2.784 QT
-6.622 2.784 L
-6.559 2.784 -6.513 2.823 QT
-6.466 2.862 -6.466 2.924 QT
-6.466 12.362 L
-6.466 12.877 -4.466 12.877 QT
-4.466 13.44 L
-9.716 13.44 L
cp}def
f1694880289
f
GR
GS
[1 0 0 1 159.8 378.20001] CT
0.149 GC
N
/f-570576543{0.8 13.799 M
-1.153 13.799 -1.864 12.182 QT
-2.575 10.565 -2.575 8.331 QT
-2.575 6.94 -2.317 5.713 QT
-2.059 4.487 -1.309 3.635 QT
-0.559 2.784 0.8 2.784 QT
1.862 2.784 2.534 3.299 QT
3.206 3.815 3.558 4.627 QT
3.909 5.44 4.034 6.377 QT
4.159 7.315 4.159 8.331 QT
4.159 9.706 3.909 10.909 QT
3.659 12.112 2.917 12.956 QT
2.175 13.799 0.8 13.799 QT
cp
0.8 13.377 M
1.691 13.377 2.128 12.463 QT
2.566 11.549 2.667 10.44 QT
2.769 9.331 2.769 8.081 QT
2.769 6.877 2.667 5.862 QT
2.566 4.846 2.136 4.018 QT
1.706 3.19 0.8 3.19 QT
-0.106 3.19 -0.544 4.018 QT
-0.981 4.846 -1.083 5.862 QT
-1.184 6.877 -1.184 8.081 QT
-1.184 8.971 -1.138 9.76 QT
-1.091 10.549 -0.903 11.385 QT
-0.716 12.221 -0.302 12.799 QT
0.112 13.377 0.8 13.377 QT
cp}def
f-570576543
f
GR
GS
[1 0 0 1 159.8 378.20001] CT
0.149 GC
N
/f2098139249{5.847 6.79 M
6.113 7.165 6.542 7.345 QT
6.972 7.524 7.472 7.524 QT
8.113 7.524 8.378 6.977 QT
8.644 6.431 8.644 5.743 QT
8.644 5.431 8.589 5.118 QT
8.534 4.806 8.402 4.54 QT
8.269 4.274 8.034 4.11 QT
7.8 3.946 7.472 3.946 QT
6.738 3.946 L
6.644 3.946 6.644 3.852 QT
6.644 3.743 L
6.644 3.665 6.738 3.665 QT
7.347 3.618 L
7.722 3.618 7.98 3.329 QT
8.238 3.04 8.355 2.618 QT
8.472 2.196 8.472 1.821 QT
8.472 1.306 8.23 0.962 QT
7.988 0.618 7.472 0.618 QT
7.05 0.618 6.675 0.782 QT
6.3 0.946 6.066 1.259 QT
6.097 1.259 6.113 1.259 QT
6.128 1.259 6.144 1.259 QT
6.394 1.259 6.558 1.431 QT
6.722 1.602 6.722 1.837 QT
6.722 2.071 6.558 2.243 QT
6.394 2.415 6.144 2.415 QT
5.894 2.415 5.722 2.243 QT
5.55 2.071 5.55 1.837 QT
5.55 1.368 5.839 1.016 QT
6.128 0.665 6.573 0.485 QT
7.019 0.306 7.472 0.306 QT
7.816 0.306 8.183 0.407 QT
8.55 0.509 8.847 0.696 QT
9.144 0.884 9.339 1.173 QT
9.534 1.462 9.534 1.821 QT
9.534 2.29 9.323 2.681 QT
9.113 3.071 8.753 3.36 QT
8.394 3.649 7.972 3.79 QT
8.441 3.868 8.87 4.141 QT
9.3 4.415 9.566 4.829 QT
9.831 5.243 9.831 5.727 QT
9.831 6.337 9.495 6.829 QT
9.159 7.321 8.62 7.595 QT
8.081 7.868 7.472 7.868 QT
6.956 7.868 6.441 7.673 QT
5.925 7.477 5.597 7.087 QT
5.269 6.696 5.269 6.149 QT
5.269 5.884 5.448 5.696 QT
5.628 5.509 5.894 5.509 QT
6.081 5.509 6.23 5.595 QT
6.378 5.681 6.456 5.829 QT
6.534 5.977 6.534 6.149 QT
6.534 6.415 6.347 6.602 QT
6.159 6.79 5.894 6.79 QT
5.847 6.79 L
cp}def
f2098139249
f
GR
GS
[1 0 0 1 246.60001 378.20001] CT
0.149 GC
N
f1694880289
f
GR
GS
[1 0 0 1 246.60001 378.20001] CT
0.149 GC
N
f-570576543
f
GR
GS
[1 0 0 1 246.60001 378.20001] CT
0.149 GC
N
/f1797150449{5.113 5.821 M
5.113 5.431 L
8.503 0.368 L
8.55 0.306 8.613 0.306 QT
8.784 0.306 L
8.909 0.306 8.909 0.431 QT
8.909 5.431 L
9.988 5.431 L
9.988 5.821 L
8.909 5.821 L
8.909 6.899 L
8.909 7.118 9.23 7.181 QT
9.55 7.243 9.972 7.243 QT
9.972 7.634 L
6.941 7.634 L
6.941 7.243 L
7.363 7.243 7.691 7.181 QT
8.019 7.118 8.019 6.899 QT
8.019 5.821 L
5.113 5.821 L
cp
5.472 5.431 M
8.081 5.431 L
8.081 1.54 L
5.472 5.431 L
cp}def
f1797150449
f
GR
GS
[1 0 0 1 333.40002 378.20001] CT
0.149 GC
N
f1694880289
f
GR
GS
[1 0 0 1 333.40002 378.20001] CT
0.149 GC
N
f-570576543
f
GR
GS
[1 0 0 1 333.40002 378.20001] CT
0.149 GC
N
/f-1936515010{5.753 6.384 M
5.863 6.712 6.097 6.97 QT
6.331 7.227 6.652 7.376 QT
6.972 7.524 7.316 7.524 QT
8.113 7.524 8.417 6.907 QT
8.722 6.29 8.722 5.415 QT
8.722 5.024 8.706 4.766 QT
8.691 4.509 8.628 4.259 QT
8.534 3.884 8.277 3.595 QT
8.019 3.306 7.644 3.306 QT
7.269 3.306 7.003 3.415 QT
6.738 3.524 6.573 3.673 QT
6.409 3.821 6.284 3.993 QT
6.159 4.165 6.128 4.165 QT
6.003 4.165 L
5.972 4.165 5.933 4.134 QT
5.894 4.102 5.894 4.071 QT
5.894 0.399 L
5.894 0.368 5.925 0.337 QT
5.956 0.306 6.003 0.306 QT
6.034 0.306 L
6.769 0.665 7.597 0.665 QT
8.425 0.665 9.175 0.306 QT
9.206 0.306 L
9.253 0.306 9.284 0.337 QT
9.316 0.368 9.316 0.399 QT
9.316 0.493 L
9.316 0.556 9.284 0.556 QT
8.909 1.056 8.347 1.329 QT
7.784 1.602 7.175 1.602 QT
6.738 1.602 6.269 1.477 QT
6.269 3.556 L
6.644 3.274 6.925 3.141 QT
7.206 3.009 7.659 3.009 QT
8.269 3.009 8.745 3.36 QT
9.222 3.712 9.48 4.274 QT
9.738 4.837 9.738 5.415 QT
9.738 6.087 9.417 6.649 QT
9.097 7.212 8.534 7.54 QT
7.972 7.868 7.316 7.868 QT
6.784 7.868 6.323 7.595 QT
5.863 7.321 5.605 6.845 QT
5.347 6.368 5.347 5.837 QT
5.347 5.587 5.511 5.431 QT
5.675 5.274 5.909 5.274 QT
6.159 5.274 6.323 5.438 QT
6.488 5.602 6.488 5.837 QT
6.488 6.071 6.323 6.235 QT
6.159 6.399 5.909 6.399 QT
5.878 6.399 5.831 6.391 QT
5.784 6.384 5.753 6.384 QT
cp}def
f-1936515010
f
GR
GS
[1 0 0 1 420.20001 378.20001] CT
0.149 GC
N
f1694880289
f
GR
GS
[1 0 0 1 420.20001 378.20001] CT
0.149 GC
N
f-570576543
f
GR
GS
[1 0 0 1 420.20001 378.20001] CT
0.149 GC
N
/f-1909405552{7.55 7.868 M
6.863 7.868 6.409 7.509 QT
5.956 7.149 5.706 6.571 QT
5.456 5.993 5.363 5.36 QT
5.269 4.727 5.269 4.071 QT
5.269 3.212 5.605 2.337 QT
5.941 1.462 6.597 0.884 QT
7.253 0.306 8.159 0.306 QT
8.534 0.306 8.863 0.446 QT
9.191 0.587 9.37 0.868 QT
9.55 1.149 9.55 1.54 QT
9.55 1.759 9.402 1.915 QT
9.253 2.071 9.019 2.071 QT
8.8 2.071 8.652 1.915 QT
8.503 1.759 8.503 1.54 QT
8.503 1.321 8.652 1.165 QT
8.8 1.009 9.019 1.009 QT
9.081 1.009 L
8.941 0.806 8.683 0.712 QT
8.425 0.618 8.159 0.618 QT
7.831 0.618 7.542 0.766 QT
7.253 0.915 7.034 1.165 QT
6.816 1.415 6.659 1.712 QT
6.503 2.009 6.425 2.391 QT
6.347 2.774 6.323 3.102 QT
6.3 3.431 6.3 3.931 QT
6.488 3.493 6.847 3.204 QT
7.206 2.915 7.644 2.915 QT
8.128 2.915 8.534 3.11 QT
8.941 3.306 9.23 3.657 QT
9.519 4.009 9.675 4.462 QT
9.831 4.915 9.831 5.384 QT
9.831 6.024 9.542 6.602 QT
9.253 7.181 8.73 7.524 QT
8.206 7.868 7.55 7.868 QT
cp
7.55 7.524 M
7.972 7.524 8.23 7.329 QT
8.488 7.134 8.613 6.813 QT
8.738 6.493 8.761 6.173 QT
8.784 5.852 8.784 5.384 QT
8.784 4.759 8.73 4.313 QT
8.675 3.868 8.409 3.532 QT
8.144 3.196 7.597 3.196 QT
7.159 3.196 6.87 3.501 QT
6.581 3.806 6.448 4.266 QT
6.316 4.727 6.316 5.149 QT
6.316 5.29 6.331 5.368 QT
6.331 5.384 6.331 5.391 QT
6.331 5.399 6.316 5.415 QT
6.316 5.899 6.417 6.376 QT
6.519 6.852 6.792 7.188 QT
7.066 7.524 7.55 7.524 QT
cp}def
f-1909405552
f
GR
GS
[1 0 0 1 507 378.20001] CT
0.149 GC
N
f1694880289
f
GR
GS
[1 0 0 1 507 378.20001] CT
0.149 GC
N
f-570576543
f
GR
GS
[1 0 0 1 507 378.20001] CT
0.149 GC
N
/f-1509520305{6.706 7.352 M
6.706 6.743 6.816 6.157 QT
6.925 5.571 7.136 4.993 QT
7.347 4.415 7.636 3.868 QT
7.925 3.321 8.269 2.837 QT
9.284 1.446 L
8.019 1.446 L
6.066 1.446 6.003 1.493 QT
5.863 1.665 5.738 2.509 QT
5.425 2.509 L
5.784 0.196 L
6.097 0.196 L
6.097 0.227 L
6.097 0.431 6.769 0.493 QT
7.441 0.556 8.081 0.556 QT
10.128 0.556 L
10.128 0.837 L
10.128 0.837 10.128 0.845 QT
10.128 0.852 10.128 0.868 QT
8.613 2.993 L
8.05 3.821 7.909 4.829 QT
7.769 5.837 7.769 7.352 QT
7.769 7.571 7.613 7.72 QT
7.456 7.868 7.238 7.868 QT
7.019 7.868 6.863 7.72 QT
6.706 7.571 6.706 7.352 QT
cp}def
f-1509520305
f
GR
GS
[1 0 0 1 290.00021 398.39999] CT
0.149 GC
N
/f1909871922{-7.186 14.784 M
-7.358 14.784 -7.358 14.55 QT
-7.358 14.503 -7.327 14.393 QT
-7.296 14.284 -7.249 14.214 QT
-7.202 14.143 -7.139 14.143 QT
-5.405 14.143 -5.124 13.05 QT
-2.686 3.206 L
-3.186 3.128 -4.264 3.128 QT
-4.436 3.128 -4.436 2.878 QT
-4.436 2.846 -4.413 2.729 QT
-4.389 2.612 -4.335 2.55 QT
-4.28 2.487 -4.217 2.487 QT
-1.108 2.487 L
-0.967 2.487 -0.936 2.596 QT
3.064 12.128 L
5.064 4.143 L
5.095 3.956 5.095 3.878 QT
5.095 3.128 3.704 3.128 QT
3.533 3.128 3.533 2.878 QT
3.595 2.659 3.626 2.573 QT
3.658 2.487 3.829 2.487 QT
7.689 2.487 L
7.861 2.487 7.861 2.721 QT
7.845 2.768 7.822 2.878 QT
7.798 2.987 7.751 3.057 QT
7.704 3.128 7.626 3.128 QT
5.908 3.128 5.626 4.221 QT
3.048 14.628 L
2.986 14.784 2.861 14.784 QT
2.642 14.784 L
2.517 14.784 2.486 14.659 QT
-2.108 3.768 L
-2.139 3.659 L
-2.171 3.628 -2.171 3.596 QT
-4.561 13.128 L
-4.577 13.175 -4.585 13.237 QT
-4.592 13.3 -4.608 13.393 QT
-4.608 13.862 -4.202 14.003 QT
-3.796 14.143 -3.202 14.143 QT
-3.03 14.143 -3.03 14.393 QT
-3.092 14.628 -3.132 14.706 QT
-3.171 14.784 -3.327 14.784 QT
-7.186 14.784 L
cp}def
f1909871922
f
GR
GS
0.149 GC
2 setlinecap
1 LJ
0.5 LW
N
73 373 M
73 31 L
S
GR
GS
0.149 GC
2 setlinecap
1 LJ
0.5 LW
N
507 373 M
507 31 L
S
GR
GS
0.149 GC
2 setlinecap
1 LJ
0.5 LW
N
73 373 M
77.34 373 L
S
GR
GS
0.149 GC
2 setlinecap
1 LJ
0.5 LW
N
73 316 M
77.34 316 L
S
GR
GS
0.149 GC
2 setlinecap
1 LJ
0.5 LW
N
73 259 M
77.34 259 L
S
GR
GS
0.149 GC
2 setlinecap
1 LJ
0.5 LW
N
73 202 M
77.34 202 L
S
GR
GS
0.149 GC
2 setlinecap
1 LJ
0.5 LW
N
73 145 M
77.34 145 L
S
GR
GS
0.149 GC
2 setlinecap
1 LJ
0.5 LW
N
73 88 M
77.34 88 L
S
GR
GS
0.149 GC
2 setlinecap
1 LJ
0.5 LW
N
73 31 M
77.34 31 L
S
GR
GS
0.149 GC
2 setlinecap
1 LJ
0.5 LW
N
507 373 M
502.66 373 L
S
GR
GS
0.149 GC
2 setlinecap
1 LJ
0.5 LW
N
507 316 M
502.66 316 L
S
GR
GS
0.149 GC
2 setlinecap
1 LJ
0.5 LW
N
507 259 M
502.66 259 L
S
GR
GS
0.149 GC
2 setlinecap
1 LJ
0.5 LW
N
507 202 M
502.66 202 L
S
GR
GS
0.149 GC
2 setlinecap
1 LJ
0.5 LW
N
507 145 M
502.66 145 L
S
GR
GS
0.149 GC
2 setlinecap
1 LJ
0.5 LW
N
507 88 M
502.66 88 L
S
GR
GS
0.149 GC
2 setlinecap
1 LJ
0.5 LW
N
507 31 M
502.66 31 L
S
GR
GS
[1 0 0 1 67.8 373] CT
0.149 GC
N
/f-2101079790{-32.445 4.199 M
-34.398 4.199 -35.109 2.582 QT
-35.82 0.965 -35.82 -1.269 QT
-35.82 -2.66 -35.562 -3.887 QT
-35.304 -5.113 -34.554 -5.965 QT
-33.804 -6.816 -32.445 -6.816 QT
-31.382 -6.816 -30.71 -6.301 QT
-30.038 -5.785 -29.687 -4.973 QT
-29.335 -4.16 -29.21 -3.223 QT
-29.085 -2.285 -29.085 -1.269 QT
-29.085 0.106 -29.335 1.309 QT
-29.585 2.512 -30.327 3.356 QT
-31.07 4.199 -32.445 4.199 QT
cp
-32.445 3.777 M
-31.554 3.777 -31.116 2.863 QT
-30.679 1.949 -30.577 0.84 QT
-30.476 -0.269 -30.476 -1.519 QT
-30.476 -2.723 -30.577 -3.738 QT
-30.679 -4.754 -31.109 -5.582 QT
-31.538 -6.41 -32.445 -6.41 QT
-33.351 -6.41 -33.788 -5.582 QT
-34.226 -4.754 -34.327 -3.738 QT
-34.429 -2.723 -34.429 -1.519 QT
-34.429 -0.629 -34.382 0.16 QT
-34.335 0.949 -34.148 1.785 QT
-33.96 2.621 -33.546 3.199 QT
-33.132 3.777 -32.445 3.777 QT
cp}def
f-2101079790
f
GR
GS
[1 0 0 1 67.8 373] CT
0.149 GC
N
/f108082860{-27.101 2.949 M
-27.101 2.59 -26.835 2.332 QT
-26.57 2.074 -26.21 2.074 QT
-25.991 2.074 -25.78 2.192 QT
-25.57 2.309 -25.452 2.52 QT
-25.335 2.731 -25.335 2.949 QT
-25.335 3.309 -25.593 3.574 QT
-25.851 3.84 -26.21 3.84 QT
-26.57 3.84 -26.835 3.574 QT
-27.101 3.309 -27.101 2.949 QT
cp}def
f108082860
f
GR
GS
[1 0 0 1 67.8 373] CT
0.149 GC
N
/f-183417464{-23.203 3.84 M
-23.203 3.402 L
-23.203 3.371 -23.172 3.324 QT
-20.688 0.574 L
-20.125 -0.035 -19.774 -0.449 QT
-19.422 -0.863 -19.078 -1.402 QT
-18.734 -1.941 -18.531 -2.504 QT
-18.328 -3.066 -18.328 -3.691 QT
-18.328 -4.348 -18.57 -4.941 QT
-18.813 -5.535 -19.297 -5.894 QT
-19.781 -6.254 -20.453 -6.254 QT
-21.156 -6.254 -21.711 -5.84 QT
-22.266 -5.426 -22.484 -4.754 QT
-22.422 -4.769 -22.313 -4.769 QT
-21.953 -4.769 -21.703 -4.527 QT
-21.453 -4.285 -21.453 -3.91 QT
-21.453 -3.535 -21.703 -3.285 QT
-21.953 -3.035 -22.313 -3.035 QT
-22.688 -3.035 -22.945 -3.293 QT
-23.203 -3.551 -23.203 -3.91 QT
-23.203 -4.504 -22.977 -5.035 QT
-22.75 -5.566 -22.32 -5.973 QT
-21.891 -6.379 -21.359 -6.598 QT
-20.828 -6.816 -20.219 -6.816 QT
-19.313 -6.816 -18.524 -6.433 QT
-17.734 -6.051 -17.274 -5.34 QT
-16.813 -4.629 -16.813 -3.691 QT
-16.813 -2.988 -17.117 -2.363 QT
-17.422 -1.738 -17.899 -1.23 QT
-18.375 -0.723 -19.117 -0.074 QT
-19.859 0.574 -20.094 0.793 QT
-21.906 2.543 L
-20.359 2.543 L
-19.234 2.543 -18.469 2.52 QT
-17.703 2.496 -17.656 2.465 QT
-17.469 2.262 -17.281 0.981 QT
-16.813 0.981 L
-17.266 3.84 L
-23.203 3.84 L
cp}def
f-183417464
f
GR
GS
[1 0 0 1 67.8 373] CT
0.149 GC
N
/f-1049826609{-13.219 3.418 M
-13.219 2.527 -13.063 1.676 QT
-12.906 0.824 -12.602 -0.004 QT
-12.297 -0.832 -11.875 -1.637 QT
-11.453 -2.441 -10.938 -3.144 QT
-9.484 -5.176 L
-11.313 -5.176 L
-14.156 -5.176 -14.234 -5.098 QT
-14.453 -4.832 -14.641 -3.613 QT
-15.094 -3.613 L
-14.578 -6.973 L
-14.109 -6.973 L
-14.109 -6.926 L
-14.109 -6.644 -13.133 -6.558 QT
-12.156 -6.473 -11.219 -6.473 QT
-8.234 -6.473 L
-8.234 -6.051 L
-8.234 -6.035 -8.242 -6.027 QT
-8.25 -6.019 -8.25 -6.004 QT
-10.453 -2.91 L
-11.266 -1.707 -11.469 -0.238 QT
-11.672 1.231 -11.672 3.418 QT
-11.672 3.731 -11.898 3.965 QT
-12.125 4.199 -12.438 4.199 QT
-12.766 4.199 -12.992 3.965 QT
-13.219 3.731 -13.219 3.418 QT
cp}def
f-1049826609
f
GR
GS
[1 0 0 1 67.8 373] CT
0.149 GC
N
/f1964111568{-6.609 2.012 M
-6.438 2.481 -6.102 2.863 QT
-5.766 3.246 -5.297 3.465 QT
-4.828 3.684 -4.328 3.684 QT
-3.172 3.684 -2.734 2.785 QT
-2.297 1.887 -2.297 0.606 QT
-2.297 0.043 -2.32 -0.332 QT
-2.344 -0.707 -2.422 -1.066 QT
-2.578 -1.629 -2.945 -2.051 QT
-3.313 -2.473 -3.859 -2.473 QT
-4.391 -2.473 -4.781 -2.308 QT
-5.172 -2.144 -5.414 -1.926 QT
-5.656 -1.707 -5.844 -1.465 QT
-6.031 -1.223 -6.078 -1.207 QT
-6.25 -1.207 L
-6.297 -1.207 -6.352 -1.254 QT
-6.406 -1.301 -6.406 -1.348 QT
-6.406 -6.691 L
-6.406 -6.738 -6.359 -6.777 QT
-6.313 -6.816 -6.25 -6.816 QT
-6.203 -6.816 L
-5.125 -6.301 -3.922 -6.301 QT
-2.734 -6.301 -1.625 -6.816 QT
-1.578 -6.816 L
-1.531 -6.816 -1.484 -6.777 QT
-1.438 -6.738 -1.438 -6.691 QT
-1.438 -6.551 L
-1.438 -6.473 -1.469 -6.473 QT
-2.016 -5.738 -2.836 -5.332 QT
-3.656 -4.926 -4.547 -4.926 QT
-5.188 -4.926 -5.859 -5.113 QT
-5.859 -2.082 L
-5.328 -2.519 -4.906 -2.699 QT
-4.484 -2.879 -3.844 -2.879 QT
-2.953 -2.879 -2.258 -2.371 QT
-1.563 -1.863 -1.188 -1.051 QT
-0.813 -0.238 -0.813 0.621 QT
-0.813 1.574 -1.281 2.395 QT
-1.75 3.215 -2.563 3.707 QT
-3.375 4.199 -4.328 4.199 QT
-5.125 4.199 -5.781 3.785 QT
-6.438 3.371 -6.82 2.684 QT
-7.203 1.996 -7.203 1.231 QT
-7.203 0.871 -6.969 0.645 QT
-6.734 0.418 -6.375 0.418 QT
-6.031 0.418 -5.789 0.645 QT
-5.547 0.871 -5.547 1.231 QT
-5.547 1.574 -5.789 1.809 QT
-6.031 2.043 -6.375 2.043 QT
-6.438 2.043 -6.508 2.035 QT
-6.578 2.027 -6.609 2.012 QT
cp}def
f1964111568
f
GR
GS
[1 0 0 1 67.8 316] CT
0.149 GC
N
/f1464487104{-24.445 4.199 M
-26.398 4.199 -27.109 2.582 QT
-27.82 0.965 -27.82 -1.269 QT
-27.82 -2.66 -27.562 -3.887 QT
-27.304 -5.113 -26.554 -5.965 QT
-25.804 -6.816 -24.445 -6.816 QT
-23.382 -6.816 -22.71 -6.301 QT
-22.038 -5.785 -21.687 -4.973 QT
-21.335 -4.16 -21.21 -3.223 QT
-21.085 -2.285 -21.085 -1.269 QT
-21.085 0.106 -21.335 1.309 QT
-21.585 2.512 -22.327 3.356 QT
-23.07 4.199 -24.445 4.199 QT
cp
-24.445 3.777 M
-23.554 3.777 -23.116 2.863 QT
-22.679 1.949 -22.577 0.84 QT
-22.476 -0.269 -22.476 -1.519 QT
-22.476 -2.723 -22.577 -3.738 QT
-22.679 -4.754 -23.109 -5.582 QT
-23.538 -6.41 -24.445 -6.41 QT
-25.351 -6.41 -25.788 -5.582 QT
-26.226 -4.754 -26.327 -3.738 QT
-26.429 -2.723 -26.429 -1.519 QT
-26.429 -0.629 -26.382 0.16 QT
-26.335 0.949 -26.148 1.785 QT
-25.96 2.621 -25.546 3.199 QT
-25.132 3.777 -24.445 3.777 QT
cp}def
f1464487104
f
GR
GS
[1 0 0 1 67.8 316] CT
0.149 GC
N
/f-1139354257{-19.101 2.949 M
-19.101 2.59 -18.835 2.332 QT
-18.57 2.074 -18.21 2.074 QT
-17.991 2.074 -17.78 2.192 QT
-17.57 2.309 -17.452 2.52 QT
-17.335 2.731 -17.335 2.949 QT
-17.335 3.309 -17.593 3.574 QT
-17.851 3.84 -18.21 3.84 QT
-18.57 3.84 -18.835 3.574 QT
-19.101 3.309 -19.101 2.949 QT
cp}def
f-1139354257
f
GR
GS
[1 0 0 1 67.8 316] CT
0.149 GC
N
/f1710886435{-15.203 3.84 M
-15.203 3.402 L
-15.203 3.371 -15.172 3.324 QT
-12.688 0.574 L
-12.125 -0.035 -11.773 -0.449 QT
-11.422 -0.863 -11.078 -1.402 QT
-10.734 -1.941 -10.531 -2.504 QT
-10.328 -3.066 -10.328 -3.691 QT
-10.328 -4.348 -10.57 -4.941 QT
-10.813 -5.535 -11.297 -5.894 QT
-11.781 -6.254 -12.453 -6.254 QT
-13.156 -6.254 -13.711 -5.84 QT
-14.266 -5.426 -14.484 -4.754 QT
-14.422 -4.769 -14.313 -4.769 QT
-13.953 -4.769 -13.703 -4.527 QT
-13.453 -4.285 -13.453 -3.91 QT
-13.453 -3.535 -13.703 -3.285 QT
-13.953 -3.035 -14.313 -3.035 QT
-14.688 -3.035 -14.945 -3.293 QT
-15.203 -3.551 -15.203 -3.91 QT
-15.203 -4.504 -14.977 -5.035 QT
-14.75 -5.566 -14.32 -5.973 QT
-13.891 -6.379 -13.359 -6.598 QT
-12.828 -6.816 -12.219 -6.816 QT
-11.313 -6.816 -10.523 -6.433 QT
-9.734 -6.051 -9.273 -5.34 QT
-8.813 -4.629 -8.813 -3.691 QT
-8.813 -2.988 -9.117 -2.363 QT
-9.422 -1.738 -9.898 -1.23 QT
-10.375 -0.723 -11.117 -0.074 QT
-11.859 0.574 -12.094 0.793 QT
-13.906 2.543 L
-12.359 2.543 L
-11.234 2.543 -10.469 2.52 QT
-9.703 2.496 -9.656 2.465 QT
-9.469 2.262 -9.281 0.981 QT
-8.813 0.981 L
-9.266 3.84 L
-15.203 3.84 L
cp}def
f1710886435
f
GR
GS
[1 0 0 1 67.8 316] CT
0.149 GC
N
/f1082849849{-7.328 1.402 M
-7.328 0.449 -6.695 -0.293 QT
-6.063 -1.035 -5.063 -1.519 QT
-5.656 -1.91 L
-6.203 -2.269 -6.547 -2.863 QT
-6.891 -3.457 -6.891 -4.113 QT
-6.891 -4.879 -6.492 -5.496 QT
-6.094 -6.113 -5.422 -6.465 QT
-4.75 -6.816 -4 -6.816 QT
-3.281 -6.816 -2.625 -6.527 QT
-1.969 -6.238 -1.539 -5.699 QT
-1.109 -5.16 -1.109 -4.426 QT
-1.109 -3.879 -1.367 -3.418 QT
-1.625 -2.957 -2.063 -2.59 QT
-2.5 -2.223 -3 -1.973 QT
-2.094 -1.379 L
-1.453 -0.973 -1.07 -0.301 QT
-0.688 0.371 -0.688 1.121 QT
-0.688 1.981 -1.148 2.692 QT
-1.609 3.402 -2.375 3.801 QT
-3.141 4.199 -4 4.199 QT
-4.828 4.199 -5.594 3.856 QT
-6.359 3.512 -6.844 2.879 QT
-7.328 2.246 -7.328 1.402 QT
cp
-6.453 1.402 M
-6.453 2.043 -6.109 2.567 QT
-5.766 3.09 -5.195 3.387 QT
-4.625 3.684 -4 3.684 QT
-3.063 3.684 -2.305 3.137 QT
-1.547 2.59 -1.547 1.699 QT
-1.547 1.387 -1.672 1.09 QT
-1.797 0.793 -2.008 0.543 QT
-2.219 0.293 -2.484 0.137 QT
-4.641 -1.254 L
-5.141 -0.988 -5.555 -0.582 QT
-5.969 -0.176 -6.211 0.332 QT
-6.453 0.84 -6.453 1.402 QT
cp
-5.359 -3.473 M
-3.422 -2.223 L
-2.75 -2.613 -2.32 -3.168 QT
-1.891 -3.723 -1.891 -4.426 QT
-1.891 -4.957 -2.188 -5.41 QT
-2.484 -5.863 -2.969 -6.113 QT
-3.453 -6.363 -4.016 -6.363 QT
-4.5 -6.363 -4.992 -6.176 QT
-5.484 -5.988 -5.805 -5.613 QT
-6.125 -5.238 -6.125 -4.738 QT
-6.125 -3.988 -5.359 -3.473 QT
cp}def
f1082849849
f
GR
GS
[1 0 0 1 67.8 259] CT
0.149 GC
N
f-2101079790
f
GR
GS
[1 0 0 1 67.8 259] CT
0.149 GC
N
f108082860
f
GR
GS
[1 0 0 1 67.8 259] CT
0.149 GC
N
f-183417464
f
GR
GS
[1 0 0 1 67.8 259] CT
0.149 GC
N
/f-1046561076{-15.328 1.402 M
-15.328 0.449 -14.695 -0.293 QT
-14.063 -1.035 -13.063 -1.519 QT
-13.656 -1.91 L
-14.203 -2.269 -14.547 -2.863 QT
-14.891 -3.457 -14.891 -4.113 QT
-14.891 -4.879 -14.492 -5.496 QT
-14.094 -6.113 -13.422 -6.465 QT
-12.75 -6.816 -12 -6.816 QT
-11.281 -6.816 -10.625 -6.527 QT
-9.969 -6.238 -9.539 -5.699 QT
-9.109 -5.16 -9.109 -4.426 QT
-9.109 -3.879 -9.367 -3.418 QT
-9.625 -2.957 -10.063 -2.59 QT
-10.5 -2.223 -11 -1.973 QT
-10.094 -1.379 L
-9.453 -0.973 -9.07 -0.301 QT
-8.688 0.371 -8.688 1.121 QT
-8.688 1.981 -9.148 2.692 QT
-9.609 3.402 -10.375 3.801 QT
-11.141 4.199 -12 4.199 QT
-12.828 4.199 -13.594 3.856 QT
-14.359 3.512 -14.844 2.879 QT
-15.328 2.246 -15.328 1.402 QT
cp
-14.453 1.402 M
-14.453 2.043 -14.109 2.567 QT
-13.766 3.09 -13.195 3.387 QT
-12.625 3.684 -12 3.684 QT
-11.063 3.684 -10.305 3.137 QT
-9.547 2.59 -9.547 1.699 QT
-9.547 1.387 -9.672 1.09 QT
-9.797 0.793 -10.008 0.543 QT
-10.219 0.293 -10.484 0.137 QT
-12.641 -1.254 L
-13.141 -0.988 -13.555 -0.582 QT
-13.969 -0.176 -14.211 0.332 QT
-14.453 0.84 -14.453 1.402 QT
cp
-13.359 -3.473 M
-11.422 -2.223 L
-10.75 -2.613 -10.32 -3.168 QT
-9.891 -3.723 -9.891 -4.426 QT
-9.891 -4.957 -10.188 -5.41 QT
-10.484 -5.863 -10.969 -6.113 QT
-11.453 -6.363 -12.016 -6.363 QT
-12.5 -6.363 -12.992 -6.176 QT
-13.484 -5.988 -13.805 -5.613 QT
-14.125 -5.238 -14.125 -4.738 QT
-14.125 -3.988 -13.359 -3.473 QT
cp}def
f-1046561076
f
GR
GS
[1 0 0 1 67.8 259] CT
0.149 GC
N
f1964111568
f
GR
GS
[1 0 0 1 67.8 202] CT
0.149 GC
N
f1464487104
f
GR
GS
[1 0 0 1 67.8 202] CT
0.149 GC
N
f-1139354257
f
GR
GS
[1 0 0 1 67.8 202] CT
0.149 GC
N
f1710886435
f
GR
GS
[1 0 0 1 67.8 202] CT
0.149 GC
N
/f-1341065651{-6.188 3.168 M
-5.75 3.684 -4.672 3.684 QT
-4.063 3.684 -3.531 3.27 QT
-3 2.856 -2.719 2.246 QT
-2.375 1.574 -2.281 0.801 QT
-2.188 0.027 -2.188 -1.113 QT
-2.469 -0.457 -2.977 -0.043 QT
-3.484 0.371 -4.156 0.371 QT
-5.078 0.371 -5.813 -0.137 QT
-6.547 -0.644 -6.938 -1.465 QT
-7.328 -2.285 -7.328 -3.223 QT
-7.328 -4.176 -6.891 -5.012 QT
-6.453 -5.848 -5.68 -6.332 QT
-4.906 -6.816 -3.922 -6.816 QT
-2.953 -6.816 -2.297 -6.293 QT
-1.641 -5.769 -1.297 -4.933 QT
-0.953 -4.098 -0.82 -3.168 QT
-0.688 -2.238 -0.688 -1.332 QT
-0.688 -0.098 -1.141 1.184 QT
-1.594 2.465 -2.492 3.332 QT
-3.391 4.199 -4.672 4.199 QT
-5.609 4.199 -6.266 3.746 QT
-6.922 3.293 -6.922 2.402 QT
-6.922 2.074 -6.703 1.848 QT
-6.484 1.621 -6.156 1.621 QT
-5.828 1.621 -5.609 1.848 QT
-5.391 2.074 -5.391 2.402 QT
-5.391 2.715 -5.617 2.942 QT
-5.844 3.168 -6.156 3.168 QT
-6.188 3.168 L
cp
-4.094 -0.051 M
-3.438 -0.051 -3.016 -0.496 QT
-2.594 -0.941 -2.406 -1.598 QT
-2.219 -2.254 -2.219 -2.894 QT
-2.219 -3.207 L
-2.219 -3.269 L
-2.219 -4.473 -2.57 -5.418 QT
-2.922 -6.363 -3.922 -6.363 QT
-4.547 -6.363 -4.945 -6.082 QT
-5.344 -5.801 -5.531 -5.34 QT
-5.719 -4.879 -5.766 -4.355 QT
-5.813 -3.832 -5.813 -3.223 QT
-5.813 -2.316 -5.727 -1.676 QT
-5.641 -1.035 -5.258 -0.543 QT
-4.875 -0.051 -4.094 -0.051 QT
cp}def
f-1341065651
f
GR
GS
[1 0 0 1 67.8 145] CT
0.149 GC
N
f-2101079790
f
GR
GS
[1 0 0 1 67.8 145] CT
0.149 GC
N
f108082860
f
GR
GS
[1 0 0 1 67.8 145] CT
0.149 GC
N
f-183417464
f
GR
GS
[1 0 0 1 67.8 145] CT
0.149 GC
N
/f739355595{-14.188 3.168 M
-13.75 3.684 -12.672 3.684 QT
-12.063 3.684 -11.531 3.27 QT
-11 2.856 -10.719 2.246 QT
-10.375 1.574 -10.281 0.801 QT
-10.188 0.027 -10.188 -1.113 QT
-10.469 -0.457 -10.977 -0.043 QT
-11.484 0.371 -12.156 0.371 QT
-13.078 0.371 -13.813 -0.137 QT
-14.547 -0.644 -14.938 -1.465 QT
-15.328 -2.285 -15.328 -3.223 QT
-15.328 -4.176 -14.891 -5.012 QT
-14.453 -5.848 -13.68 -6.332 QT
-12.906 -6.816 -11.922 -6.816 QT
-10.953 -6.816 -10.297 -6.293 QT
-9.641 -5.769 -9.297 -4.933 QT
-8.953 -4.098 -8.82 -3.168 QT
-8.688 -2.238 -8.688 -1.332 QT
-8.688 -0.098 -9.141 1.184 QT
-9.594 2.465 -10.492 3.332 QT
-11.391 4.199 -12.672 4.199 QT
-13.609 4.199 -14.266 3.746 QT
-14.922 3.293 -14.922 2.402 QT
-14.922 2.074 -14.703 1.848 QT
-14.484 1.621 -14.156 1.621 QT
-13.828 1.621 -13.609 1.848 QT
-13.391 2.074 -13.391 2.402 QT
-13.391 2.715 -13.617 2.942 QT
-13.844 3.168 -14.156 3.168 QT
-14.188 3.168 L
cp
-12.094 -0.051 M
-11.438 -0.051 -11.016 -0.496 QT
-10.594 -0.941 -10.406 -1.598 QT
-10.219 -2.254 -10.219 -2.894 QT
-10.219 -3.207 L
-10.219 -3.269 L
-10.219 -4.473 -10.57 -5.418 QT
-10.922 -6.363 -11.922 -6.363 QT
-12.547 -6.363 -12.945 -6.082 QT
-13.344 -5.801 -13.531 -5.34 QT
-13.719 -4.879 -13.766 -4.355 QT
-13.813 -3.832 -13.813 -3.223 QT
-13.813 -2.316 -13.727 -1.676 QT
-13.641 -1.035 -13.258 -0.543 QT
-12.875 -0.051 -12.094 -0.051 QT
cp}def
f739355595
f
GR
GS
[1 0 0 1 67.8 145] CT
0.149 GC
N
f1964111568
f
GR
GS
[1 0 0 1 67.8 88.00001] CT
0.149 GC
N
/f1595697370{-16.445 4.199 M
-18.398 4.199 -19.109 2.582 QT
-19.82 0.965 -19.82 -1.269 QT
-19.82 -2.66 -19.562 -3.887 QT
-19.304 -5.113 -18.554 -5.965 QT
-17.804 -6.816 -16.445 -6.816 QT
-15.382 -6.816 -14.71 -6.301 QT
-14.038 -5.785 -13.687 -4.973 QT
-13.335 -4.16 -13.21 -3.223 QT
-13.085 -2.285 -13.085 -1.269 QT
-13.085 0.106 -13.335 1.309 QT
-13.585 2.512 -14.327 3.356 QT
-15.07 4.199 -16.445 4.199 QT
cp
-16.445 3.777 M
-15.554 3.777 -15.116 2.863 QT
-14.679 1.949 -14.577 0.84 QT
-14.476 -0.269 -14.476 -1.519 QT
-14.476 -2.723 -14.577 -3.738 QT
-14.679 -4.754 -15.109 -5.582 QT
-15.538 -6.41 -16.445 -6.41 QT
-17.351 -6.41 -17.788 -5.582 QT
-18.226 -4.754 -18.327 -3.738 QT
-18.429 -2.723 -18.429 -1.519 QT
-18.429 -0.629 -18.382 0.16 QT
-18.335 0.949 -18.148 1.785 QT
-17.96 2.621 -17.546 3.199 QT
-17.132 3.777 -16.445 3.777 QT
cp}def
f1595697370
f
GR
GS
[1 0 0 1 67.8 88.00001] CT
0.149 GC
N
/f772294982{-11.101 2.949 M
-11.101 2.59 -10.835 2.332 QT
-10.569 2.074 -10.21 2.074 QT
-9.991 2.074 -9.78 2.192 QT
-9.569 2.309 -9.452 2.52 QT
-9.335 2.731 -9.335 2.949 QT
-9.335 3.309 -9.593 3.574 QT
-9.851 3.84 -10.21 3.84 QT
-10.569 3.84 -10.835 3.574 QT
-11.101 3.309 -11.101 2.949 QT
cp}def
f772294982
f
GR
GS
[1 0 0 1 67.8 88.00001] CT
0.149 GC
N
/f-2102542514{-6.469 2.606 M
-6.094 3.152 -5.461 3.418 QT
-4.828 3.684 -4.109 3.684 QT
-3.172 3.684 -2.781 2.887 QT
-2.391 2.09 -2.391 1.09 QT
-2.391 0.637 -2.477 0.184 QT
-2.563 -0.269 -2.758 -0.66 QT
-2.953 -1.051 -3.289 -1.285 QT
-3.625 -1.519 -4.125 -1.519 QT
-5.188 -1.519 L
-5.328 -1.519 -5.328 -1.676 QT
-5.328 -1.816 L
-5.328 -1.941 -5.188 -1.941 QT
-4.297 -2.004 L
-3.734 -2.004 -3.367 -2.426 QT
-3 -2.848 -2.828 -3.457 QT
-2.656 -4.066 -2.656 -4.613 QT
-2.656 -5.379 -3.016 -5.871 QT
-3.375 -6.363 -4.109 -6.363 QT
-4.719 -6.363 -5.273 -6.129 QT
-5.828 -5.894 -6.156 -5.426 QT
-6.125 -5.441 -6.102 -5.441 QT
-6.078 -5.441 -6.047 -5.441 QT
-5.688 -5.441 -5.445 -5.191 QT
-5.203 -4.941 -5.203 -4.598 QT
-5.203 -4.254 -5.445 -4.004 QT
-5.688 -3.754 -6.047 -3.754 QT
-6.391 -3.754 -6.641 -4.004 QT
-6.891 -4.254 -6.891 -4.598 QT
-6.891 -5.285 -6.477 -5.793 QT
-6.063 -6.301 -5.414 -6.558 QT
-4.766 -6.816 -4.109 -6.816 QT
-3.625 -6.816 -3.086 -6.676 QT
-2.547 -6.535 -2.109 -6.262 QT
-1.672 -5.988 -1.391 -5.566 QT
-1.109 -5.144 -1.109 -4.613 QT
-1.109 -3.941 -1.414 -3.371 QT
-1.719 -2.801 -2.242 -2.387 QT
-2.766 -1.973 -3.391 -1.769 QT
-2.688 -1.629 -2.063 -1.238 QT
-1.438 -0.848 -1.063 -0.238 QT
-0.688 0.371 -0.688 1.074 QT
-0.688 1.949 -1.172 2.668 QT
-1.656 3.387 -2.445 3.793 QT
-3.234 4.199 -4.109 4.199 QT
-4.859 4.199 -5.609 3.91 QT
-6.359 3.621 -6.844 3.051 QT
-7.328 2.481 -7.328 1.684 QT
-7.328 1.277 -7.063 1.012 QT
-6.797 0.746 -6.391 0.746 QT
-6.141 0.746 -5.922 0.871 QT
-5.703 0.996 -5.586 1.215 QT
-5.469 1.434 -5.469 1.684 QT
-5.469 2.074 -5.742 2.34 QT
-6.016 2.606 -6.391 2.606 QT
-6.469 2.606 L
cp}def
f-2102542514
f
GR
GS
[1 0 0 1 67.8 31] CT
0.149 GC
N
f-2101079790
f
GR
GS
[1 0 0 1 67.8 31] CT
0.149 GC
N
f108082860
f
GR
GS
[1 0 0 1 67.8 31] CT
0.149 GC
N
/f1368846168{-22.469 2.606 M
-22.094 3.152 -21.461 3.418 QT
-20.828 3.684 -20.109 3.684 QT
-19.172 3.684 -18.781 2.887 QT
-18.391 2.09 -18.391 1.09 QT
-18.391 0.637 -18.477 0.184 QT
-18.563 -0.269 -18.758 -0.66 QT
-18.953 -1.051 -19.289 -1.285 QT
-19.625 -1.519 -20.125 -1.519 QT
-21.188 -1.519 L
-21.328 -1.519 -21.328 -1.676 QT
-21.328 -1.816 L
-21.328 -1.941 -21.188 -1.941 QT
-20.297 -2.004 L
-19.734 -2.004 -19.367 -2.426 QT
-19 -2.848 -18.828 -3.457 QT
-18.656 -4.066 -18.656 -4.613 QT
-18.656 -5.379 -19.016 -5.871 QT
-19.375 -6.363 -20.109 -6.363 QT
-20.719 -6.363 -21.274 -6.129 QT
-21.828 -5.894 -22.156 -5.426 QT
-22.125 -5.441 -22.102 -5.441 QT
-22.078 -5.441 -22.047 -5.441 QT
-21.688 -5.441 -21.445 -5.191 QT
-21.203 -4.941 -21.203 -4.598 QT
-21.203 -4.254 -21.445 -4.004 QT
-21.688 -3.754 -22.047 -3.754 QT
-22.391 -3.754 -22.641 -4.004 QT
-22.891 -4.254 -22.891 -4.598 QT
-22.891 -5.285 -22.477 -5.793 QT
-22.063 -6.301 -21.414 -6.558 QT
-20.766 -6.816 -20.109 -6.816 QT
-19.625 -6.816 -19.086 -6.676 QT
-18.547 -6.535 -18.109 -6.262 QT
-17.672 -5.988 -17.391 -5.566 QT
-17.109 -5.144 -17.109 -4.613 QT
-17.109 -3.941 -17.414 -3.371 QT
-17.719 -2.801 -18.242 -2.387 QT
-18.766 -1.973 -19.391 -1.769 QT
-18.688 -1.629 -18.063 -1.238 QT
-17.438 -0.848 -17.063 -0.238 QT
-16.688 0.371 -16.688 1.074 QT
-16.688 1.949 -17.172 2.668 QT
-17.656 3.387 -18.445 3.793 QT
-19.234 4.199 -20.109 4.199 QT
-20.859 4.199 -21.609 3.91 QT
-22.359 3.621 -22.844 3.051 QT
-23.328 2.481 -23.328 1.684 QT
-23.328 1.277 -23.063 1.012 QT
-22.797 0.746 -22.391 0.746 QT
-22.141 0.746 -21.922 0.871 QT
-21.703 0.996 -21.586 1.215 QT
-21.469 1.434 -21.469 1.684 QT
-21.469 2.074 -21.742 2.34 QT
-22.016 2.606 -22.391 2.606 QT
-22.469 2.606 L
cp}def
f1368846168
f
GR
GS
[1 0 0 1 67.8 31] CT
0.149 GC
N
/f-268641983{-12 4.199 M
-13.953 4.199 -14.664 2.582 QT
-15.375 0.965 -15.375 -1.269 QT
-15.375 -2.66 -15.117 -3.887 QT
-14.859 -5.113 -14.109 -5.965 QT
-13.359 -6.816 -12 -6.816 QT
-10.938 -6.816 -10.266 -6.301 QT
-9.594 -5.785 -9.242 -4.973 QT
-8.891 -4.16 -8.766 -3.223 QT
-8.641 -2.285 -8.641 -1.269 QT
-8.641 0.106 -8.891 1.309 QT
-9.141 2.512 -9.883 3.356 QT
-10.625 4.199 -12 4.199 QT
cp
-12 3.777 M
-11.109 3.777 -10.672 2.863 QT
-10.234 1.949 -10.133 0.84 QT
-10.031 -0.269 -10.031 -1.519 QT
-10.031 -2.723 -10.133 -3.738 QT
-10.234 -4.754 -10.664 -5.582 QT
-11.094 -6.41 -12 -6.41 QT
-12.906 -6.41 -13.344 -5.582 QT
-13.781 -4.754 -13.883 -3.738 QT
-13.984 -2.723 -13.984 -1.519 QT
-13.984 -0.629 -13.938 0.16 QT
-13.891 0.949 -13.703 1.785 QT
-13.516 2.621 -13.102 3.199 QT
-12.688 3.777 -12 3.777 QT
cp}def
f-268641983
f
GR
GS
[1 0 0 1 67.8 31] CT
0.149 GC
N
f1964111568
f
GR
GS
[0 -1 1 0 28.35544 201.99983] CT
0.149 GC
N
/f1725386459{-1.985 -6.133 M
-2.782 -6.133 -3.399 -6.516 QT
-4.016 -6.899 -4.352 -7.547 QT
-4.688 -8.195 -4.688 -8.977 QT
-4.688 -9.82 -4.313 -10.742 QT
-3.938 -11.664 -3.282 -12.43 QT
-2.625 -13.195 -1.797 -13.649 QT
-0.969 -14.102 -0.11 -14.102 QT
4.437 -14.102 L
4.609 -14.102 4.742 -13.977 QT
4.875 -13.852 4.875 -13.633 QT
4.875 -13.383 4.687 -13.18 QT
4.5 -12.977 4.234 -12.977 QT
2.046 -12.977 L
2.562 -12.211 2.562 -11.102 QT
2.562 -10.211 2.211 -9.328 QT
1.859 -8.445 1.234 -7.719 QT
0.609 -6.992 -0.219 -6.563 QT
-1.047 -6.133 -1.985 -6.133 QT
cp
-1.954 -6.602 M
-0.969 -6.602 -0.211 -7.375 QT
0.546 -8.149 0.953 -9.258 QT
1.359 -10.367 1.359 -11.32 QT
1.359 -12.086 0.929 -12.531 QT
0.5 -12.977 -0.266 -12.977 QT
-1.313 -12.977 -2.047 -12.274 QT
-2.782 -11.57 -3.141 -10.508 QT
-3.5 -9.445 -3.5 -8.461 QT
-3.5 -7.695 -3.094 -7.149 QT
-2.688 -6.602 -1.954 -6.602 QT
cp}def
f1725386459
f
GR
GS
0 0.447 0.741 RC
1 LJ
N
73 152.492 M
77.272 191.435 L
81.712 331.85 L
86.219 158.554 L
90.481 160.378 L
94.948 291.504 L
99.317 337.109 L
103.737 216.548 L
108.14 75.093 L
112.481 306.563 L
116.847 185.931 L
121.182 273.508 L
125.634 306.969 L
129.949 272.296 L
134.343 230.021 L
138.742 220.508 L
143.153 205.203 L
147.521 240.997 L
151.903 159.94 L
156.286 274.823 L
160.694 149.979 L
165.069 149.852 L
169.458 191.408 L
173.833 308.045 L
178.218 237.392 L
182.601 234.501 L
186.989 156.448 L
191.362 230.029 L
195.747 217.115 L
200.131 236.068 L
204.52 210.019 L
208.895 256.571 L
213.283 191.129 L
217.67 241.628 L
222.05 240.734 L
226.434 189.18 L
230.816 189.069 L
235.203 233.336 L
239.585 201.86 L
243.97 235.364 L
248.353 207.263 L
252.737 209.762 L
257.12 176.584 L
261.506 206.067 L
265.889 229.521 L
270.272 218.866 L
274.656 220.392 L
279.041 205.524 L
283.424 216.17 L
287.807 213.498 L
292.192 216.754 L
296.575 213.12 L
300.959 216.403 L
305.343 228.523 L
309.727 213.382 L
314.111 217.917 L
318.495 225.635 L
322.879 222.3 L
327.262 213.828 L
331.647 209.822 L
336.03 212.935 L
340.414 216.075 L
344.798 218.422 L
349.182 221.531 L
353.566 222.212 L
357.949 211.557 L
362.333 211.166 L
366.717 219.084 L
371.101 221.644 L
375.485 216.151 L
379.869 219.221 L
384.253 219.093 L
388.636 218.887 L
393.02 221.576 L
397.404 218.051 L
401.788 216.035 L
406.172 216.546 L
410.556 215.798 L
414.939 215.838 L
419.323 216.957 L
423.707 214.184 L
428.091 216.276 L
432.475 216.747 L
436.859 216.371 L
441.242 218.099 L
445.626 216.617 L
450.01 217.215 L
454.394 216.682 L
458.778 217.497 L
463.162 216.853 L
467.545 218.819 L
471.929 218.344 L
476.313 216.945 L
480.697 217.058 L
485.081 217.061 L
489.465 217.572 L
493.848 216.627 L
498.232 217.302 L
502.616 216.704 L
507 217.107 L
S
GR
GS
1 0 0 RC
[10 6] 0 setdash
2 LJ
N
73 217.103 M
507 217.103 L
S
GR
%%Trailer
%%Pages: 1
%%EOF
