%!PS-Adobe-3.0 EPSF-3.0
%%Creator: (MATLAB, The Mathworks, Inc. Version 9.1.0.441655 \(R2016b\). Operating System: Mac OS X)
%%Title: /Users/xander/git/Brownian_dynamics/Q1/uni_rms.eps
%%CreationDate: 2019-10-04T20:54:12
%%Pages: (atend)
%%BoundingBox: 0 0 560 420
%%LanguageLevel: 3
%%EndComments
%%BeginProlog
%%BeginResource: procset (Apache XML Graphics Std ProcSet) 1.2 0
%%Version: 1.2 0
%%Copyright: (Copyright 2001-2003,2010 The Apache Software Foundation. License terms: http://www.apache.org/licenses/LICENSE-2.0)
/bd{bind def}bind def
/ld{load def}bd
/GR/grestore ld
/M/moveto ld
/LJ/setlinejoin ld
/C/curveto ld
/f/fill ld
/LW/setlinewidth ld
/GC/setgray ld
/t/show ld
/N/newpath ld
/CT/concat ld
/cp/closepath ld
/S/stroke ld
/L/lineto ld
/CC/setcmykcolor ld
/A/ashow ld
/GS/gsave ld
/RC/setrgbcolor ld
/RM/rmoveto ld
/ML/setmiterlimit ld
/re {4 2 roll M
1 index 0 rlineto
0 exch rlineto
neg 0 rlineto
cp } bd
/_ctm matrix def
/_tm matrix def
/BT { _ctm currentmatrix pop matrix _tm copy pop 0 0 moveto } bd
/ET { _ctm setmatrix } bd
/iTm { _ctm setmatrix _tm concat } bd
/Tm { _tm astore pop iTm 0 0 moveto } bd
/ux 0.0 def
/uy 0.0 def
/F {
  /Tp exch def
  /Tf exch def
  Tf findfont Tp scalefont setfont
  /cf Tf def  /cs Tp def
} bd
/ULS {currentpoint /uy exch def /ux exch def} bd
/ULE {
  /Tcx currentpoint pop def
  gsave
  newpath
  cf findfont cs scalefont dup
  /FontMatrix get 0 get /Ts exch def /FontInfo get dup
  /UnderlinePosition get Ts mul /To exch def
  /UnderlineThickness get Ts mul /Tt exch def
  ux uy To add moveto  Tcx uy To add lineto
  Tt setlinewidth stroke
  grestore
} bd
/OLE {
  /Tcx currentpoint pop def
  gsave
  newpath
  cf findfont cs scalefont dup
  /FontMatrix get 0 get /Ts exch def /FontInfo get dup
  /UnderlinePosition get Ts mul /To exch def
  /UnderlineThickness get Ts mul /Tt exch def
  ux uy To add cs add moveto Tcx uy To add cs add lineto
  Tt setlinewidth stroke
  grestore
} bd
/SOE {
  /Tcx currentpoint pop def
  gsave
  newpath
  cf findfont cs scalefont dup
  /FontMatrix get 0 get /Ts exch def /FontInfo get dup
  /UnderlinePosition get Ts mul /To exch def
  /UnderlineThickness get Ts mul /Tt exch def
  ux uy To add cs 10 mul 26 idiv add moveto Tcx uy To add cs 10 mul 26 idiv add lineto
  Tt setlinewidth stroke
  grestore
} bd
/QT {
/Y22 exch store
/X22 exch store
/Y21 exch store
/X21 exch store
currentpoint
/Y21 load 2 mul add 3 div exch
/X21 load 2 mul add 3 div exch
/X21 load 2 mul /X22 load add 3 div
/Y21 load 2 mul /Y22 load add 3 div
/X22 load /Y22 load curveto
} bd
/SSPD {
dup length /d exch dict def
{
/v exch def
/k exch def
currentpagedevice k known {
/cpdv currentpagedevice k get def
v cpdv ne {
/upd false def
/nullv v type /nulltype eq def
/nullcpdv cpdv type /nulltype eq def
nullv nullcpdv or
{
/upd true def
} {
/sametype v type cpdv type eq def
sametype {
v type /arraytype eq {
/vlen v length def
/cpdvlen cpdv length def
vlen cpdvlen eq {
0 1 vlen 1 sub {
/i exch def
/obj v i get def
/cpdobj cpdv i get def
obj cpdobj ne {
/upd true def
exit
} if
} for
} {
/upd true def
} ifelse
} {
v type /dicttype eq {
v {
/dv exch def
/dk exch def
/cpddv cpdv dk get def
dv cpddv ne {
/upd true def
exit
} if
} forall
} {
/upd true def
} ifelse
} ifelse
} if
} ifelse
upd true eq {
d k v put
} if
} if
} if
} forall
d length 0 gt {
d setpagedevice
} if
} bd
/RE { % /NewFontName [NewEncodingArray] /FontName RE -
  findfont dup length dict begin
  {
    1 index /FID ne
    {def} {pop pop} ifelse
  } forall
  /Encoding exch def
  /FontName 1 index def
  currentdict definefont pop
  end
} bind def
%%EndResource
%%BeginResource: procset (Apache XML Graphics EPS ProcSet) 1.0 0
%%Version: 1.0 0
%%Copyright: (Copyright 2002-2003 The Apache Software Foundation. License terms: http://www.apache.org/licenses/LICENSE-2.0)
/BeginEPSF { %def
/b4_Inc_state save def         % Save state for cleanup
/dict_count countdictstack def % Count objects on dict stack
/op_count count 1 sub def      % Count objects on operand stack
userdict begin                 % Push userdict on dict stack
/showpage { } def              % Redefine showpage, { } = null proc
0 setgray 0 setlinecap         % Prepare graphics state
1 setlinewidth 0 setlinejoin
10 setmiterlimit [ ] 0 setdash newpath
/languagelevel where           % If level not equal to 1 then
{pop languagelevel             % set strokeadjust and
1 ne                           % overprint to their defaults.
{false setstrokeadjust false setoverprint
} if
} if
} bd
/EndEPSF { %def
count op_count sub {pop} repeat            % Clean up stacks
countdictstack dict_count sub {end} repeat
b4_Inc_state restore
} bd
%%EndResource
%FOPBeginFontDict
%%IncludeResource: font Courier-Bold
%%IncludeResource: font Helvetica
%%IncludeResource: font Courier-BoldOblique
%%IncludeResource: font Courier-Oblique
%%IncludeResource: font Times-Roman
%%IncludeResource: font Helvetica-BoldOblique
%%IncludeResource: font Helvetica-Bold
%%IncludeResource: font Helvetica-Oblique
%%IncludeResource: font Times-BoldItalic
%%IncludeResource: font Courier
%%IncludeResource: font Times-Italic
%%IncludeResource: font Times-Bold
%%IncludeResource: font Symbol
%%IncludeResource: font ZapfDingbats
%FOPEndFontDict
%%BeginResource: encoding WinAnsiEncoding
/WinAnsiEncoding [
/.notdef /.notdef /.notdef /.notdef /.notdef
/.notdef /.notdef /.notdef /.notdef /.notdef
/.notdef /.notdef /.notdef /.notdef /.notdef
/.notdef /.notdef /.notdef /.notdef /.notdef
/.notdef /.notdef /.notdef /.notdef /.notdef
/.notdef /.notdef /.notdef /.notdef /.notdef
/.notdef /.notdef /space /exclam /quotedbl
/numbersign /dollar /percent /ampersand /quotesingle
/parenleft /parenright /asterisk /plus /comma
/hyphen /period /slash /zero /one
/two /three /four /five /six
/seven /eight /nine /colon /semicolon
/less /equal /greater /question /at
/A /B /C /D /E
/F /G /H /I /J
/K /L /M /N /O
/P /Q /R /S /T
/U /V /W /X /Y
/Z /bracketleft /backslash /bracketright /asciicircum
/underscore /quoteleft /a /b /c
/d /e /f /g /h
/i /j /k /l /m
/n /o /p /q /r
/s /t /u /v /w
/x /y /z /braceleft /bar
/braceright /asciitilde /bullet /Euro /bullet
/quotesinglbase /florin /quotedblbase /ellipsis /dagger
/daggerdbl /circumflex /perthousand /Scaron /guilsinglleft
/OE /bullet /Zcaron /bullet /bullet
/quoteleft /quoteright /quotedblleft /quotedblright /bullet
/endash /emdash /asciitilde /trademark /scaron
/guilsinglright /oe /bullet /zcaron /Ydieresis
/space /exclamdown /cent /sterling /currency
/yen /brokenbar /section /dieresis /copyright
/ordfeminine /guillemotleft /logicalnot /sfthyphen /registered
/macron /degree /plusminus /twosuperior /threesuperior
/acute /mu /paragraph /middot /cedilla
/onesuperior /ordmasculine /guillemotright /onequarter /onehalf
/threequarters /questiondown /Agrave /Aacute /Acircumflex
/Atilde /Adieresis /Aring /AE /Ccedilla
/Egrave /Eacute /Ecircumflex /Edieresis /Igrave
/Iacute /Icircumflex /Idieresis /Eth /Ntilde
/Ograve /Oacute /Ocircumflex /Otilde /Odieresis
/multiply /Oslash /Ugrave /Uacute /Ucircumflex
/Udieresis /Yacute /Thorn /germandbls /agrave
/aacute /acircumflex /atilde /adieresis /aring
/ae /ccedilla /egrave /eacute /ecircumflex
/edieresis /igrave /iacute /icircumflex /idieresis
/eth /ntilde /ograve /oacute /ocircumflex
/otilde /odieresis /divide /oslash /ugrave
/uacute /ucircumflex /udieresis /yacute /thorn
/ydieresis
] def
%%EndResource
%FOPBeginFontReencode
/Courier-Bold findfont
dup length dict begin
  {1 index /FID ne {def} {pop pop} ifelse} forall
  /Encoding WinAnsiEncoding def
  currentdict
end
/Courier-Bold exch definefont pop
/Helvetica findfont
dup length dict begin
  {1 index /FID ne {def} {pop pop} ifelse} forall
  /Encoding WinAnsiEncoding def
  currentdict
end
/Helvetica exch definefont pop
/Courier-BoldOblique findfont
dup length dict begin
  {1 index /FID ne {def} {pop pop} ifelse} forall
  /Encoding WinAnsiEncoding def
  currentdict
end
/Courier-BoldOblique exch definefont pop
/Courier-Oblique findfont
dup length dict begin
  {1 index /FID ne {def} {pop pop} ifelse} forall
  /Encoding WinAnsiEncoding def
  currentdict
end
/Courier-Oblique exch definefont pop
/Times-Roman findfont
dup length dict begin
  {1 index /FID ne {def} {pop pop} ifelse} forall
  /Encoding WinAnsiEncoding def
  currentdict
end
/Times-Roman exch definefont pop
/Helvetica-BoldOblique findfont
dup length dict begin
  {1 index /FID ne {def} {pop pop} ifelse} forall
  /Encoding WinAnsiEncoding def
  currentdict
end
/Helvetica-BoldOblique exch definefont pop
/Helvetica-Bold findfont
dup length dict begin
  {1 index /FID ne {def} {pop pop} ifelse} forall
  /Encoding WinAnsiEncoding def
  currentdict
end
/Helvetica-Bold exch definefont pop
/Helvetica-Oblique findfont
dup length dict begin
  {1 index /FID ne {def} {pop pop} ifelse} forall
  /Encoding WinAnsiEncoding def
  currentdict
end
/Helvetica-Oblique exch definefont pop
/Times-BoldItalic findfont
dup length dict begin
  {1 index /FID ne {def} {pop pop} ifelse} forall
  /Encoding WinAnsiEncoding def
  currentdict
end
/Times-BoldItalic exch definefont pop
/Courier findfont
dup length dict begin
  {1 index /FID ne {def} {pop pop} ifelse} forall
  /Encoding WinAnsiEncoding def
  currentdict
end
/Courier exch definefont pop
/Times-Italic findfont
dup length dict begin
  {1 index /FID ne {def} {pop pop} ifelse} forall
  /Encoding WinAnsiEncoding def
  currentdict
end
/Times-Italic exch definefont pop
/Times-Bold findfont
dup length dict begin
  {1 index /FID ne {def} {pop pop} ifelse} forall
  /Encoding WinAnsiEncoding def
  currentdict
end
/Times-Bold exch definefont pop
%FOPEndFontReencode
%%EndProlog
%%Page: 1 1
%%PageBoundingBox: 0 0 560 420
%%BeginPageSetup
[1 0 0 -1 0 420] CT
%%EndPageSetup
GS
1 GC
N
0 0 560 420 re
f
GR
GS
1 GC
N
0 0 560 420 re
f
GR
GS
1 GC
N
73 373 M
507 373 L
507 31 L
73 31 L
cp
f
GR
GS
0.149 GC
2 setlinecap
1 LJ
0.5 LW
N
73 373 M
507 373 L
S
GR
GS
0.149 GC
2 setlinecap
1 LJ
0.5 LW
N
73 31 M
507 31 L
S
GR
GS
0.149 GC
2 setlinecap
1 LJ
0.5 LW
N
73 373 M
73 368.66 L
S
GR
GS
0.149 GC
2 setlinecap
1 LJ
0.5 LW
N
159.8 373 M
159.8 368.66 L
S
GR
GS
0.149 GC
2 setlinecap
1 LJ
0.5 LW
N
246.6 373 M
246.6 368.66 L
S
GR
GS
0.149 GC
2 setlinecap
1 LJ
0.5 LW
N
333.4 373 M
333.4 368.66 L
S
GR
GS
0.149 GC
2 setlinecap
1 LJ
0.5 LW
N
420.2 373 M
420.2 368.66 L
S
GR
GS
0.149 GC
2 setlinecap
1 LJ
0.5 LW
N
507 373 M
507 368.66 L
S
GR
GS
0.149 GC
2 setlinecap
1 LJ
0.5 LW
N
73 31 M
73 35.34 L
S
GR
GS
0.149 GC
2 setlinecap
1 LJ
0.5 LW
N
159.8 31 M
159.8 35.34 L
S
GR
GS
0.149 GC
2 setlinecap
1 LJ
0.5 LW
N
246.6 31 M
246.6 35.34 L
S
GR
GS
0.149 GC
2 setlinecap
1 LJ
0.5 LW
N
333.4 31 M
333.4 35.34 L
S
GR
GS
0.149 GC
2 setlinecap
1 LJ
0.5 LW
N
420.2 31 M
420.2 35.34 L
S
GR
GS
0.149 GC
2 setlinecap
1 LJ
0.5 LW
N
507 31 M
507 35.34 L
S
GR
GS
0.149 GC
2 setlinecap
1 LJ
0.5 LW
N
73 373 M
73 370.83 L
S
GR
GS
0.149 GC
2 setlinecap
1 LJ
0.5 LW
N
99.129 373 M
99.129 370.83 L
S
GR
GS
0.149 GC
2 setlinecap
1 LJ
0.5 LW
N
114.414 373 M
114.414 370.83 L
S
GR
GS
0.149 GC
2 setlinecap
1 LJ
0.5 LW
N
125.259 373 M
125.259 370.83 L
S
GR
GS
0.149 GC
2 setlinecap
1 LJ
0.5 LW
N
133.671 373 M
133.671 370.83 L
S
GR
GS
0.149 GC
2 setlinecap
1 LJ
0.5 LW
N
140.544 373 M
140.544 370.83 L
S
GR
GS
0.149 GC
2 setlinecap
1 LJ
0.5 LW
N
146.355 373 M
146.355 370.83 L
S
GR
GS
0.149 GC
2 setlinecap
1 LJ
0.5 LW
N
151.388 373 M
151.388 370.83 L
S
GR
GS
0.149 GC
2 setlinecap
1 LJ
0.5 LW
N
155.828 373 M
155.828 370.83 L
S
GR
GS
0.149 GC
2 setlinecap
1 LJ
0.5 LW
N
159.8 373 M
159.8 370.83 L
S
GR
GS
0.149 GC
2 setlinecap
1 LJ
0.5 LW
N
185.929 373 M
185.929 370.83 L
S
GR
GS
0.149 GC
2 setlinecap
1 LJ
0.5 LW
N
201.214 373 M
201.214 370.83 L
S
GR
GS
0.149 GC
2 setlinecap
1 LJ
0.5 LW
N
212.059 373 M
212.059 370.83 L
S
GR
GS
0.149 GC
2 setlinecap
1 LJ
0.5 LW
N
220.471 373 M
220.471 370.83 L
S
GR
GS
0.149 GC
2 setlinecap
1 LJ
0.5 LW
N
227.344 373 M
227.344 370.83 L
S
GR
GS
0.149 GC
2 setlinecap
1 LJ
0.5 LW
N
233.155 373 M
233.155 370.83 L
S
GR
GS
0.149 GC
2 setlinecap
1 LJ
0.5 LW
N
238.188 373 M
238.188 370.83 L
S
GR
GS
0.149 GC
2 setlinecap
1 LJ
0.5 LW
N
242.628 373 M
242.628 370.83 L
S
GR
GS
0.149 GC
2 setlinecap
1 LJ
0.5 LW
N
246.6 373 M
246.6 370.83 L
S
GR
GS
0.149 GC
2 setlinecap
1 LJ
0.5 LW
N
272.729 373 M
272.729 370.83 L
S
GR
GS
0.149 GC
2 setlinecap
1 LJ
0.5 LW
N
288.014 373 M
288.014 370.83 L
S
GR
GS
0.149 GC
2 setlinecap
1 LJ
0.5 LW
N
298.859 373 M
298.859 370.83 L
S
GR
GS
0.149 GC
2 setlinecap
1 LJ
0.5 LW
N
307.271 373 M
307.271 370.83 L
S
GR
GS
0.149 GC
2 setlinecap
1 LJ
0.5 LW
N
314.144 373 M
314.144 370.83 L
S
GR
GS
0.149 GC
2 setlinecap
1 LJ
0.5 LW
N
319.954 373 M
319.954 370.83 L
S
GR
GS
0.149 GC
2 setlinecap
1 LJ
0.5 LW
N
324.988 373 M
324.988 370.83 L
S
GR
GS
0.149 GC
2 setlinecap
1 LJ
0.5 LW
N
329.428 373 M
329.428 370.83 L
S
GR
GS
0.149 GC
2 setlinecap
1 LJ
0.5 LW
N
333.4 373 M
333.4 370.83 L
S
GR
GS
0.149 GC
2 setlinecap
1 LJ
0.5 LW
N
359.529 373 M
359.529 370.83 L
S
GR
GS
0.149 GC
2 setlinecap
1 LJ
0.5 LW
N
374.814 373 M
374.814 370.83 L
S
GR
GS
0.149 GC
2 setlinecap
1 LJ
0.5 LW
N
385.659 373 M
385.659 370.83 L
S
GR
GS
0.149 GC
2 setlinecap
1 LJ
0.5 LW
N
394.071 373 M
394.071 370.83 L
S
GR
GS
0.149 GC
2 setlinecap
1 LJ
0.5 LW
N
400.944 373 M
400.944 370.83 L
S
GR
GS
0.149 GC
2 setlinecap
1 LJ
0.5 LW
N
406.755 373 M
406.755 370.83 L
S
GR
GS
0.149 GC
2 setlinecap
1 LJ
0.5 LW
N
411.788 373 M
411.788 370.83 L
S
GR
GS
0.149 GC
2 setlinecap
1 LJ
0.5 LW
N
416.228 373 M
416.228 370.83 L
S
GR
GS
0.149 GC
2 setlinecap
1 LJ
0.5 LW
N
420.2 373 M
420.2 370.83 L
S
GR
GS
0.149 GC
2 setlinecap
1 LJ
0.5 LW
N
446.329 373 M
446.329 370.83 L
S
GR
GS
0.149 GC
2 setlinecap
1 LJ
0.5 LW
N
461.614 373 M
461.614 370.83 L
S
GR
GS
0.149 GC
2 setlinecap
1 LJ
0.5 LW
N
472.459 373 M
472.459 370.83 L
S
GR
GS
0.149 GC
2 setlinecap
1 LJ
0.5 LW
N
480.871 373 M
480.871 370.83 L
S
GR
GS
0.149 GC
2 setlinecap
1 LJ
0.5 LW
N
487.744 373 M
487.744 370.83 L
S
GR
GS
0.149 GC
2 setlinecap
1 LJ
0.5 LW
N
493.555 373 M
493.555 370.83 L
S
GR
GS
0.149 GC
2 setlinecap
1 LJ
0.5 LW
N
498.588 373 M
498.588 370.83 L
S
GR
GS
0.149 GC
2 setlinecap
1 LJ
0.5 LW
N
503.028 373 M
503.028 370.83 L
S
GR
GS
0.149 GC
2 setlinecap
1 LJ
0.5 LW
N
507 373 M
507 370.83 L
S
GR
GS
0.149 GC
2 setlinecap
1 LJ
0.5 LW
N
73 31 M
73 33.17 L
S
GR
GS
0.149 GC
2 setlinecap
1 LJ
0.5 LW
N
99.129 31 M
99.129 33.17 L
S
GR
GS
0.149 GC
2 setlinecap
1 LJ
0.5 LW
N
114.414 31 M
114.414 33.17 L
S
GR
GS
0.149 GC
2 setlinecap
1 LJ
0.5 LW
N
125.259 31 M
125.259 33.17 L
S
GR
GS
0.149 GC
2 setlinecap
1 LJ
0.5 LW
N
133.671 31 M
133.671 33.17 L
S
GR
GS
0.149 GC
2 setlinecap
1 LJ
0.5 LW
N
140.544 31 M
140.544 33.17 L
S
GR
GS
0.149 GC
2 setlinecap
1 LJ
0.5 LW
N
146.355 31 M
146.355 33.17 L
S
GR
GS
0.149 GC
2 setlinecap
1 LJ
0.5 LW
N
151.388 31 M
151.388 33.17 L
S
GR
GS
0.149 GC
2 setlinecap
1 LJ
0.5 LW
N
155.828 31 M
155.828 33.17 L
S
GR
GS
0.149 GC
2 setlinecap
1 LJ
0.5 LW
N
159.8 31 M
159.8 33.17 L
S
GR
GS
0.149 GC
2 setlinecap
1 LJ
0.5 LW
N
185.929 31 M
185.929 33.17 L
S
GR
GS
0.149 GC
2 setlinecap
1 LJ
0.5 LW
N
201.214 31 M
201.214 33.17 L
S
GR
GS
0.149 GC
2 setlinecap
1 LJ
0.5 LW
N
212.059 31 M
212.059 33.17 L
S
GR
GS
0.149 GC
2 setlinecap
1 LJ
0.5 LW
N
220.471 31 M
220.471 33.17 L
S
GR
GS
0.149 GC
2 setlinecap
1 LJ
0.5 LW
N
227.344 31 M
227.344 33.17 L
S
GR
GS
0.149 GC
2 setlinecap
1 LJ
0.5 LW
N
233.155 31 M
233.155 33.17 L
S
GR
GS
0.149 GC
2 setlinecap
1 LJ
0.5 LW
N
238.188 31 M
238.188 33.17 L
S
GR
GS
0.149 GC
2 setlinecap
1 LJ
0.5 LW
N
242.628 31 M
242.628 33.17 L
S
GR
GS
0.149 GC
2 setlinecap
1 LJ
0.5 LW
N
246.6 31 M
246.6 33.17 L
S
GR
GS
0.149 GC
2 setlinecap
1 LJ
0.5 LW
N
272.729 31 M
272.729 33.17 L
S
GR
GS
0.149 GC
2 setlinecap
1 LJ
0.5 LW
N
288.014 31 M
288.014 33.17 L
S
GR
GS
0.149 GC
2 setlinecap
1 LJ
0.5 LW
N
298.859 31 M
298.859 33.17 L
S
GR
GS
0.149 GC
2 setlinecap
1 LJ
0.5 LW
N
307.271 31 M
307.271 33.17 L
S
GR
GS
0.149 GC
2 setlinecap
1 LJ
0.5 LW
N
314.144 31 M
314.144 33.17 L
S
GR
GS
0.149 GC
2 setlinecap
1 LJ
0.5 LW
N
319.954 31 M
319.954 33.17 L
S
GR
GS
0.149 GC
2 setlinecap
1 LJ
0.5 LW
N
324.988 31 M
324.988 33.17 L
S
GR
GS
0.149 GC
2 setlinecap
1 LJ
0.5 LW
N
329.428 31 M
329.428 33.17 L
S
GR
GS
0.149 GC
2 setlinecap
1 LJ
0.5 LW
N
333.4 31 M
333.4 33.17 L
S
GR
GS
0.149 GC
2 setlinecap
1 LJ
0.5 LW
N
359.529 31 M
359.529 33.17 L
S
GR
GS
0.149 GC
2 setlinecap
1 LJ
0.5 LW
N
374.814 31 M
374.814 33.17 L
S
GR
GS
0.149 GC
2 setlinecap
1 LJ
0.5 LW
N
385.659 31 M
385.659 33.17 L
S
GR
GS
0.149 GC
2 setlinecap
1 LJ
0.5 LW
N
394.071 31 M
394.071 33.17 L
S
GR
GS
0.149 GC
2 setlinecap
1 LJ
0.5 LW
N
400.944 31 M
400.944 33.17 L
S
GR
GS
0.149 GC
2 setlinecap
1 LJ
0.5 LW
N
406.755 31 M
406.755 33.17 L
S
GR
GS
0.149 GC
2 setlinecap
1 LJ
0.5 LW
N
411.788 31 M
411.788 33.17 L
S
GR
GS
0.149 GC
2 setlinecap
1 LJ
0.5 LW
N
416.228 31 M
416.228 33.17 L
S
GR
GS
0.149 GC
2 setlinecap
1 LJ
0.5 LW
N
420.2 31 M
420.2 33.17 L
S
GR
GS
0.149 GC
2 setlinecap
1 LJ
0.5 LW
N
446.329 31 M
446.329 33.17 L
S
GR
GS
0.149 GC
2 setlinecap
1 LJ
0.5 LW
N
461.614 31 M
461.614 33.17 L
S
GR
GS
0.149 GC
2 setlinecap
1 LJ
0.5 LW
N
472.459 31 M
472.459 33.17 L
S
GR
GS
0.149 GC
2 setlinecap
1 LJ
0.5 LW
N
480.871 31 M
480.871 33.17 L
S
GR
GS
0.149 GC
2 setlinecap
1 LJ
0.5 LW
N
487.744 31 M
487.744 33.17 L
S
GR
GS
0.149 GC
2 setlinecap
1 LJ
0.5 LW
N
493.555 31 M
493.555 33.17 L
S
GR
GS
0.149 GC
2 setlinecap
1 LJ
0.5 LW
N
498.588 31 M
498.588 33.17 L
S
GR
GS
0.149 GC
2 setlinecap
1 LJ
0.5 LW
N
503.028 31 M
503.028 33.17 L
S
GR
GS
0.149 GC
2 setlinecap
1 LJ
0.5 LW
N
507 31 M
507 33.17 L
S
GR
GS
[1 0 0 1 73 378.20001] CT
0.149 GC
N
-9.716 13.44 M
-9.716 12.877 L
-7.716 12.877 -7.716 12.362 QT
-7.716 3.971 L
-8.544 4.362 -9.809 4.362 QT
-9.809 3.799 L
-7.841 3.799 -6.841 2.784 QT
-6.622 2.784 L
-6.559 2.784 -6.513 2.823 QT
-6.466 2.862 -6.466 2.924 QT
-6.466 12.362 L
-6.466 12.877 -4.466 12.877 QT
-4.466 13.44 L
-9.716 13.44 L
cp
f
GR
GS
[1 0 0 1 73 378.20001] CT
0.149 GC
N
0.8 13.799 M
-1.153 13.799 -1.864 12.182 QT
-2.575 10.565 -2.575 8.331 QT
-2.575 6.94 -2.317 5.713 QT
-2.059 4.487 -1.309 3.635 QT
-0.559 2.784 0.8 2.784 QT
1.862 2.784 2.534 3.299 QT
3.206 3.815 3.558 4.627 QT
3.909 5.44 4.034 6.377 QT
4.159 7.315 4.159 8.331 QT
4.159 9.706 3.909 10.909 QT
3.659 12.112 2.917 12.956 QT
2.175 13.799 0.8 13.799 QT
cp
0.8 13.377 M
1.691 13.377 2.128 12.463 QT
2.566 11.549 2.667 10.44 QT
2.769 9.331 2.769 8.081 QT
2.769 6.877 2.667 5.862 QT
2.566 4.846 2.136 4.018 QT
1.706 3.19 0.8 3.19 QT
-0.106 3.19 -0.544 4.018 QT
-0.981 4.846 -1.083 5.862 QT
-1.184 6.877 -1.184 8.081 QT
-1.184 8.971 -1.138 9.76 QT
-1.091 10.549 -0.903 11.385 QT
-0.716 12.221 -0.302 12.799 QT
0.112 13.377 0.8 13.377 QT
cp
f
GR
GS
[1 0 0 1 73 378.20001] CT
0.149 GC
N
5.347 7.634 M
5.347 7.337 L
5.347 7.306 5.363 7.274 QT
7.081 5.384 L
7.472 4.962 7.706 4.681 QT
7.941 4.399 8.183 4.032 QT
8.425 3.665 8.558 3.274 QT
8.691 2.884 8.691 2.462 QT
8.691 2.009 8.527 1.595 QT
8.363 1.181 8.034 0.938 QT
7.706 0.696 7.238 0.696 QT
6.753 0.696 6.37 0.985 QT
5.988 1.274 5.831 1.727 QT
5.878 1.712 5.956 1.712 QT
6.206 1.712 6.378 1.876 QT
6.55 2.04 6.55 2.306 QT
6.55 2.556 6.378 2.735 QT
6.206 2.915 5.956 2.915 QT
5.691 2.915 5.519 2.735 QT
5.347 2.556 5.347 2.306 QT
5.347 1.899 5.503 1.532 QT
5.659 1.165 5.948 0.884 QT
6.238 0.602 6.613 0.454 QT
6.988 0.306 7.394 0.306 QT
8.019 0.306 8.566 0.571 QT
9.113 0.837 9.425 1.321 QT
9.738 1.806 9.738 2.462 QT
9.738 2.946 9.527 3.376 QT
9.316 3.806 8.995 4.157 QT
8.675 4.509 8.159 4.954 QT
7.644 5.399 7.488 5.54 QT
6.238 6.743 L
7.3 6.743 L
8.081 6.743 8.605 6.727 QT
9.128 6.712 9.159 6.681 QT
9.284 6.556 9.425 5.681 QT
9.738 5.681 L
9.425 7.634 L
5.347 7.634 L
cp
f
GR
GS
[1 0 0 1 159.8 378.20001] CT
0.149 GC
N
/f1694880289{-9.716 13.44 M
-9.716 12.877 L
-7.716 12.877 -7.716 12.362 QT
-7.716 3.971 L
-8.544 4.362 -9.809 4.362 QT
-9.809 3.799 L
-7.841 3.799 -6.841 2.784 QT
-6.622 2.784 L
-6.559 2.784 -6.513 2.823 QT
-6.466 2.862 -6.466 2.924 QT
-6.466 12.362 L
-6.466 12.877 -4.466 12.877 QT
-4.466 13.44 L
-9.716 13.44 L
cp}def
f1694880289
f
GR
GS
[1 0 0 1 159.8 378.20001] CT
0.149 GC
N
/f-570576543{0.8 13.799 M
-1.153 13.799 -1.864 12.182 QT
-2.575 10.565 -2.575 8.331 QT
-2.575 6.94 -2.317 5.713 QT
-2.059 4.487 -1.309 3.635 QT
-0.559 2.784 0.8 2.784 QT
1.862 2.784 2.534 3.299 QT
3.206 3.815 3.558 4.627 QT
3.909 5.44 4.034 6.377 QT
4.159 7.315 4.159 8.331 QT
4.159 9.706 3.909 10.909 QT
3.659 12.112 2.917 12.956 QT
2.175 13.799 0.8 13.799 QT
cp
0.8 13.377 M
1.691 13.377 2.128 12.463 QT
2.566 11.549 2.667 10.44 QT
2.769 9.331 2.769 8.081 QT
2.769 6.877 2.667 5.862 QT
2.566 4.846 2.136 4.018 QT
1.706 3.19 0.8 3.19 QT
-0.106 3.19 -0.544 4.018 QT
-0.981 4.846 -1.083 5.862 QT
-1.184 6.877 -1.184 8.081 QT
-1.184 8.971 -1.138 9.76 QT
-1.091 10.549 -0.903 11.385 QT
-0.716 12.221 -0.302 12.799 QT
0.112 13.377 0.8 13.377 QT
cp}def
f-570576543
f
GR
GS
[1 0 0 1 159.8 378.20001] CT
0.149 GC
N
/f2098139249{5.847 6.79 M
6.113 7.165 6.542 7.345 QT
6.972 7.524 7.472 7.524 QT
8.113 7.524 8.378 6.977 QT
8.644 6.431 8.644 5.743 QT
8.644 5.431 8.589 5.118 QT
8.534 4.806 8.402 4.54 QT
8.269 4.274 8.034 4.11 QT
7.8 3.946 7.472 3.946 QT
6.738 3.946 L
6.644 3.946 6.644 3.852 QT
6.644 3.743 L
6.644 3.665 6.738 3.665 QT
7.347 3.618 L
7.722 3.618 7.98 3.329 QT
8.238 3.04 8.355 2.618 QT
8.472 2.196 8.472 1.821 QT
8.472 1.306 8.23 0.962 QT
7.988 0.618 7.472 0.618 QT
7.05 0.618 6.675 0.782 QT
6.3 0.946 6.066 1.259 QT
6.097 1.259 6.113 1.259 QT
6.128 1.259 6.144 1.259 QT
6.394 1.259 6.558 1.431 QT
6.722 1.602 6.722 1.837 QT
6.722 2.071 6.558 2.243 QT
6.394 2.415 6.144 2.415 QT
5.894 2.415 5.722 2.243 QT
5.55 2.071 5.55 1.837 QT
5.55 1.368 5.839 1.016 QT
6.128 0.665 6.573 0.485 QT
7.019 0.306 7.472 0.306 QT
7.816 0.306 8.183 0.407 QT
8.55 0.509 8.847 0.696 QT
9.144 0.884 9.339 1.173 QT
9.534 1.462 9.534 1.821 QT
9.534 2.29 9.323 2.681 QT
9.113 3.071 8.753 3.36 QT
8.394 3.649 7.972 3.79 QT
8.441 3.868 8.87 4.141 QT
9.3 4.415 9.566 4.829 QT
9.831 5.243 9.831 5.727 QT
9.831 6.337 9.495 6.829 QT
9.159 7.321 8.62 7.595 QT
8.081 7.868 7.472 7.868 QT
6.956 7.868 6.441 7.673 QT
5.925 7.477 5.597 7.087 QT
5.269 6.696 5.269 6.149 QT
5.269 5.884 5.448 5.696 QT
5.628 5.509 5.894 5.509 QT
6.081 5.509 6.23 5.595 QT
6.378 5.681 6.456 5.829 QT
6.534 5.977 6.534 6.149 QT
6.534 6.415 6.347 6.602 QT
6.159 6.79 5.894 6.79 QT
5.847 6.79 L
cp}def
f2098139249
f
GR
GS
[1 0 0 1 246.60001 378.20001] CT
0.149 GC
N
f1694880289
f
GR
GS
[1 0 0 1 246.60001 378.20001] CT
0.149 GC
N
f-570576543
f
GR
GS
[1 0 0 1 246.60001 378.20001] CT
0.149 GC
N
/f1797150449{5.113 5.821 M
5.113 5.431 L
8.503 0.368 L
8.55 0.306 8.613 0.306 QT
8.784 0.306 L
8.909 0.306 8.909 0.431 QT
8.909 5.431 L
9.988 5.431 L
9.988 5.821 L
8.909 5.821 L
8.909 6.899 L
8.909 7.118 9.23 7.181 QT
9.55 7.243 9.972 7.243 QT
9.972 7.634 L
6.941 7.634 L
6.941 7.243 L
7.363 7.243 7.691 7.181 QT
8.019 7.118 8.019 6.899 QT
8.019 5.821 L
5.113 5.821 L
cp
5.472 5.431 M
8.081 5.431 L
8.081 1.54 L
5.472 5.431 L
cp}def
f1797150449
f
GR
GS
[1 0 0 1 333.40002 378.20001] CT
0.149 GC
N
f1694880289
f
GR
GS
[1 0 0 1 333.40002 378.20001] CT
0.149 GC
N
f-570576543
f
GR
GS
[1 0 0 1 333.40002 378.20001] CT
0.149 GC
N
/f-1936515010{5.753 6.384 M
5.863 6.712 6.097 6.97 QT
6.331 7.227 6.652 7.376 QT
6.972 7.524 7.316 7.524 QT
8.113 7.524 8.417 6.907 QT
8.722 6.29 8.722 5.415 QT
8.722 5.024 8.706 4.766 QT
8.691 4.509 8.628 4.259 QT
8.534 3.884 8.277 3.595 QT
8.019 3.306 7.644 3.306 QT
7.269 3.306 7.003 3.415 QT
6.738 3.524 6.573 3.673 QT
6.409 3.821 6.284 3.993 QT
6.159 4.165 6.128 4.165 QT
6.003 4.165 L
5.972 4.165 5.933 4.134 QT
5.894 4.102 5.894 4.071 QT
5.894 0.399 L
5.894 0.368 5.925 0.337 QT
5.956 0.306 6.003 0.306 QT
6.034 0.306 L
6.769 0.665 7.597 0.665 QT
8.425 0.665 9.175 0.306 QT
9.206 0.306 L
9.253 0.306 9.284 0.337 QT
9.316 0.368 9.316 0.399 QT
9.316 0.493 L
9.316 0.556 9.284 0.556 QT
8.909 1.056 8.347 1.329 QT
7.784 1.602 7.175 1.602 QT
6.738 1.602 6.269 1.477 QT
6.269 3.556 L
6.644 3.274 6.925 3.141 QT
7.206 3.009 7.659 3.009 QT
8.269 3.009 8.745 3.36 QT
9.222 3.712 9.48 4.274 QT
9.738 4.837 9.738 5.415 QT
9.738 6.087 9.417 6.649 QT
9.097 7.212 8.534 7.54 QT
7.972 7.868 7.316 7.868 QT
6.784 7.868 6.323 7.595 QT
5.863 7.321 5.605 6.845 QT
5.347 6.368 5.347 5.837 QT
5.347 5.587 5.511 5.431 QT
5.675 5.274 5.909 5.274 QT
6.159 5.274 6.323 5.438 QT
6.488 5.602 6.488 5.837 QT
6.488 6.071 6.323 6.235 QT
6.159 6.399 5.909 6.399 QT
5.878 6.399 5.831 6.391 QT
5.784 6.384 5.753 6.384 QT
cp}def
f-1936515010
f
GR
GS
[1 0 0 1 420.20001 378.20001] CT
0.149 GC
N
f1694880289
f
GR
GS
[1 0 0 1 420.20001 378.20001] CT
0.149 GC
N
f-570576543
f
GR
GS
[1 0 0 1 420.20001 378.20001] CT
0.149 GC
N
/f-1909405552{7.55 7.868 M
6.863 7.868 6.409 7.509 QT
5.956 7.149 5.706 6.571 QT
5.456 5.993 5.363 5.36 QT
5.269 4.727 5.269 4.071 QT
5.269 3.212 5.605 2.337 QT
5.941 1.462 6.597 0.884 QT
7.253 0.306 8.159 0.306 QT
8.534 0.306 8.863 0.446 QT
9.191 0.587 9.37 0.868 QT
9.55 1.149 9.55 1.54 QT
9.55 1.759 9.402 1.915 QT
9.253 2.071 9.019 2.071 QT
8.8 2.071 8.652 1.915 QT
8.503 1.759 8.503 1.54 QT
8.503 1.321 8.652 1.165 QT
8.8 1.009 9.019 1.009 QT
9.081 1.009 L
8.941 0.806 8.683 0.712 QT
8.425 0.618 8.159 0.618 QT
7.831 0.618 7.542 0.766 QT
7.253 0.915 7.034 1.165 QT
6.816 1.415 6.659 1.712 QT
6.503 2.009 6.425 2.391 QT
6.347 2.774 6.323 3.102 QT
6.3 3.431 6.3 3.931 QT
6.488 3.493 6.847 3.204 QT
7.206 2.915 7.644 2.915 QT
8.128 2.915 8.534 3.11 QT
8.941 3.306 9.23 3.657 QT
9.519 4.009 9.675 4.462 QT
9.831 4.915 9.831 5.384 QT
9.831 6.024 9.542 6.602 QT
9.253 7.181 8.73 7.524 QT
8.206 7.868 7.55 7.868 QT
cp
7.55 7.524 M
7.972 7.524 8.23 7.329 QT
8.488 7.134 8.613 6.813 QT
8.738 6.493 8.761 6.173 QT
8.784 5.852 8.784 5.384 QT
8.784 4.759 8.73 4.313 QT
8.675 3.868 8.409 3.532 QT
8.144 3.196 7.597 3.196 QT
7.159 3.196 6.87 3.501 QT
6.581 3.806 6.448 4.266 QT
6.316 4.727 6.316 5.149 QT
6.316 5.29 6.331 5.368 QT
6.331 5.384 6.331 5.391 QT
6.331 5.399 6.316 5.415 QT
6.316 5.899 6.417 6.376 QT
6.519 6.852 6.792 7.188 QT
7.066 7.524 7.55 7.524 QT
cp}def
f-1909405552
f
GR
GS
[1 0 0 1 507 378.20001] CT
0.149 GC
N
f1694880289
f
GR
GS
[1 0 0 1 507 378.20001] CT
0.149 GC
N
f-570576543
f
GR
GS
[1 0 0 1 507 378.20001] CT
0.149 GC
N
/f-1509520305{6.706 7.352 M
6.706 6.743 6.816 6.157 QT
6.925 5.571 7.136 4.993 QT
7.347 4.415 7.636 3.868 QT
7.925 3.321 8.269 2.837 QT
9.284 1.446 L
8.019 1.446 L
6.066 1.446 6.003 1.493 QT
5.863 1.665 5.738 2.509 QT
5.425 2.509 L
5.784 0.196 L
6.097 0.196 L
6.097 0.227 L
6.097 0.431 6.769 0.493 QT
7.441 0.556 8.081 0.556 QT
10.128 0.556 L
10.128 0.837 L
10.128 0.837 10.128 0.845 QT
10.128 0.852 10.128 0.868 QT
8.613 2.993 L
8.05 3.821 7.909 4.829 QT
7.769 5.837 7.769 7.352 QT
7.769 7.571 7.613 7.72 QT
7.456 7.868 7.238 7.868 QT
7.019 7.868 6.863 7.72 QT
6.706 7.571 6.706 7.352 QT
cp}def
f-1509520305
f
GR
GS
[1 0 0 1 290.00021 398.39999] CT
0.149 GC
N
/f1909871922{-7.186 14.784 M
-7.358 14.784 -7.358 14.55 QT
-7.358 14.503 -7.327 14.393 QT
-7.296 14.284 -7.249 14.214 QT
-7.202 14.143 -7.139 14.143 QT
-5.405 14.143 -5.124 13.05 QT
-2.686 3.206 L
-3.186 3.128 -4.264 3.128 QT
-4.436 3.128 -4.436 2.878 QT
-4.436 2.846 -4.413 2.729 QT
-4.389 2.612 -4.335 2.55 QT
-4.28 2.487 -4.217 2.487 QT
-1.108 2.487 L
-0.967 2.487 -0.936 2.596 QT
3.064 12.128 L
5.064 4.143 L
5.095 3.956 5.095 3.878 QT
5.095 3.128 3.704 3.128 QT
3.533 3.128 3.533 2.878 QT
3.595 2.659 3.626 2.573 QT
3.658 2.487 3.829 2.487 QT
7.689 2.487 L
7.861 2.487 7.861 2.721 QT
7.845 2.768 7.822 2.878 QT
7.798 2.987 7.751 3.057 QT
7.704 3.128 7.626 3.128 QT
5.908 3.128 5.626 4.221 QT
3.048 14.628 L
2.986 14.784 2.861 14.784 QT
2.642 14.784 L
2.517 14.784 2.486 14.659 QT
-2.108 3.768 L
-2.139 3.659 L
-2.171 3.628 -2.171 3.596 QT
-4.561 13.128 L
-4.577 13.175 -4.585 13.237 QT
-4.592 13.3 -4.608 13.393 QT
-4.608 13.862 -4.202 14.003 QT
-3.796 14.143 -3.202 14.143 QT
-3.03 14.143 -3.03 14.393 QT
-3.092 14.628 -3.132 14.706 QT
-3.171 14.784 -3.327 14.784 QT
-7.186 14.784 L
cp}def
f1909871922
f
GR
GS
0.149 GC
2 setlinecap
1 LJ
0.5 LW
N
73 373 M
73 31 L
S
GR
GS
0.149 GC
2 setlinecap
1 LJ
0.5 LW
N
507 373 M
507 31 L
S
GR
GS
0.149 GC
2 setlinecap
1 LJ
0.5 LW
N
73 373 M
77.34 373 L
S
GR
GS
0.149 GC
2 setlinecap
1 LJ
0.5 LW
N
73 287.5 M
77.34 287.5 L
S
GR
GS
0.149 GC
2 setlinecap
1 LJ
0.5 LW
N
73 202 M
77.34 202 L
S
GR
GS
0.149 GC
2 setlinecap
1 LJ
0.5 LW
N
73 116.5 M
77.34 116.5 L
S
GR
GS
0.149 GC
2 setlinecap
1 LJ
0.5 LW
N
73 31 M
77.34 31 L
S
GR
GS
0.149 GC
2 setlinecap
1 LJ
0.5 LW
N
507 373 M
502.66 373 L
S
GR
GS
0.149 GC
2 setlinecap
1 LJ
0.5 LW
N
507 287.5 M
502.66 287.5 L
S
GR
GS
0.149 GC
2 setlinecap
1 LJ
0.5 LW
N
507 202 M
502.66 202 L
S
GR
GS
0.149 GC
2 setlinecap
1 LJ
0.5 LW
N
507 116.5 M
502.66 116.5 L
S
GR
GS
0.149 GC
2 setlinecap
1 LJ
0.5 LW
N
507 31 M
502.66 31 L
S
GR
GS
0.149 GC
2 setlinecap
1 LJ
0.5 LW
N
73 373 M
75.17 373 L
S
GR
GS
0.149 GC
2 setlinecap
1 LJ
0.5 LW
N
73 347.262 M
75.17 347.262 L
S
GR
GS
0.149 GC
2 setlinecap
1 LJ
0.5 LW
N
73 332.206 M
75.17 332.206 L
S
GR
GS
0.149 GC
2 setlinecap
1 LJ
0.5 LW
N
73 321.524 M
75.17 321.524 L
S
GR
GS
0.149 GC
2 setlinecap
1 LJ
0.5 LW
N
73 313.238 M
75.17 313.238 L
S
GR
GS
0.149 GC
2 setlinecap
1 LJ
0.5 LW
N
73 306.468 M
75.17 306.468 L
S
GR
GS
0.149 GC
2 setlinecap
1 LJ
0.5 LW
N
73 300.744 M
75.17 300.744 L
S
GR
GS
0.149 GC
2 setlinecap
1 LJ
0.5 LW
N
73 295.786 M
75.17 295.786 L
S
GR
GS
0.149 GC
2 setlinecap
1 LJ
0.5 LW
N
73 291.412 M
75.17 291.412 L
S
GR
GS
0.149 GC
2 setlinecap
1 LJ
0.5 LW
N
73 287.5 M
75.17 287.5 L
S
GR
GS
0.149 GC
2 setlinecap
1 LJ
0.5 LW
N
73 261.762 M
75.17 261.762 L
S
GR
GS
0.149 GC
2 setlinecap
1 LJ
0.5 LW
N
73 246.706 M
75.17 246.706 L
S
GR
GS
0.149 GC
2 setlinecap
1 LJ
0.5 LW
N
73 236.024 M
75.17 236.024 L
S
GR
GS
0.149 GC
2 setlinecap
1 LJ
0.5 LW
N
73 227.738 M
75.17 227.738 L
S
GR
GS
0.149 GC
2 setlinecap
1 LJ
0.5 LW
N
73 220.968 M
75.17 220.968 L
S
GR
GS
0.149 GC
2 setlinecap
1 LJ
0.5 LW
N
73 215.244 M
75.17 215.244 L
S
GR
GS
0.149 GC
2 setlinecap
1 LJ
0.5 LW
N
73 210.286 M
75.17 210.286 L
S
GR
GS
0.149 GC
2 setlinecap
1 LJ
0.5 LW
N
73 205.912 M
75.17 205.912 L
S
GR
GS
0.149 GC
2 setlinecap
1 LJ
0.5 LW
N
73 202 M
75.17 202 L
S
GR
GS
0.149 GC
2 setlinecap
1 LJ
0.5 LW
N
73 176.262 M
75.17 176.262 L
S
GR
GS
0.149 GC
2 setlinecap
1 LJ
0.5 LW
N
73 161.206 M
75.17 161.206 L
S
GR
GS
0.149 GC
2 setlinecap
1 LJ
0.5 LW
N
73 150.524 M
75.17 150.524 L
S
GR
GS
0.149 GC
2 setlinecap
1 LJ
0.5 LW
N
73 142.238 M
75.17 142.238 L
S
GR
GS
0.149 GC
2 setlinecap
1 LJ
0.5 LW
N
73 135.468 M
75.17 135.468 L
S
GR
GS
0.149 GC
2 setlinecap
1 LJ
0.5 LW
N
73 129.744 M
75.17 129.744 L
S
GR
GS
0.149 GC
2 setlinecap
1 LJ
0.5 LW
N
73 124.786 M
75.17 124.786 L
S
GR
GS
0.149 GC
2 setlinecap
1 LJ
0.5 LW
N
73 120.412 M
75.17 120.412 L
S
GR
GS
0.149 GC
2 setlinecap
1 LJ
0.5 LW
N
73 116.5 M
75.17 116.5 L
S
GR
GS
0.149 GC
2 setlinecap
1 LJ
0.5 LW
N
73 90.762 M
75.17 90.762 L
S
GR
GS
0.149 GC
2 setlinecap
1 LJ
0.5 LW
N
73 75.706 M
75.17 75.706 L
S
GR
GS
0.149 GC
2 setlinecap
1 LJ
0.5 LW
N
73 65.024 M
75.17 65.024 L
S
GR
GS
0.149 GC
2 setlinecap
1 LJ
0.5 LW
N
73 56.738 M
75.17 56.738 L
S
GR
GS
0.149 GC
2 setlinecap
1 LJ
0.5 LW
N
73 49.968 M
75.17 49.968 L
S
GR
GS
0.149 GC
2 setlinecap
1 LJ
0.5 LW
N
73 44.244 M
75.17 44.244 L
S
GR
GS
0.149 GC
2 setlinecap
1 LJ
0.5 LW
N
73 39.286 M
75.17 39.286 L
S
GR
GS
0.149 GC
2 setlinecap
1 LJ
0.5 LW
N
73 34.912 M
75.17 34.912 L
S
GR
GS
0.149 GC
2 setlinecap
1 LJ
0.5 LW
N
73 31 M
75.17 31 L
S
GR
GS
0.149 GC
2 setlinecap
1 LJ
0.5 LW
N
507 373 M
504.83 373 L
S
GR
GS
0.149 GC
2 setlinecap
1 LJ
0.5 LW
N
507 347.262 M
504.83 347.262 L
S
GR
GS
0.149 GC
2 setlinecap
1 LJ
0.5 LW
N
507 332.206 M
504.83 332.206 L
S
GR
GS
0.149 GC
2 setlinecap
1 LJ
0.5 LW
N
507 321.524 M
504.83 321.524 L
S
GR
GS
0.149 GC
2 setlinecap
1 LJ
0.5 LW
N
507 313.238 M
504.83 313.238 L
S
GR
GS
0.149 GC
2 setlinecap
1 LJ
0.5 LW
N
507 306.468 M
504.83 306.468 L
S
GR
GS
0.149 GC
2 setlinecap
1 LJ
0.5 LW
N
507 300.744 M
504.83 300.744 L
S
GR
GS
0.149 GC
2 setlinecap
1 LJ
0.5 LW
N
507 295.786 M
504.83 295.786 L
S
GR
GS
0.149 GC
2 setlinecap
1 LJ
0.5 LW
N
507 291.412 M
504.83 291.412 L
S
GR
GS
0.149 GC
2 setlinecap
1 LJ
0.5 LW
N
507 287.5 M
504.83 287.5 L
S
GR
GS
0.149 GC
2 setlinecap
1 LJ
0.5 LW
N
507 261.762 M
504.83 261.762 L
S
GR
GS
0.149 GC
2 setlinecap
1 LJ
0.5 LW
N
507 246.706 M
504.83 246.706 L
S
GR
GS
0.149 GC
2 setlinecap
1 LJ
0.5 LW
N
507 236.024 M
504.83 236.024 L
S
GR
GS
0.149 GC
2 setlinecap
1 LJ
0.5 LW
N
507 227.738 M
504.83 227.738 L
S
GR
GS
0.149 GC
2 setlinecap
1 LJ
0.5 LW
N
507 220.968 M
504.83 220.968 L
S
GR
GS
0.149 GC
2 setlinecap
1 LJ
0.5 LW
N
507 215.244 M
504.83 215.244 L
S
GR
GS
0.149 GC
2 setlinecap
1 LJ
0.5 LW
N
507 210.286 M
504.83 210.286 L
S
GR
GS
0.149 GC
2 setlinecap
1 LJ
0.5 LW
N
507 205.912 M
504.83 205.912 L
S
GR
GS
0.149 GC
2 setlinecap
1 LJ
0.5 LW
N
507 202 M
504.83 202 L
S
GR
GS
0.149 GC
2 setlinecap
1 LJ
0.5 LW
N
507 176.262 M
504.83 176.262 L
S
GR
GS
0.149 GC
2 setlinecap
1 LJ
0.5 LW
N
507 161.206 M
504.83 161.206 L
S
GR
GS
0.149 GC
2 setlinecap
1 LJ
0.5 LW
N
507 150.524 M
504.83 150.524 L
S
GR
GS
0.149 GC
2 setlinecap
1 LJ
0.5 LW
N
507 142.238 M
504.83 142.238 L
S
GR
GS
0.149 GC
2 setlinecap
1 LJ
0.5 LW
N
507 135.468 M
504.83 135.468 L
S
GR
GS
0.149 GC
2 setlinecap
1 LJ
0.5 LW
N
507 129.744 M
504.83 129.744 L
S
GR
GS
0.149 GC
2 setlinecap
1 LJ
0.5 LW
N
507 124.786 M
504.83 124.786 L
S
GR
GS
0.149 GC
2 setlinecap
1 LJ
0.5 LW
N
507 120.412 M
504.83 120.412 L
S
GR
GS
0.149 GC
2 setlinecap
1 LJ
0.5 LW
N
507 116.5 M
504.83 116.5 L
S
GR
GS
0.149 GC
2 setlinecap
1 LJ
0.5 LW
N
507 90.762 M
504.83 90.762 L
S
GR
GS
0.149 GC
2 setlinecap
1 LJ
0.5 LW
N
507 75.706 M
504.83 75.706 L
S
GR
GS
0.149 GC
2 setlinecap
1 LJ
0.5 LW
N
507 65.024 M
504.83 65.024 L
S
GR
GS
0.149 GC
2 setlinecap
1 LJ
0.5 LW
N
507 56.738 M
504.83 56.738 L
S
GR
GS
0.149 GC
2 setlinecap
1 LJ
0.5 LW
N
507 49.968 M
504.83 49.968 L
S
GR
GS
0.149 GC
2 setlinecap
1 LJ
0.5 LW
N
507 44.244 M
504.83 44.244 L
S
GR
GS
0.149 GC
2 setlinecap
1 LJ
0.5 LW
N
507 39.286 M
504.83 39.286 L
S
GR
GS
0.149 GC
2 setlinecap
1 LJ
0.5 LW
N
507 34.912 M
504.83 34.912 L
S
GR
GS
0.149 GC
2 setlinecap
1 LJ
0.5 LW
N
507 31 M
504.83 31 L
S
GR
GS
[1 0 0 1 67.8 373] CT
0.149 GC
N
/f1713382765{-29.627 3.84 M
-29.627 3.277 L
-27.627 3.277 -27.627 2.762 QT
-27.627 -5.629 L
-28.455 -5.238 -29.721 -5.238 QT
-29.721 -5.801 L
-27.752 -5.801 -26.752 -6.816 QT
-26.533 -6.816 L
-26.471 -6.816 -26.424 -6.777 QT
-26.377 -6.738 -26.377 -6.676 QT
-26.377 2.762 L
-26.377 3.277 -24.377 3.277 QT
-24.377 3.84 L
-29.627 3.84 L
cp}def
f1713382765
f
GR
GS
[1 0 0 1 67.8 373] CT
0.149 GC
N
/f2137069734{-19.111 4.199 M
-21.064 4.199 -21.775 2.582 QT
-22.486 0.965 -22.486 -1.269 QT
-22.486 -2.66 -22.228 -3.887 QT
-21.971 -5.113 -21.221 -5.965 QT
-20.471 -6.816 -19.111 -6.816 QT
-18.049 -6.816 -17.377 -6.301 QT
-16.705 -5.785 -16.353 -4.973 QT
-16.002 -4.16 -15.877 -3.223 QT
-15.752 -2.285 -15.752 -1.269 QT
-15.752 0.106 -16.002 1.309 QT
-16.252 2.512 -16.994 3.356 QT
-17.736 4.199 -19.111 4.199 QT
cp
-19.111 3.777 M
-18.221 3.777 -17.783 2.863 QT
-17.346 1.949 -17.244 0.84 QT
-17.142 -0.269 -17.142 -1.519 QT
-17.142 -2.723 -17.244 -3.738 QT
-17.346 -4.754 -17.775 -5.582 QT
-18.205 -6.41 -19.111 -6.41 QT
-20.017 -6.41 -20.455 -5.582 QT
-20.892 -4.754 -20.994 -3.738 QT
-21.096 -2.723 -21.096 -1.519 QT
-21.096 -0.629 -21.049 0.16 QT
-21.002 0.949 -20.814 1.785 QT
-20.627 2.621 -20.213 3.199 QT
-19.799 3.777 -19.111 3.777 QT
cp}def
f2137069734
f
GR
GS
[1 0 0 1 67.8 373] CT
0.149 GC
N
/f50768549{-13.986 -4.498 M
-14.08 -4.498 -14.142 -4.568 QT
-14.205 -4.638 -14.205 -4.716 QT
-14.205 -4.794 -14.142 -4.865 QT
-14.08 -4.935 -13.986 -4.935 QT
-7.674 -4.935 L
-7.596 -4.935 -7.541 -4.865 QT
-7.486 -4.794 -7.486 -4.716 QT
-7.486 -4.638 -7.541 -4.568 QT
-7.596 -4.498 -7.674 -4.498 QT
-13.986 -4.498 L
cp}def
f50768549
f
GR
GS
[1 0 0 1 67.8 373] CT
0.149 GC
N
/f52227315{-6.088 -3.779 M
-6.088 -4.169 L
-2.697 -9.232 L
-2.65 -9.294 -2.588 -9.294 QT
-2.416 -9.294 L
-2.291 -9.294 -2.291 -9.169 QT
-2.291 -4.169 L
-1.213 -4.169 L
-1.213 -3.779 L
-2.291 -3.779 L
-2.291 -2.701 L
-2.291 -2.482 -1.97 -2.419 QT
-1.65 -2.357 -1.228 -2.357 QT
-1.228 -1.966 L
-4.259 -1.966 L
-4.259 -2.357 L
-3.838 -2.357 -3.509 -2.419 QT
-3.181 -2.482 -3.181 -2.701 QT
-3.181 -3.779 L
-6.088 -3.779 L
cp
-5.728 -4.169 M
-3.119 -4.169 L
-3.119 -8.06 L
-5.728 -4.169 L
cp}def
f52227315
f
GR
GS
[1 0 0 1 67.8 287.5] CT
0.149 GC
N
f1713382765
f
GR
GS
[1 0 0 1 67.8 287.5] CT
0.149 GC
N
f2137069734
f
GR
GS
[1 0 0 1 67.8 287.5] CT
0.149 GC
N
f50768549
f
GR
GS
[1 0 0 1 67.8 287.5] CT
0.149 GC
N
/f-1126852791{-5.353 -2.81 M
-5.088 -2.435 -4.658 -2.255 QT
-4.228 -2.076 -3.728 -2.076 QT
-3.088 -2.076 -2.822 -2.623 QT
-2.556 -3.169 -2.556 -3.857 QT
-2.556 -4.169 -2.611 -4.482 QT
-2.666 -4.794 -2.798 -5.06 QT
-2.931 -5.326 -3.166 -5.49 QT
-3.4 -5.654 -3.728 -5.654 QT
-4.463 -5.654 L
-4.556 -5.654 -4.556 -5.748 QT
-4.556 -5.857 L
-4.556 -5.935 -4.463 -5.935 QT
-3.853 -5.982 L
-3.478 -5.982 -3.22 -6.271 QT
-2.963 -6.56 -2.845 -6.982 QT
-2.728 -7.404 -2.728 -7.779 QT
-2.728 -8.294 -2.97 -8.638 QT
-3.213 -8.982 -3.728 -8.982 QT
-4.15 -8.982 -4.525 -8.818 QT
-4.9 -8.654 -5.134 -8.341 QT
-5.103 -8.341 -5.088 -8.341 QT
-5.072 -8.341 -5.056 -8.341 QT
-4.806 -8.341 -4.642 -8.169 QT
-4.478 -7.998 -4.478 -7.763 QT
-4.478 -7.529 -4.642 -7.357 QT
-4.806 -7.185 -5.056 -7.185 QT
-5.306 -7.185 -5.478 -7.357 QT
-5.65 -7.529 -5.65 -7.763 QT
-5.65 -8.232 -5.361 -8.584 QT
-5.072 -8.935 -4.627 -9.115 QT
-4.181 -9.294 -3.728 -9.294 QT
-3.384 -9.294 -3.017 -9.193 QT
-2.65 -9.091 -2.353 -8.904 QT
-2.056 -8.716 -1.861 -8.427 QT
-1.666 -8.138 -1.666 -7.779 QT
-1.666 -7.31 -1.877 -6.919 QT
-2.088 -6.529 -2.447 -6.24 QT
-2.806 -5.951 -3.228 -5.81 QT
-2.759 -5.732 -2.33 -5.459 QT
-1.9 -5.185 -1.634 -4.771 QT
-1.369 -4.357 -1.369 -3.873 QT
-1.369 -3.263 -1.705 -2.771 QT
-2.041 -2.279 -2.58 -2.005 QT
-3.119 -1.732 -3.728 -1.732 QT
-4.244 -1.732 -4.759 -1.927 QT
-5.275 -2.123 -5.603 -2.513 QT
-5.931 -2.904 -5.931 -3.451 QT
-5.931 -3.716 -5.752 -3.904 QT
-5.572 -4.091 -5.306 -4.091 QT
-5.119 -4.091 -4.97 -4.005 QT
-4.822 -3.919 -4.744 -3.771 QT
-4.666 -3.623 -4.666 -3.451 QT
-4.666 -3.185 -4.853 -2.998 QT
-5.041 -2.81 -5.306 -2.81 QT
-5.353 -2.81 L
cp}def
f-1126852791
f
GR
GS
[1 0 0 1 67.8 202] CT
0.149 GC
N
f1713382765
f
GR
GS
[1 0 0 1 67.8 202] CT
0.149 GC
N
f2137069734
f
GR
GS
[1 0 0 1 67.8 202] CT
0.149 GC
N
f50768549
f
GR
GS
[1 0 0 1 67.8 202] CT
0.149 GC
N
/f1125910427{-5.853 -1.966 M
-5.853 -2.263 L
-5.853 -2.294 -5.838 -2.326 QT
-4.119 -4.216 L
-3.728 -4.638 -3.494 -4.919 QT
-3.259 -5.201 -3.017 -5.568 QT
-2.775 -5.935 -2.642 -6.326 QT
-2.509 -6.716 -2.509 -7.138 QT
-2.509 -7.591 -2.673 -8.005 QT
-2.838 -8.419 -3.166 -8.662 QT
-3.494 -8.904 -3.963 -8.904 QT
-4.447 -8.904 -4.83 -8.615 QT
-5.213 -8.326 -5.369 -7.873 QT
-5.322 -7.888 -5.244 -7.888 QT
-4.994 -7.888 -4.822 -7.724 QT
-4.65 -7.56 -4.65 -7.294 QT
-4.65 -7.044 -4.822 -6.865 QT
-4.994 -6.685 -5.244 -6.685 QT
-5.509 -6.685 -5.681 -6.865 QT
-5.853 -7.044 -5.853 -7.294 QT
-5.853 -7.701 -5.697 -8.068 QT
-5.541 -8.435 -5.252 -8.716 QT
-4.963 -8.998 -4.588 -9.146 QT
-4.213 -9.294 -3.806 -9.294 QT
-3.181 -9.294 -2.634 -9.029 QT
-2.088 -8.763 -1.775 -8.279 QT
-1.463 -7.794 -1.463 -7.138 QT
-1.463 -6.654 -1.673 -6.224 QT
-1.884 -5.794 -2.205 -5.443 QT
-2.525 -5.091 -3.041 -4.646 QT
-3.556 -4.201 -3.713 -4.06 QT
-4.963 -2.857 L
-3.9 -2.857 L
-3.119 -2.857 -2.595 -2.873 QT
-2.072 -2.888 -2.041 -2.919 QT
-1.916 -3.044 -1.775 -3.919 QT
-1.463 -3.919 L
-1.775 -1.966 L
-5.853 -1.966 L
cp}def
f1125910427
f
GR
GS
[1 0 0 1 67.8 116.5] CT
0.149 GC
N
f1713382765
f
GR
GS
[1 0 0 1 67.8 116.5] CT
0.149 GC
N
f2137069734
f
GR
GS
[1 0 0 1 67.8 116.5] CT
0.149 GC
N
f50768549
f
GR
GS
[1 0 0 1 67.8 116.5] CT
0.149 GC
N
/f-372180884{-5.384 -1.966 M
-5.384 -2.357 L
-4.009 -2.357 -4.009 -2.701 QT
-4.009 -8.482 L
-4.572 -8.201 -5.447 -8.201 QT
-5.447 -8.591 L
-4.103 -8.591 -3.416 -9.294 QT
-3.259 -9.294 L
-3.213 -9.294 -3.181 -9.263 QT
-3.15 -9.232 -3.15 -9.201 QT
-3.15 -2.701 L
-3.15 -2.357 -1.775 -2.357 QT
-1.775 -1.966 L
-5.384 -1.966 L
cp}def
f-372180884
f
GR
GS
[1 0 0 1 67.8 31] CT
0.149 GC
N
/f1561202666{-20.916 3.84 M
-20.916 3.277 L
-18.916 3.277 -18.916 2.762 QT
-18.916 -5.629 L
-19.744 -5.238 -21.009 -5.238 QT
-21.009 -5.801 L
-19.041 -5.801 -18.041 -6.816 QT
-17.822 -6.816 L
-17.759 -6.816 -17.713 -6.777 QT
-17.666 -6.738 -17.666 -6.676 QT
-17.666 2.762 L
-17.666 3.277 -15.666 3.277 QT
-15.666 3.84 L
-20.916 3.84 L
cp}def
f1561202666
f
GR
GS
[1 0 0 1 67.8 31] CT
0.149 GC
N
/f262599741{-10.4 4.199 M
-12.353 4.199 -13.064 2.582 QT
-13.775 0.965 -13.775 -1.269 QT
-13.775 -2.66 -13.517 -3.887 QT
-13.259 -5.113 -12.509 -5.965 QT
-11.759 -6.816 -10.4 -6.816 QT
-9.338 -6.816 -8.666 -6.301 QT
-7.994 -5.785 -7.642 -4.973 QT
-7.291 -4.16 -7.166 -3.223 QT
-7.041 -2.285 -7.041 -1.269 QT
-7.041 0.106 -7.291 1.309 QT
-7.541 2.512 -8.283 3.356 QT
-9.025 4.199 -10.4 4.199 QT
cp
-10.4 3.777 M
-9.509 3.777 -9.072 2.863 QT
-8.634 1.949 -8.533 0.84 QT
-8.431 -0.269 -8.431 -1.519 QT
-8.431 -2.723 -8.533 -3.738 QT
-8.634 -4.754 -9.064 -5.582 QT
-9.494 -6.41 -10.4 -6.41 QT
-11.306 -6.41 -11.744 -5.582 QT
-12.181 -4.754 -12.283 -3.738 QT
-12.384 -2.723 -12.384 -1.519 QT
-12.384 -0.629 -12.338 0.16 QT
-12.291 0.949 -12.103 1.785 QT
-11.916 2.621 -11.502 3.199 QT
-11.088 3.777 -10.4 3.777 QT
cp}def
f262599741
f
GR
GS
[1 0 0 1 67.8 31] CT
0.149 GC
N
/f1367386014{-3.65 -1.732 M
-4.994 -1.732 -5.478 -2.841 QT
-5.963 -3.951 -5.963 -5.466 QT
-5.963 -6.435 -5.791 -7.279 QT
-5.619 -8.123 -5.103 -8.709 QT
-4.588 -9.294 -3.65 -9.294 QT
-2.931 -9.294 -2.463 -8.943 QT
-1.994 -8.591 -1.759 -8.029 QT
-1.525 -7.466 -1.431 -6.826 QT
-1.338 -6.185 -1.338 -5.466 QT
-1.338 -4.529 -1.517 -3.701 QT
-1.697 -2.873 -2.205 -2.302 QT
-2.713 -1.732 -3.65 -1.732 QT
cp
-3.65 -2.013 M
-3.041 -2.013 -2.736 -2.638 QT
-2.431 -3.263 -2.361 -4.029 QT
-2.291 -4.794 -2.291 -5.654 QT
-2.291 -6.482 -2.361 -7.177 QT
-2.431 -7.873 -2.728 -8.443 QT
-3.025 -9.013 -3.65 -9.013 QT
-4.275 -9.013 -4.572 -8.443 QT
-4.869 -7.873 -4.939 -7.177 QT
-5.009 -6.482 -5.009 -5.654 QT
-5.009 -5.044 -4.986 -4.498 QT
-4.963 -3.951 -4.83 -3.373 QT
-4.697 -2.794 -4.408 -2.404 QT
-4.119 -2.013 -3.65 -2.013 QT
cp}def
f1367386014
f
GR
GS
[0 -1 1 0 33.68882 201.99983] CT
0.149 GC
N
/f1723620107{-40.424 -6.336 M
-40.424 -6.977 L
-38.565 -6.977 -38.565 -7.539 QT
-38.565 -17.43 L
-38.565 -17.992 -40.424 -17.992 QT
-40.424 -18.633 L
-34.768 -18.633 L
-33.752 -18.633 -32.643 -18.266 QT
-31.533 -17.899 -30.783 -17.156 QT
-30.033 -16.414 -30.033 -15.367 QT
-30.033 -14.617 -30.487 -14.024 QT
-30.94 -13.43 -31.651 -13.031 QT
-32.362 -12.633 -33.096 -12.461 QT
-32.283 -12.18 -31.682 -11.563 QT
-31.08 -10.945 -30.955 -10.149 QT
-30.705 -8.555 L
-30.518 -7.477 -30.33 -6.945 QT
-30.143 -6.414 -29.471 -6.414 QT
-28.908 -6.414 -28.635 -6.93 QT
-28.362 -7.445 -28.362 -8.07 QT
-28.362 -8.133 -28.307 -8.18 QT
-28.252 -8.227 -28.19 -8.227 QT
-28.018 -8.227 L
-27.846 -8.227 -27.846 -7.992 QT
-27.846 -7.492 -28.041 -7.024 QT
-28.237 -6.555 -28.596 -6.25 QT
-28.955 -5.945 -29.455 -5.945 QT
-30.768 -5.945 -31.698 -6.586 QT
-32.627 -7.227 -32.627 -8.477 QT
-32.627 -10.086 L
-32.627 -10.977 -33.252 -11.617 QT
-33.877 -12.258 -34.783 -12.258 QT
-36.955 -12.258 L
-36.955 -7.539 L
-36.955 -6.977 -35.096 -6.977 QT
-35.096 -6.336 L
-40.424 -6.336 L
cp
-36.955 -12.727 M
-35.018 -12.727 L
-33.533 -12.727 -32.752 -13.328 QT
-31.971 -13.93 -31.971 -15.367 QT
-31.971 -16.805 -32.744 -17.399 QT
-33.518 -17.992 -35.018 -17.992 QT
-36.033 -17.992 L
-36.362 -17.992 -36.541 -17.969 QT
-36.721 -17.945 -36.838 -17.82 QT
-36.955 -17.695 -36.955 -17.43 QT
-36.955 -12.727 L
cp}def
f1723620107
f
GR
GS
[0 -1 1 0 33.68882 201.99983] CT
0.149 GC
N
/f-769250188{-27.422 -6.336 M
-27.422 -6.977 L
-25.578 -6.977 -25.578 -8.039 QT
-25.578 -17.43 L
-25.578 -17.992 -27.422 -17.992 QT
-27.422 -18.633 L
-24.031 -18.633 L
-23.812 -18.633 -23.734 -18.43 QT
-19.812 -8.242 L
-15.89 -18.43 L
-15.828 -18.633 -15.609 -18.633 QT
-12.203 -18.633 L
-12.203 -17.992 L
-14.062 -17.992 -14.062 -17.43 QT
-14.062 -7.539 L
-14.062 -6.977 -12.203 -6.977 QT
-12.203 -6.336 L
-17.437 -6.336 L
-17.437 -6.977 L
-15.594 -6.977 -15.594 -7.539 QT
-15.594 -18.024 L
-20.015 -6.539 L
-20.094 -6.336 -20.312 -6.336 QT
-20.547 -6.336 -20.625 -6.539 QT
-25 -17.883 L
-25 -8.039 L
-25 -6.977 -23.156 -6.977 QT
-23.156 -6.336 L
-27.422 -6.336 L
cp}def
f-769250188
f
GR
GS
[0 -1 1 0 33.68882 201.99983] CT
0.149 GC
N
/f911375947{-10.913 -6.086 M
-10.913 -10.289 L
-10.913 -10.43 -10.757 -10.43 QT
-10.538 -10.43 L
-10.491 -10.43 -10.445 -10.383 QT
-10.398 -10.336 -10.398 -10.289 QT
-10.398 -8.524 -9.304 -7.547 QT
-8.21 -6.57 -6.429 -6.57 QT
-5.804 -6.57 -5.28 -6.93 QT
-4.757 -7.289 -4.46 -7.875 QT
-4.163 -8.461 -4.163 -9.086 QT
-4.163 -9.633 -4.382 -10.149 QT
-4.601 -10.664 -5.015 -11.039 QT
-5.429 -11.414 -5.945 -11.539 QT
-8.288 -12.117 L
-9.445 -12.414 -10.179 -13.367 QT
-10.913 -14.32 -10.913 -15.508 QT
-10.913 -16.445 -10.445 -17.266 QT
-9.976 -18.086 -9.171 -18.555 QT
-8.366 -19.024 -7.429 -19.024 QT
-5.632 -19.024 -4.57 -17.805 QT
-3.82 -18.977 L
-3.773 -19.024 -3.695 -19.024 QT
-3.585 -19.024 L
-3.523 -19.024 -3.476 -18.985 QT
-3.429 -18.945 -3.429 -18.883 QT
-3.429 -14.711 L
-3.429 -14.539 -3.585 -14.539 QT
-3.788 -14.539 L
-3.96 -14.539 -3.96 -14.711 QT
-3.96 -15.164 -4.109 -15.711 QT
-4.257 -16.258 -4.53 -16.758 QT
-4.804 -17.258 -5.132 -17.57 QT
-5.991 -18.445 -7.429 -18.445 QT
-8.038 -18.445 -8.562 -18.133 QT
-9.085 -17.82 -9.39 -17.289 QT
-9.695 -16.758 -9.695 -16.164 QT
-9.695 -15.383 -9.218 -14.758 QT
-8.741 -14.133 -7.96 -13.93 QT
-5.632 -13.352 L
-5.054 -13.211 -4.538 -12.852 QT
-4.023 -12.492 -3.679 -12.008 QT
-3.335 -11.524 -3.14 -10.93 QT
-2.945 -10.336 -2.945 -9.695 QT
-2.945 -8.727 -3.39 -7.86 QT
-3.835 -6.992 -4.655 -6.469 QT
-5.476 -5.945 -6.429 -5.945 QT
-7.038 -5.945 -7.663 -6.078 QT
-8.288 -6.211 -8.812 -6.477 QT
-9.335 -6.742 -9.773 -7.18 QT
-10.523 -5.992 L
-10.57 -5.945 -10.648 -5.945 QT
-10.757 -5.945 L
-10.913 -5.945 -10.913 -6.086 QT
cp}def
f911375947
f
GR
GS
[0 -1 1 0 33.68882 201.99983] CT
0.149 GC
N
/f1667098675{8.2 -6.133 M
7.106 -6.133 6.184 -6.711 QT
5.262 -7.289 4.739 -8.25 QT
4.216 -9.211 4.216 -10.289 QT
4.216 -11.336 4.692 -12.289 QT
5.169 -13.242 6.028 -13.82 QT
6.887 -14.399 7.95 -14.399 QT
8.762 -14.399 9.38 -14.125 QT
9.997 -13.852 10.387 -13.36 QT
10.778 -12.867 10.981 -12.195 QT
11.184 -11.524 11.184 -10.727 QT
11.184 -10.492 10.997 -10.492 QT
5.794 -10.492 L
5.794 -10.305 L
5.794 -8.805 6.395 -7.735 QT
6.997 -6.664 8.356 -6.664 QT
8.903 -6.664 9.38 -6.906 QT
9.856 -7.149 10.2 -7.594 QT
10.544 -8.039 10.669 -8.539 QT
10.684 -8.602 10.731 -8.649 QT
10.778 -8.695 10.841 -8.695 QT
10.997 -8.695 L
11.184 -8.695 11.184 -8.461 QT
10.934 -7.445 10.091 -6.789 QT
9.247 -6.133 8.2 -6.133 QT
cp
5.809 -10.945 M
9.919 -10.945 L
9.919 -11.617 9.723 -12.313 QT
9.528 -13.008 9.091 -13.469 QT
8.653 -13.93 7.95 -13.93 QT
6.919 -13.93 6.364 -12.977 QT
5.809 -12.024 5.809 -10.945 QT
cp}def
f1667098675
f
GR
GS
[0 -1 1 0 33.68882 201.99983] CT
0.149 GC
N
/f817241787{12.007 -6.336 M
12.007 -6.977 L
12.616 -6.977 13.014 -7.07 QT
13.413 -7.164 13.413 -7.539 QT
13.413 -12.461 L
13.413 -12.93 13.264 -13.149 QT
13.116 -13.367 12.842 -13.414 QT
12.569 -13.461 12.007 -13.461 QT
12.007 -14.102 L
14.585 -14.289 L
14.585 -12.539 L
14.866 -13.32 15.405 -13.805 QT
15.944 -14.289 16.71 -14.289 QT
17.241 -14.289 17.663 -13.977 QT
18.085 -13.664 18.085 -13.133 QT
18.085 -12.82 17.85 -12.578 QT
17.616 -12.336 17.272 -12.336 QT
16.944 -12.336 16.71 -12.57 QT
16.475 -12.805 16.475 -13.133 QT
16.475 -13.617 16.819 -13.82 QT
16.71 -13.82 L
15.975 -13.82 15.514 -13.297 QT
15.053 -12.774 14.858 -11.992 QT
14.663 -11.211 14.663 -10.492 QT
14.663 -7.539 L
14.663 -6.977 16.413 -6.977 QT
16.413 -6.336 L
12.007 -6.336 L
cp}def
f817241787
f
GR
GS
[0 -1 1 0 33.68882 201.99983] CT
0.149 GC
N
/f-977308813{18.9 -6.336 M
18.9 -6.977 L
19.509 -6.977 19.908 -7.07 QT
20.306 -7.164 20.306 -7.539 QT
20.306 -12.461 L
20.306 -12.93 20.158 -13.149 QT
20.009 -13.367 19.736 -13.414 QT
19.462 -13.461 18.9 -13.461 QT
18.9 -14.102 L
21.478 -14.289 L
21.478 -12.539 L
21.759 -13.32 22.298 -13.805 QT
22.837 -14.289 23.603 -14.289 QT
24.134 -14.289 24.556 -13.977 QT
24.978 -13.664 24.978 -13.133 QT
24.978 -12.82 24.744 -12.578 QT
24.509 -12.336 24.165 -12.336 QT
23.837 -12.336 23.603 -12.57 QT
23.369 -12.805 23.369 -13.133 QT
23.369 -13.617 23.712 -13.82 QT
23.603 -13.82 L
22.869 -13.82 22.408 -13.297 QT
21.947 -12.774 21.751 -11.992 QT
21.556 -11.211 21.556 -10.492 QT
21.556 -7.539 L
21.556 -6.977 23.306 -6.977 QT
23.306 -6.336 L
18.9 -6.336 L
cp}def
f-977308813
f
GR
GS
[0 -1 1 0 33.68882 201.99983] CT
0.149 GC
N
/f-789889889{29.824 -6.133 M
28.746 -6.133 27.824 -6.68 QT
26.903 -7.227 26.364 -8.156 QT
25.824 -9.086 25.824 -10.164 QT
25.824 -10.992 26.121 -11.758 QT
26.418 -12.524 26.965 -13.125 QT
27.512 -13.727 28.239 -14.063 QT
28.965 -14.399 29.824 -14.399 QT
30.934 -14.399 31.84 -13.82 QT
32.746 -13.242 33.278 -12.258 QT
33.809 -11.274 33.809 -10.164 QT
33.809 -9.086 33.27 -8.156 QT
32.731 -7.227 31.817 -6.68 QT
30.903 -6.133 29.824 -6.133 QT
cp
29.824 -6.664 M
31.262 -6.664 31.746 -7.711 QT
32.231 -8.758 32.231 -10.367 QT
32.231 -11.274 32.137 -11.867 QT
32.043 -12.461 31.715 -12.945 QT
31.512 -13.242 31.199 -13.469 QT
30.887 -13.695 30.543 -13.813 QT
30.199 -13.93 29.824 -13.93 QT
29.262 -13.93 28.754 -13.672 QT
28.246 -13.414 27.918 -12.945 QT
27.59 -12.43 27.496 -11.82 QT
27.403 -11.211 27.403 -10.367 QT
27.403 -9.367 27.574 -8.563 QT
27.746 -7.758 28.278 -7.211 QT
28.809 -6.664 29.824 -6.664 QT
cp}def
f-789889889
f
GR
GS
[0 -1 1 0 33.68882 201.99983] CT
0.149 GC
N
/f755640501{34.593 -6.336 M
34.593 -6.977 L
35.203 -6.977 35.601 -7.07 QT
35.999 -7.164 35.999 -7.539 QT
35.999 -12.461 L
35.999 -12.93 35.851 -13.149 QT
35.703 -13.367 35.429 -13.414 QT
35.156 -13.461 34.593 -13.461 QT
34.593 -14.102 L
37.171 -14.289 L
37.171 -12.539 L
37.453 -13.32 37.992 -13.805 QT
38.531 -14.289 39.296 -14.289 QT
39.828 -14.289 40.249 -13.977 QT
40.671 -13.664 40.671 -13.133 QT
40.671 -12.82 40.437 -12.578 QT
40.203 -12.336 39.859 -12.336 QT
39.531 -12.336 39.296 -12.57 QT
39.062 -12.805 39.062 -13.133 QT
39.062 -13.617 39.406 -13.82 QT
39.296 -13.82 L
38.562 -13.82 38.101 -13.297 QT
37.64 -12.774 37.445 -11.992 QT
37.249 -11.211 37.249 -10.492 QT
37.249 -7.539 L
37.249 -6.977 38.999 -6.977 QT
38.999 -6.336 L
34.593 -6.336 L
cp}def
f755640501
f
GR
GS
0 0.447 0.741 RC
1 LJ
N
73 71.98 M
77.272 71.5 L
81.712 81.18 L
86.219 81.392 L
90.481 89.387 L
94.948 83.364 L
99.317 98.434 L
103.737 103.227 L
108.14 93.357 L
112.481 96.193 L
116.847 83.799 L
121.182 103.838 L
125.634 96.457 L
129.949 113.74 L
134.343 106.883 L
138.742 133.129 L
143.153 121.602 L
147.521 125.935 L
151.903 115.586 L
156.286 141.074 L
160.694 103.691 L
165.069 115.549 L
169.458 110.878 L
173.833 126.256 L
178.218 115.874 L
182.601 131.645 L
186.989 119.386 L
191.362 128.659 L
195.747 130.65 L
200.131 158.38 L
204.52 149.84 L
208.895 132.205 L
213.283 140.754 L
217.67 141.895 L
222.05 148.1 L
226.434 165.651 L
230.816 144.412 L
235.203 148.955 L
239.585 148.118 L
243.97 157.174 L
248.353 162.204 L
252.737 162.495 L
257.12 159.714 L
261.506 178.612 L
265.889 172.932 L
270.272 178.959 L
274.656 196.398 L
279.041 174.845 L
283.424 177.821 L
287.807 173.533 L
292.192 191.413 L
296.575 188.625 L
300.959 192.134 L
305.343 192.924 L
309.727 191.424 L
314.111 199.337 L
318.495 198.775 L
322.879 208.749 L
327.262 214.792 L
331.647 206.31 L
336.03 211.238 L
340.414 219.094 L
344.798 216.845 L
349.182 208.377 L
353.566 222.273 L
357.949 214.994 L
362.333 219.918 L
366.717 222.55 L
371.101 232.743 L
375.485 238.228 L
379.869 239.815 L
384.253 231.981 L
388.636 241.346 L
393.02 238.544 L
397.404 257.737 L
401.788 242.407 L
406.172 247.907 L
410.556 263.879 L
414.939 248.47 L
419.323 257.774 L
423.707 245.145 L
428.091 255.719 L
432.475 291.072 L
436.859 257.955 L
441.242 252.375 L
445.626 251.499 L
450.01 259.382 L
454.394 251.033 L
458.778 258.966 L
463.162 261.965 L
467.545 270.987 L
471.929 276.172 L
476.313 293.424 L
480.697 262.655 L
485.081 280.188 L
489.465 298.913 L
493.848 298.067 L
498.232 279.347 L
502.616 281.215 L
507 306.185 L
S
GR
%%Trailer
%%Pages: 1
%%EOF
