%!PS-Adobe-3.0 EPSF-3.0
%%Creator: (MATLAB, The Mathworks, Inc. Version 9.7.0.1190202 \(R2019b\). Operating System: Windows 10)
%%Title: ./q2fI0.eps
%%CreationDate: 2019-10-22T22:35:09
%%Pages: (atend)
%%BoundingBox:     6     2   395   299
%%LanguageLevel: 3
%%EndComments
%%BeginProlog
%%BeginResource: procset (Apache XML Graphics Std ProcSet) 1.2 0
%%Version: 1.2 0
%%Copyright: (Copyright 2001-2003,2010 The Apache Software Foundation. License terms: http://www.apache.org/licenses/LICENSE-2.0)
/bd{bind def}bind def
/ld{load def}bd
/GR/grestore ld
/GS/gsave ld
/RM/rmoveto ld
/C/curveto ld
/t/show ld
/L/lineto ld
/ML/setmiterlimit ld
/CT/concat ld
/f/fill ld
/N/newpath ld
/S/stroke ld
/CC/setcmykcolor ld
/A/ashow ld
/cp/closepath ld
/RC/setrgbcolor ld
/LJ/setlinejoin ld
/GC/setgray ld
/LW/setlinewidth ld
/M/moveto ld
/re {4 2 roll M
1 index 0 rlineto
0 exch rlineto
neg 0 rlineto
cp } bd
/_ctm matrix def
/_tm matrix def
/BT { _ctm currentmatrix pop matrix _tm copy pop 0 0 moveto } bd
/ET { _ctm setmatrix } bd
/iTm { _ctm setmatrix _tm concat } bd
/Tm { _tm astore pop iTm 0 0 moveto } bd
/ux 0.0 def
/uy 0.0 def
/F {
  /Tp exch def
  /Tf exch def
  Tf findfont Tp scalefont setfont
  /cf Tf def  /cs Tp def
} bd
/ULS {currentpoint /uy exch def /ux exch def} bd
/ULE {
  /Tcx currentpoint pop def
  gsave
  newpath
  cf findfont cs scalefont dup
  /FontMatrix get 0 get /Ts exch def /FontInfo get dup
  /UnderlinePosition get Ts mul /To exch def
  /UnderlineThickness get Ts mul /Tt exch def
  ux uy To add moveto  Tcx uy To add lineto
  Tt setlinewidth stroke
  grestore
} bd
/OLE {
  /Tcx currentpoint pop def
  gsave
  newpath
  cf findfont cs scalefont dup
  /FontMatrix get 0 get /Ts exch def /FontInfo get dup
  /UnderlinePosition get Ts mul /To exch def
  /UnderlineThickness get Ts mul /Tt exch def
  ux uy To add cs add moveto Tcx uy To add cs add lineto
  Tt setlinewidth stroke
  grestore
} bd
/SOE {
  /Tcx currentpoint pop def
  gsave
  newpath
  cf findfont cs scalefont dup
  /FontMatrix get 0 get /Ts exch def /FontInfo get dup
  /UnderlinePosition get Ts mul /To exch def
  /UnderlineThickness get Ts mul /Tt exch def
  ux uy To add cs 10 mul 26 idiv add moveto Tcx uy To add cs 10 mul 26 idiv add lineto
  Tt setlinewidth stroke
  grestore
} bd
/QT {
/Y22 exch store
/X22 exch store
/Y21 exch store
/X21 exch store
currentpoint
/Y21 load 2 mul add 3 div exch
/X21 load 2 mul add 3 div exch
/X21 load 2 mul /X22 load add 3 div
/Y21 load 2 mul /Y22 load add 3 div
/X22 load /Y22 load curveto
} bd
/SSPD {
dup length /d exch dict def
{
/v exch def
/k exch def
currentpagedevice k known {
/cpdv currentpagedevice k get def
v cpdv ne {
/upd false def
/nullv v type /nulltype eq def
/nullcpdv cpdv type /nulltype eq def
nullv nullcpdv or
{
/upd true def
} {
/sametype v type cpdv type eq def
sametype {
v type /arraytype eq {
/vlen v length def
/cpdvlen cpdv length def
vlen cpdvlen eq {
0 1 vlen 1 sub {
/i exch def
/obj v i get def
/cpdobj cpdv i get def
obj cpdobj ne {
/upd true def
exit
} if
} for
} {
/upd true def
} ifelse
} {
v type /dicttype eq {
v {
/dv exch def
/dk exch def
/cpddv cpdv dk get def
dv cpddv ne {
/upd true def
exit
} if
} forall
} {
/upd true def
} ifelse
} ifelse
} if
} ifelse
upd true eq {
d k v put
} if
} if
} if
} forall
d length 0 gt {
d setpagedevice
} if
} bd
/RE { % /NewFontName [NewEncodingArray] /FontName RE -
  findfont dup length dict begin
  {
    1 index /FID ne
    {def} {pop pop} ifelse
  } forall
  /Encoding exch def
  /FontName 1 index def
  currentdict definefont pop
  end
} bind def
%%EndResource
%%BeginResource: procset (Apache XML Graphics EPS ProcSet) 1.0 0
%%Version: 1.0 0
%%Copyright: (Copyright 2002-2003 The Apache Software Foundation. License terms: http://www.apache.org/licenses/LICENSE-2.0)
/BeginEPSF { %def
/b4_Inc_state save def         % Save state for cleanup
/dict_count countdictstack def % Count objects on dict stack
/op_count count 1 sub def      % Count objects on operand stack
userdict begin                 % Push userdict on dict stack
/showpage { } def              % Redefine showpage, { } = null proc
0 setgray 0 setlinecap         % Prepare graphics state
1 setlinewidth 0 setlinejoin
10 setmiterlimit [ ] 0 setdash newpath
/languagelevel where           % If level not equal to 1 then
{pop languagelevel             % set strokeadjust and
1 ne                           % overprint to their defaults.
{false setstrokeadjust false setoverprint
} if
} if
} bd
/EndEPSF { %def
count op_count sub {pop} repeat            % Clean up stacks
countdictstack dict_count sub {end} repeat
b4_Inc_state restore
} bd
%%EndResource
%FOPBeginFontDict
%%IncludeResource: font Courier-Oblique
%%IncludeResource: font Courier-BoldOblique
%%IncludeResource: font Courier-Bold
%%IncludeResource: font ZapfDingbats
%%IncludeResource: font Symbol
%%IncludeResource: font Helvetica
%%IncludeResource: font Helvetica-Oblique
%%IncludeResource: font Helvetica-Bold
%%IncludeResource: font Helvetica-BoldOblique
%%IncludeResource: font Times-Roman
%%IncludeResource: font Times-Italic
%%IncludeResource: font Times-Bold
%%IncludeResource: font Times-BoldItalic
%%IncludeResource: font Courier
%FOPEndFontDict
%%BeginResource: encoding WinAnsiEncoding
/WinAnsiEncoding [
/.notdef /.notdef /.notdef /.notdef /.notdef
/.notdef /.notdef /.notdef /.notdef /.notdef
/.notdef /.notdef /.notdef /.notdef /.notdef
/.notdef /.notdef /.notdef /.notdef /.notdef
/.notdef /.notdef /.notdef /.notdef /.notdef
/.notdef /.notdef /.notdef /.notdef /.notdef
/.notdef /.notdef /space /exclam /quotedbl
/numbersign /dollar /percent /ampersand /quotesingle
/parenleft /parenright /asterisk /plus /comma
/hyphen /period /slash /zero /one
/two /three /four /five /six
/seven /eight /nine /colon /semicolon
/less /equal /greater /question /at
/A /B /C /D /E
/F /G /H /I /J
/K /L /M /N /O
/P /Q /R /S /T
/U /V /W /X /Y
/Z /bracketleft /backslash /bracketright /asciicircum
/underscore /quoteleft /a /b /c
/d /e /f /g /h
/i /j /k /l /m
/n /o /p /q /r
/s /t /u /v /w
/x /y /z /braceleft /bar
/braceright /asciitilde /bullet /Euro /bullet
/quotesinglbase /florin /quotedblbase /ellipsis /dagger
/daggerdbl /circumflex /perthousand /Scaron /guilsinglleft
/OE /bullet /Zcaron /bullet /bullet
/quoteleft /quoteright /quotedblleft /quotedblright /bullet
/endash /emdash /asciitilde /trademark /scaron
/guilsinglright /oe /bullet /zcaron /Ydieresis
/space /exclamdown /cent /sterling /currency
/yen /brokenbar /section /dieresis /copyright
/ordfeminine /guillemotleft /logicalnot /sfthyphen /registered
/macron /degree /plusminus /twosuperior /threesuperior
/acute /mu /paragraph /middot /cedilla
/onesuperior /ordmasculine /guillemotright /onequarter /onehalf
/threequarters /questiondown /Agrave /Aacute /Acircumflex
/Atilde /Adieresis /Aring /AE /Ccedilla
/Egrave /Eacute /Ecircumflex /Edieresis /Igrave
/Iacute /Icircumflex /Idieresis /Eth /Ntilde
/Ograve /Oacute /Ocircumflex /Otilde /Odieresis
/multiply /Oslash /Ugrave /Uacute /Ucircumflex
/Udieresis /Yacute /Thorn /germandbls /agrave
/aacute /acircumflex /atilde /adieresis /aring
/ae /ccedilla /egrave /eacute /ecircumflex
/edieresis /igrave /iacute /icircumflex /idieresis
/eth /ntilde /ograve /oacute /ocircumflex
/otilde /odieresis /divide /oslash /ugrave
/uacute /ucircumflex /udieresis /yacute /thorn
/ydieresis
] def
%%EndResource
%FOPBeginFontReencode
/Courier-Oblique findfont
dup length dict begin
  {1 index /FID ne {def} {pop pop} ifelse} forall
  /Encoding WinAnsiEncoding def
  currentdict
end
/Courier-Oblique exch definefont pop
/Courier-BoldOblique findfont
dup length dict begin
  {1 index /FID ne {def} {pop pop} ifelse} forall
  /Encoding WinAnsiEncoding def
  currentdict
end
/Courier-BoldOblique exch definefont pop
/Courier-Bold findfont
dup length dict begin
  {1 index /FID ne {def} {pop pop} ifelse} forall
  /Encoding WinAnsiEncoding def
  currentdict
end
/Courier-Bold exch definefont pop
/Helvetica findfont
dup length dict begin
  {1 index /FID ne {def} {pop pop} ifelse} forall
  /Encoding WinAnsiEncoding def
  currentdict
end
/Helvetica exch definefont pop
/Helvetica-Oblique findfont
dup length dict begin
  {1 index /FID ne {def} {pop pop} ifelse} forall
  /Encoding WinAnsiEncoding def
  currentdict
end
/Helvetica-Oblique exch definefont pop
/Helvetica-Bold findfont
dup length dict begin
  {1 index /FID ne {def} {pop pop} ifelse} forall
  /Encoding WinAnsiEncoding def
  currentdict
end
/Helvetica-Bold exch definefont pop
/Helvetica-BoldOblique findfont
dup length dict begin
  {1 index /FID ne {def} {pop pop} ifelse} forall
  /Encoding WinAnsiEncoding def
  currentdict
end
/Helvetica-BoldOblique exch definefont pop
/Times-Roman findfont
dup length dict begin
  {1 index /FID ne {def} {pop pop} ifelse} forall
  /Encoding WinAnsiEncoding def
  currentdict
end
/Times-Roman exch definefont pop
/Times-Italic findfont
dup length dict begin
  {1 index /FID ne {def} {pop pop} ifelse} forall
  /Encoding WinAnsiEncoding def
  currentdict
end
/Times-Italic exch definefont pop
/Times-Bold findfont
dup length dict begin
  {1 index /FID ne {def} {pop pop} ifelse} forall
  /Encoding WinAnsiEncoding def
  currentdict
end
/Times-Bold exch definefont pop
/Times-BoldItalic findfont
dup length dict begin
  {1 index /FID ne {def} {pop pop} ifelse} forall
  /Encoding WinAnsiEncoding def
  currentdict
end
/Times-BoldItalic exch definefont pop
/Courier findfont
dup length dict begin
  {1 index /FID ne {def} {pop pop} ifelse} forall
  /Encoding WinAnsiEncoding def
  currentdict
end
/Courier exch definefont pop
%FOPEndFontReencode
%%EndProlog
%%Page: 1 1
%%PageBoundingBox: 0 0 420 315
%%BeginPageSetup
[1 0 0 -1 0 315] CT
%%EndPageSetup
GS
[0.75 0 0 0.75 0 0] CT
1 GC
N
0 0 560 420 re
f
GR
GS
[0.75 0 0 0.75 0 0] CT
1 GC
N
0 0 560 420 re
f
GR
GS
[0.75 0 0 0.75 0 0] CT
1 GC
N
73 358 M
507 358 L
507 31 L
73 31 L
cp
f
GR
GS
[0.75 0 0 0.75 0 0] CT
0.775 GC
[1 3] 0 setdash
2 LJ
0.667 LW
N
116.549 358 M
116.549 31 L
S
GR
GS
[0.75 0 0 0.75 0 0] CT
0.775 GC
[1 3] 0 setdash
2 LJ
0.667 LW
N
142.024 358 M
142.024 31 L
S
GR
GS
[0.75 0 0 0.75 0 0] CT
0.775 GC
[1 3] 0 setdash
2 LJ
0.667 LW
N
160.098 358 M
160.098 31 L
S
GR
GS
[0.75 0 0 0.75 0 0] CT
0.775 GC
[1 3] 0 setdash
2 LJ
0.667 LW
N
174.118 358 M
174.118 31 L
S
GR
GS
[0.75 0 0 0.75 0 0] CT
0.775 GC
[1 3] 0 setdash
2 LJ
0.667 LW
N
185.573 358 M
185.573 31 L
S
GR
GS
[0.75 0 0 0.75 0 0] CT
0.775 GC
[1 3] 0 setdash
2 LJ
0.667 LW
N
195.258 358 M
195.258 31 L
S
GR
GS
[0.75 0 0 0.75 0 0] CT
0.775 GC
[1 3] 0 setdash
2 LJ
0.667 LW
N
203.647 358 M
203.647 31 L
S
GR
GS
[0.75 0 0 0.75 0 0] CT
0.775 GC
[1 3] 0 setdash
2 LJ
0.667 LW
N
211.047 358 M
211.047 31 L
S
GR
GS
[0.75 0 0 0.75 0 0] CT
0.775 GC
[1 3] 0 setdash
2 LJ
0.667 LW
N
261.216 358 M
261.216 31 L
S
GR
GS
[0.75 0 0 0.75 0 0] CT
0.775 GC
[1 3] 0 setdash
2 LJ
0.667 LW
N
286.69 358 M
286.69 31 L
S
GR
GS
[0.75 0 0 0.75 0 0] CT
0.775 GC
[1 3] 0 setdash
2 LJ
0.667 LW
N
304.765 358 M
304.765 31 L
S
GR
GS
[0.75 0 0 0.75 0 0] CT
0.775 GC
[1 3] 0 setdash
2 LJ
0.667 LW
N
318.784 358 M
318.784 31 L
S
GR
GS
[0.75 0 0 0.75 0 0] CT
0.775 GC
[1 3] 0 setdash
2 LJ
0.667 LW
N
330.239 358 M
330.239 31 L
S
GR
GS
[0.75 0 0 0.75 0 0] CT
0.775 GC
[1 3] 0 setdash
2 LJ
0.667 LW
N
339.924 358 M
339.924 31 L
S
GR
GS
[0.75 0 0 0.75 0 0] CT
0.775 GC
[1 3] 0 setdash
2 LJ
0.667 LW
N
348.314 358 M
348.314 31 L
S
GR
GS
[0.75 0 0 0.75 0 0] CT
0.775 GC
[1 3] 0 setdash
2 LJ
0.667 LW
N
355.714 358 M
355.714 31 L
S
GR
GS
[0.75 0 0 0.75 0 0] CT
0.775 GC
[1 3] 0 setdash
2 LJ
0.667 LW
N
405.882 358 M
405.882 31 L
S
GR
GS
[0.75 0 0 0.75 0 0] CT
0.775 GC
[1 3] 0 setdash
2 LJ
0.667 LW
N
431.357 358 M
431.357 31 L
S
GR
GS
[0.75 0 0 0.75 0 0] CT
0.775 GC
[1 3] 0 setdash
2 LJ
0.667 LW
N
449.431 358 M
449.431 31 L
S
GR
GS
[0.75 0 0 0.75 0 0] CT
0.775 GC
[1 3] 0 setdash
2 LJ
0.667 LW
N
463.451 358 M
463.451 31 L
S
GR
GS
[0.75 0 0 0.75 0 0] CT
0.775 GC
[1 3] 0 setdash
2 LJ
0.667 LW
N
474.906 358 M
474.906 31 L
S
GR
GS
[0.75 0 0 0.75 0 0] CT
0.775 GC
[1 3] 0 setdash
2 LJ
0.667 LW
N
484.591 358 M
484.591 31 L
S
GR
GS
[0.75 0 0 0.75 0 0] CT
0.775 GC
[1 3] 0 setdash
2 LJ
0.667 LW
N
492.98 358 M
492.98 31 L
S
GR
GS
[0.75 0 0 0.75 0 0] CT
0.775 GC
[1 3] 0 setdash
2 LJ
0.667 LW
N
500.38 358 M
500.38 31 L
S
GR
GS
[0.75 0 0 0.75 0 0] CT
0.873 GC
1 LJ
0.667 LW
N
73 358 M
73 31 L
S
GR
GS
[0.75 0 0 0.75 0 0] CT
0.873 GC
1 LJ
0.667 LW
N
217.667 358 M
217.667 31 L
S
GR
GS
[0.75 0 0 0.75 0 0] CT
0.873 GC
1 LJ
0.667 LW
N
362.333 358 M
362.333 31 L
S
GR
GS
[0.75 0 0 0.75 0 0] CT
0.873 GC
1 LJ
0.667 LW
N
507 358 M
507 31 L
S
GR
GS
[0.75 0 0 0.75 0 0] CT
0.873 GC
1 LJ
0.667 LW
N
507 358 M
73 358 L
S
GR
GS
[0.75 0 0 0.75 0 0] CT
0.873 GC
1 LJ
0.667 LW
N
507 276.25 M
73 276.25 L
S
GR
GS
[0.75 0 0 0.75 0 0] CT
0.873 GC
1 LJ
0.667 LW
N
507 194.5 M
73 194.5 L
S
GR
GS
[0.75 0 0 0.75 0 0] CT
0.873 GC
1 LJ
0.667 LW
N
507 112.75 M
73 112.75 L
S
GR
GS
[0.75 0 0 0.75 0 0] CT
0.873 GC
1 LJ
0.667 LW
N
507 31 M
73 31 L
S
GR
GS
[0.75 0 0 0.75 0 0] CT
0.149 GC
2 setlinecap
1 LJ
0.667 LW
N
73 358 M
507 358 L
S
GR
GS
[0.75 0 0 0.75 0 0] CT
0.149 GC
2 setlinecap
1 LJ
0.667 LW
N
73 31 M
507 31 L
S
GR
GS
[0.75 0 0 0.75 0 0] CT
0.149 GC
2 setlinecap
1 LJ
0.667 LW
N
73 358 M
73 353.66 L
S
GR
GS
[0.75 0 0 0.75 0 0] CT
0.149 GC
2 setlinecap
1 LJ
0.667 LW
N
217.667 358 M
217.667 353.66 L
S
GR
GS
[0.75 0 0 0.75 0 0] CT
0.149 GC
2 setlinecap
1 LJ
0.667 LW
N
362.333 358 M
362.333 353.66 L
S
GR
GS
[0.75 0 0 0.75 0 0] CT
0.149 GC
2 setlinecap
1 LJ
0.667 LW
N
507 358 M
507 353.66 L
S
GR
GS
[0.75 0 0 0.75 0 0] CT
0.149 GC
2 setlinecap
1 LJ
0.667 LW
N
73 31 M
73 35.34 L
S
GR
GS
[0.75 0 0 0.75 0 0] CT
0.149 GC
2 setlinecap
1 LJ
0.667 LW
N
217.667 31 M
217.667 35.34 L
S
GR
GS
[0.75 0 0 0.75 0 0] CT
0.149 GC
2 setlinecap
1 LJ
0.667 LW
N
362.333 31 M
362.333 35.34 L
S
GR
GS
[0.75 0 0 0.75 0 0] CT
0.149 GC
2 setlinecap
1 LJ
0.667 LW
N
507 31 M
507 35.34 L
S
GR
GS
[0.75 0 0 0.75 0 0] CT
0.149 GC
2 setlinecap
1 LJ
0.667 LW
N
73 358 M
73 355.83 L
S
GR
GS
[0.75 0 0 0.75 0 0] CT
0.149 GC
2 setlinecap
1 LJ
0.667 LW
N
116.549 358 M
116.549 355.83 L
S
GR
GS
[0.75 0 0 0.75 0 0] CT
0.149 GC
2 setlinecap
1 LJ
0.667 LW
N
142.024 358 M
142.024 355.83 L
S
GR
GS
[0.75 0 0 0.75 0 0] CT
0.149 GC
2 setlinecap
1 LJ
0.667 LW
N
160.098 358 M
160.098 355.83 L
S
GR
GS
[0.75 0 0 0.75 0 0] CT
0.149 GC
2 setlinecap
1 LJ
0.667 LW
N
174.118 358 M
174.118 355.83 L
S
GR
GS
[0.75 0 0 0.75 0 0] CT
0.149 GC
2 setlinecap
1 LJ
0.667 LW
N
185.573 358 M
185.573 355.83 L
S
GR
GS
[0.75 0 0 0.75 0 0] CT
0.149 GC
2 setlinecap
1 LJ
0.667 LW
N
195.258 358 M
195.258 355.83 L
S
GR
GS
[0.75 0 0 0.75 0 0] CT
0.149 GC
2 setlinecap
1 LJ
0.667 LW
N
203.647 358 M
203.647 355.83 L
S
GR
GS
[0.75 0 0 0.75 0 0] CT
0.149 GC
2 setlinecap
1 LJ
0.667 LW
N
211.047 358 M
211.047 355.83 L
S
GR
GS
[0.75 0 0 0.75 0 0] CT
0.149 GC
2 setlinecap
1 LJ
0.667 LW
N
217.667 358 M
217.667 355.83 L
S
GR
GS
[0.75 0 0 0.75 0 0] CT
0.149 GC
2 setlinecap
1 LJ
0.667 LW
N
261.216 358 M
261.216 355.83 L
S
GR
GS
[0.75 0 0 0.75 0 0] CT
0.149 GC
2 setlinecap
1 LJ
0.667 LW
N
286.69 358 M
286.69 355.83 L
S
GR
GS
[0.75 0 0 0.75 0 0] CT
0.149 GC
2 setlinecap
1 LJ
0.667 LW
N
304.765 358 M
304.765 355.83 L
S
GR
GS
[0.75 0 0 0.75 0 0] CT
0.149 GC
2 setlinecap
1 LJ
0.667 LW
N
318.784 358 M
318.784 355.83 L
S
GR
GS
[0.75 0 0 0.75 0 0] CT
0.149 GC
2 setlinecap
1 LJ
0.667 LW
N
330.239 358 M
330.239 355.83 L
S
GR
GS
[0.75 0 0 0.75 0 0] CT
0.149 GC
2 setlinecap
1 LJ
0.667 LW
N
339.924 358 M
339.924 355.83 L
S
GR
GS
[0.75 0 0 0.75 0 0] CT
0.149 GC
2 setlinecap
1 LJ
0.667 LW
N
348.314 358 M
348.314 355.83 L
S
GR
GS
[0.75 0 0 0.75 0 0] CT
0.149 GC
2 setlinecap
1 LJ
0.667 LW
N
355.714 358 M
355.714 355.83 L
S
GR
GS
[0.75 0 0 0.75 0 0] CT
0.149 GC
2 setlinecap
1 LJ
0.667 LW
N
362.333 358 M
362.333 355.83 L
S
GR
GS
[0.75 0 0 0.75 0 0] CT
0.149 GC
2 setlinecap
1 LJ
0.667 LW
N
405.882 358 M
405.882 355.83 L
S
GR
GS
[0.75 0 0 0.75 0 0] CT
0.149 GC
2 setlinecap
1 LJ
0.667 LW
N
431.357 358 M
431.357 355.83 L
S
GR
GS
[0.75 0 0 0.75 0 0] CT
0.149 GC
2 setlinecap
1 LJ
0.667 LW
N
449.431 358 M
449.431 355.83 L
S
GR
GS
[0.75 0 0 0.75 0 0] CT
0.149 GC
2 setlinecap
1 LJ
0.667 LW
N
463.451 358 M
463.451 355.83 L
S
GR
GS
[0.75 0 0 0.75 0 0] CT
0.149 GC
2 setlinecap
1 LJ
0.667 LW
N
474.906 358 M
474.906 355.83 L
S
GR
GS
[0.75 0 0 0.75 0 0] CT
0.149 GC
2 setlinecap
1 LJ
0.667 LW
N
484.591 358 M
484.591 355.83 L
S
GR
GS
[0.75 0 0 0.75 0 0] CT
0.149 GC
2 setlinecap
1 LJ
0.667 LW
N
492.98 358 M
492.98 355.83 L
S
GR
GS
[0.75 0 0 0.75 0 0] CT
0.149 GC
2 setlinecap
1 LJ
0.667 LW
N
500.38 358 M
500.38 355.83 L
S
GR
GS
[0.75 0 0 0.75 0 0] CT
0.149 GC
2 setlinecap
1 LJ
0.667 LW
N
507 358 M
507 355.83 L
S
GR
GS
[0.75 0 0 0.75 0 0] CT
0.149 GC
2 setlinecap
1 LJ
0.667 LW
N
73 31 M
73 33.17 L
S
GR
GS
[0.75 0 0 0.75 0 0] CT
0.149 GC
2 setlinecap
1 LJ
0.667 LW
N
116.549 31 M
116.549 33.17 L
S
GR
GS
[0.75 0 0 0.75 0 0] CT
0.149 GC
2 setlinecap
1 LJ
0.667 LW
N
142.024 31 M
142.024 33.17 L
S
GR
GS
[0.75 0 0 0.75 0 0] CT
0.149 GC
2 setlinecap
1 LJ
0.667 LW
N
160.098 31 M
160.098 33.17 L
S
GR
GS
[0.75 0 0 0.75 0 0] CT
0.149 GC
2 setlinecap
1 LJ
0.667 LW
N
174.118 31 M
174.118 33.17 L
S
GR
GS
[0.75 0 0 0.75 0 0] CT
0.149 GC
2 setlinecap
1 LJ
0.667 LW
N
185.573 31 M
185.573 33.17 L
S
GR
GS
[0.75 0 0 0.75 0 0] CT
0.149 GC
2 setlinecap
1 LJ
0.667 LW
N
195.258 31 M
195.258 33.17 L
S
GR
GS
[0.75 0 0 0.75 0 0] CT
0.149 GC
2 setlinecap
1 LJ
0.667 LW
N
203.647 31 M
203.647 33.17 L
S
GR
GS
[0.75 0 0 0.75 0 0] CT
0.149 GC
2 setlinecap
1 LJ
0.667 LW
N
211.047 31 M
211.047 33.17 L
S
GR
GS
[0.75 0 0 0.75 0 0] CT
0.149 GC
2 setlinecap
1 LJ
0.667 LW
N
217.667 31 M
217.667 33.17 L
S
GR
GS
[0.75 0 0 0.75 0 0] CT
0.149 GC
2 setlinecap
1 LJ
0.667 LW
N
261.216 31 M
261.216 33.17 L
S
GR
GS
[0.75 0 0 0.75 0 0] CT
0.149 GC
2 setlinecap
1 LJ
0.667 LW
N
286.69 31 M
286.69 33.17 L
S
GR
GS
[0.75 0 0 0.75 0 0] CT
0.149 GC
2 setlinecap
1 LJ
0.667 LW
N
304.765 31 M
304.765 33.17 L
S
GR
GS
[0.75 0 0 0.75 0 0] CT
0.149 GC
2 setlinecap
1 LJ
0.667 LW
N
318.784 31 M
318.784 33.17 L
S
GR
GS
[0.75 0 0 0.75 0 0] CT
0.149 GC
2 setlinecap
1 LJ
0.667 LW
N
330.239 31 M
330.239 33.17 L
S
GR
GS
[0.75 0 0 0.75 0 0] CT
0.149 GC
2 setlinecap
1 LJ
0.667 LW
N
339.924 31 M
339.924 33.17 L
S
GR
GS
[0.75 0 0 0.75 0 0] CT
0.149 GC
2 setlinecap
1 LJ
0.667 LW
N
348.314 31 M
348.314 33.17 L
S
GR
GS
[0.75 0 0 0.75 0 0] CT
0.149 GC
2 setlinecap
1 LJ
0.667 LW
N
355.714 31 M
355.714 33.17 L
S
GR
GS
[0.75 0 0 0.75 0 0] CT
0.149 GC
2 setlinecap
1 LJ
0.667 LW
N
362.333 31 M
362.333 33.17 L
S
GR
GS
[0.75 0 0 0.75 0 0] CT
0.149 GC
2 setlinecap
1 LJ
0.667 LW
N
405.882 31 M
405.882 33.17 L
S
GR
GS
[0.75 0 0 0.75 0 0] CT
0.149 GC
2 setlinecap
1 LJ
0.667 LW
N
431.357 31 M
431.357 33.17 L
S
GR
GS
[0.75 0 0 0.75 0 0] CT
0.149 GC
2 setlinecap
1 LJ
0.667 LW
N
449.431 31 M
449.431 33.17 L
S
GR
GS
[0.75 0 0 0.75 0 0] CT
0.149 GC
2 setlinecap
1 LJ
0.667 LW
N
463.451 31 M
463.451 33.17 L
S
GR
GS
[0.75 0 0 0.75 0 0] CT
0.149 GC
2 setlinecap
1 LJ
0.667 LW
N
474.906 31 M
474.906 33.17 L
S
GR
GS
[0.75 0 0 0.75 0 0] CT
0.149 GC
2 setlinecap
1 LJ
0.667 LW
N
484.591 31 M
484.591 33.17 L
S
GR
GS
[0.75 0 0 0.75 0 0] CT
0.149 GC
2 setlinecap
1 LJ
0.667 LW
N
492.98 31 M
492.98 33.17 L
S
GR
GS
[0.75 0 0 0.75 0 0] CT
0.149 GC
2 setlinecap
1 LJ
0.667 LW
N
500.38 31 M
500.38 33.17 L
S
GR
GS
[0.75 0 0 0.75 0 0] CT
0.149 GC
2 setlinecap
1 LJ
0.667 LW
N
507 31 M
507 33.17 L
S
GR
GS
[0.75 0 0 0.75 54.75 273.69999] CT
0.149 GC
N
-18.788 17.92 M
-18.788 17.186 L
-16.163 17.186 -16.163 16.514 QT
-16.163 5.498 L
-17.256 6.014 -18.913 6.014 QT
-18.913 5.279 L
-16.335 5.279 -15.022 3.936 QT
-14.725 3.936 L
-14.663 3.936 -14.592 3.99 QT
-14.522 4.045 -14.522 4.123 QT
-14.522 16.514 L
-14.522 17.186 -11.897 17.186 QT
-11.897 17.92 L
-18.788 17.92 L
cp
f
GR
GS
[0.75 0 0 0.75 54.75 273.69999] CT
0.149 GC
N
-4.824 18.389 M
-7.402 18.389 -8.324 16.264 QT
-9.246 14.139 -9.246 11.217 QT
-9.246 9.404 -8.918 7.795 QT
-8.59 6.186 -7.598 5.061 QT
-6.605 3.936 -4.824 3.936 QT
-3.433 3.936 -2.558 4.607 QT
-1.683 5.279 -1.215 6.357 QT
-0.746 7.436 -0.582 8.654 QT
-0.418 9.873 -0.418 11.217 QT
-0.418 13.029 -0.746 14.6 QT
-1.074 16.17 -2.051 17.279 QT
-3.027 18.389 -4.824 18.389 QT
cp
-4.824 17.842 M
-3.652 17.842 -3.082 16.639 QT
-2.512 15.436 -2.379 13.982 QT
-2.246 12.529 -2.246 10.889 QT
-2.246 9.311 -2.379 7.975 QT
-2.512 6.639 -3.082 5.561 QT
-3.652 4.482 -4.824 4.482 QT
-6.012 4.482 -6.59 5.568 QT
-7.168 6.654 -7.301 7.982 QT
-7.433 9.311 -7.433 10.889 QT
-7.433 12.061 -7.371 13.092 QT
-7.308 14.123 -7.066 15.225 QT
-6.824 16.326 -6.277 17.084 QT
-5.73 17.842 -4.824 17.842 QT
cp
f
GR
GS
[0.75 0 0 0.75 54.75 273.69999] CT
0.149 GC
N
2.124 6.725 M
1.999 6.725 1.921 6.631 QT
1.843 6.538 1.843 6.428 QT
1.843 6.319 1.921 6.225 QT
1.999 6.131 2.124 6.131 QT
10.733 6.131 L
10.843 6.131 10.921 6.225 QT
10.999 6.319 10.999 6.428 QT
10.999 6.538 10.921 6.631 QT
10.843 6.725 10.733 6.725 QT
2.124 6.725 L
cp
f
GR
GS
[0.75 0 0 0.75 54.75 273.69999] CT
0.149 GC
N
12.629 7.709 M
12.629 7.178 L
17.254 0.256 L
17.317 0.194 17.411 0.194 QT
17.629 0.194 L
17.801 0.194 17.801 0.35 QT
17.801 7.178 L
19.27 7.178 L
19.27 7.709 L
17.801 7.709 L
17.801 9.178 L
17.801 9.475 18.239 9.561 QT
18.676 9.647 19.254 9.647 QT
19.254 10.178 L
15.129 10.178 L
15.129 9.647 L
15.707 9.647 16.145 9.561 QT
16.582 9.475 16.582 9.178 QT
16.582 7.709 L
12.629 7.709 L
cp
13.129 7.178 M
16.676 7.178 L
16.676 1.866 L
13.129 7.178 L
cp
f
GR
GS
[0.75 0 0 0.75 163.25 273.69999] CT
0.149 GC
N
/f-1672989732{-18.788 17.92 M
-18.788 17.186 L
-16.163 17.186 -16.163 16.514 QT
-16.163 5.498 L
-17.256 6.014 -18.913 6.014 QT
-18.913 5.279 L
-16.335 5.279 -15.022 3.936 QT
-14.725 3.936 L
-14.663 3.936 -14.592 3.99 QT
-14.522 4.045 -14.522 4.123 QT
-14.522 16.514 L
-14.522 17.186 -11.897 17.186 QT
-11.897 17.92 L
-18.788 17.92 L
cp}def
f-1672989732
f
GR
GS
[0.75 0 0 0.75 163.25 273.69999] CT
0.149 GC
N
/f797345996{-4.824 18.389 M
-7.402 18.389 -8.324 16.264 QT
-9.246 14.139 -9.246 11.217 QT
-9.246 9.404 -8.918 7.795 QT
-8.59 6.186 -7.598 5.061 QT
-6.605 3.936 -4.824 3.936 QT
-3.433 3.936 -2.558 4.607 QT
-1.683 5.279 -1.215 6.357 QT
-0.746 7.436 -0.582 8.654 QT
-0.418 9.873 -0.418 11.217 QT
-0.418 13.029 -0.746 14.6 QT
-1.074 16.17 -2.051 17.279 QT
-3.027 18.389 -4.824 18.389 QT
cp
-4.824 17.842 M
-3.652 17.842 -3.082 16.639 QT
-2.512 15.436 -2.379 13.982 QT
-2.246 12.529 -2.246 10.889 QT
-2.246 9.311 -2.379 7.975 QT
-2.512 6.639 -3.082 5.561 QT
-3.652 4.482 -4.824 4.482 QT
-6.012 4.482 -6.59 5.568 QT
-7.168 6.654 -7.301 7.982 QT
-7.433 9.311 -7.433 10.889 QT
-7.433 12.061 -7.371 13.092 QT
-7.308 14.123 -7.066 15.225 QT
-6.824 16.326 -6.277 17.084 QT
-5.73 17.842 -4.824 17.842 QT
cp}def
f797345996
f
GR
GS
[0.75 0 0 0.75 163.25 273.69999] CT
0.149 GC
N
/f1310766685{2.124 6.725 M
1.999 6.725 1.921 6.631 QT
1.843 6.538 1.843 6.428 QT
1.843 6.319 1.921 6.225 QT
1.999 6.131 2.124 6.131 QT
10.733 6.131 L
10.843 6.131 10.921 6.225 QT
10.999 6.319 10.999 6.428 QT
10.999 6.538 10.921 6.631 QT
10.843 6.725 10.733 6.725 QT
2.124 6.725 L
cp}def
f1310766685
f
GR
GS
[0.75 0 0 0.75 163.25 273.69999] CT
0.149 GC
N
/f-1810492434{13.629 9.022 M
13.989 9.538 14.582 9.788 QT
15.176 10.038 15.848 10.038 QT
16.723 10.038 17.09 9.288 QT
17.457 8.538 17.457 7.6 QT
17.457 7.178 17.379 6.749 QT
17.301 6.319 17.122 5.959 QT
16.942 5.6 16.622 5.374 QT
16.301 5.147 15.848 5.147 QT
14.848 5.147 L
14.707 5.147 14.707 5.022 QT
14.707 4.881 L
14.707 4.772 14.848 4.772 QT
15.676 4.694 L
16.192 4.694 16.543 4.303 QT
16.895 3.913 17.059 3.342 QT
17.223 2.772 17.223 2.256 QT
17.223 1.538 16.887 1.077 QT
16.551 0.616 15.848 0.616 QT
15.286 0.616 14.762 0.834 QT
14.239 1.053 13.942 1.491 QT
13.973 1.491 13.989 1.483 QT
14.004 1.475 14.036 1.475 QT
14.379 1.475 14.606 1.709 QT
14.832 1.944 14.832 2.272 QT
14.832 2.6 14.606 2.834 QT
14.379 3.069 14.036 3.069 QT
13.707 3.069 13.473 2.834 QT
13.239 2.6 13.239 2.272 QT
13.239 1.631 13.629 1.155 QT
14.02 0.678 14.629 0.436 QT
15.239 0.194 15.848 0.194 QT
16.317 0.194 16.817 0.327 QT
17.317 0.459 17.731 0.709 QT
18.145 0.959 18.403 1.358 QT
18.661 1.756 18.661 2.256 QT
18.661 2.897 18.379 3.428 QT
18.098 3.959 17.606 4.35 QT
17.114 4.741 16.536 4.928 QT
17.176 5.053 17.762 5.42 QT
18.348 5.788 18.707 6.358 QT
19.067 6.928 19.067 7.584 QT
19.067 8.413 18.614 9.084 QT
18.161 9.756 17.418 10.131 QT
16.676 10.506 15.848 10.506 QT
15.145 10.506 14.442 10.241 QT
13.739 9.975 13.286 9.436 QT
12.832 8.897 12.832 8.163 QT
12.832 7.788 13.082 7.538 QT
13.332 7.288 13.707 7.288 QT
13.957 7.288 14.153 7.397 QT
14.348 7.506 14.465 7.717 QT
14.582 7.928 14.582 8.163 QT
14.582 8.522 14.325 8.772 QT
14.067 9.022 13.707 9.022 QT
13.629 9.022 L
cp}def
f-1810492434
f
GR
GS
[0.75 0 0 0.75 271.75001 273.69999] CT
0.149 GC
N
f-1672989732
f
GR
GS
[0.75 0 0 0.75 271.75001 273.69999] CT
0.149 GC
N
f797345996
f
GR
GS
[0.75 0 0 0.75 271.75001 273.69999] CT
0.149 GC
N
f1310766685
f
GR
GS
[0.75 0 0 0.75 271.75001 273.69999] CT
0.149 GC
N
/f-433703076{12.957 10.178 M
12.957 9.772 L
12.957 9.741 12.989 9.694 QT
15.317 7.116 L
15.848 6.538 16.176 6.155 QT
16.504 5.772 16.825 5.264 QT
17.145 4.756 17.332 4.233 QT
17.52 3.709 17.52 3.131 QT
17.52 2.506 17.293 1.944 QT
17.067 1.381 16.614 1.045 QT
16.161 0.709 15.52 0.709 QT
14.879 0.709 14.356 1.108 QT
13.832 1.506 13.614 2.116 QT
13.676 2.1 13.786 2.1 QT
14.114 2.1 14.356 2.327 QT
14.598 2.553 14.598 2.913 QT
14.598 3.256 14.356 3.499 QT
14.114 3.741 13.786 3.741 QT
13.426 3.741 13.192 3.499 QT
12.957 3.256 12.957 2.913 QT
12.957 2.35 13.168 1.858 QT
13.379 1.366 13.778 0.983 QT
14.176 0.6 14.676 0.397 QT
15.176 0.194 15.739 0.194 QT
16.598 0.194 17.34 0.553 QT
18.082 0.913 18.512 1.577 QT
18.942 2.241 18.942 3.131 QT
18.942 3.772 18.661 4.358 QT
18.379 4.944 17.934 5.428 QT
17.489 5.913 16.786 6.522 QT
16.082 7.131 15.864 7.334 QT
14.176 8.959 L
15.614 8.959 L
16.676 8.959 17.387 8.944 QT
18.098 8.928 18.145 8.881 QT
18.317 8.694 18.504 7.506 QT
18.942 7.506 L
18.52 10.178 L
12.957 10.178 L
cp}def
f-433703076
f
GR
GS
[0.75 0 0 0.75 380.25 273.69999] CT
0.149 GC
N
f-1672989732
f
GR
GS
[0.75 0 0 0.75 380.25 273.69999] CT
0.149 GC
N
f797345996
f
GR
GS
[0.75 0 0 0.75 380.25 273.69999] CT
0.149 GC
N
f1310766685
f
GR
GS
[0.75 0 0 0.75 380.25 273.69999] CT
0.149 GC
N
/f-1251547711{13.598 10.178 M
13.598 9.647 L
15.473 9.647 15.473 9.178 QT
15.473 1.303 L
14.692 1.678 13.504 1.678 QT
13.504 1.147 L
15.348 1.147 16.286 0.194 QT
16.504 0.194 L
16.551 0.194 16.598 0.233 QT
16.645 0.272 16.645 0.319 QT
16.645 9.178 L
16.645 9.647 18.52 9.647 QT
18.52 10.178 L
13.598 10.178 L
cp}def
f-1251547711
f
GR
GS
[0.75 0 0 0.75 217.50016 293.9] CT
0.149 GC
N
/f-1229572885{-27.106 19.712 M
-27.293 19.712 -27.293 19.524 QT
-27.293 19.509 -27.285 19.501 QT
-27.277 19.493 -27.277 19.446 QT
-19.356 3.493 L
-19.262 3.243 -18.949 3.243 QT
-18.637 3.243 L
-18.309 3.243 -18.215 3.493 QT
-10.293 19.446 L
-10.293 19.478 -10.285 19.493 QT
-10.277 19.509 -10.277 19.524 QT
-10.277 19.712 -10.465 19.712 QT
-27.106 19.712 L
cp
-25.59 17.868 M
-13.481 17.868 L
-19.527 5.665 L
-25.59 17.868 L
cp}def
f-1229572885
f
GR
GS
[0.75 0 0 0.75 217.50016 293.9] CT
0.149 GC
N
/f-443332504{-7.378 17.853 M
-7.378 17.509 -7.3 17.212 QT
-5.644 10.603 L
-8.066 10.603 L
-8.3 10.603 -8.3 10.306 QT
-8.206 9.79 -7.987 9.79 QT
-5.441 9.79 L
-4.519 6.04 L
-4.425 5.743 -4.159 5.532 QT
-3.894 5.321 -3.55 5.321 QT
-3.269 5.321 -3.066 5.493 QT
-2.862 5.665 -2.862 5.962 QT
-2.862 6.024 -2.87 6.063 QT
-2.878 6.103 -2.894 6.149 QT
-3.816 9.79 L
-1.441 9.79 L
-1.206 9.79 -1.206 10.103 QT
-1.222 10.149 -1.253 10.29 QT
-1.284 10.431 -1.339 10.517 QT
-1.394 10.603 -1.519 10.603 QT
-4.019 10.603 L
-5.659 17.259 L
-5.831 17.899 -5.831 18.368 QT
-5.831 19.368 -5.159 19.368 QT
-4.144 19.368 -3.37 18.415 QT
-2.597 17.462 -2.175 16.337 QT
-2.081 16.196 -1.987 16.196 QT
-1.706 16.196 L
-1.628 16.196 -1.573 16.259 QT
-1.519 16.321 -1.519 16.399 QT
-1.519 16.446 -1.534 16.462 QT
-2.034 17.853 -3.003 18.915 QT
-3.972 19.978 -5.222 19.978 QT
-6.128 19.978 -6.753 19.376 QT
-7.378 18.774 -7.378 17.853 QT
cp}def
f-443332504
f
GR
GS
[0.75 0 0 0.75 217.50016 293.9] CT
0.149 GC
N
/f-441633300{10.215 25.462 M
10.215 2.462 L
13.356 2.462 L
13.356 3.384 L
11.137 3.384 L
11.137 24.54 L
13.356 24.54 L
13.356 25.462 L
10.215 25.462 L
cp}def
f-441633300
f
GR
GS
[0.75 0 0 0.75 217.50016 293.9] CT
0.149 GC
N
/f-1171166407{14.28 15.462 M
14.28 14.024 L
20.359 14.024 L
20.359 15.462 L
14.28 15.462 L
cp}def
f-1171166407
f
GR
GS
[0.75 0 0 0.75 217.50016 293.9] CT
0.149 GC
N
/f-1315451950{22.337 25.462 M
22.337 24.54 L
24.571 24.54 L
24.571 3.384 L
22.337 3.384 L
22.337 2.462 L
25.493 2.462 L
25.493 25.462 L
22.337 25.462 L
cp}def
f-1315451950
f
GR
GS
[0.75 0 0 0.75 0 0] CT
0.149 GC
2 setlinecap
1 LJ
0.667 LW
N
73 358 M
73 31 L
S
GR
GS
[0.75 0 0 0.75 0 0] CT
0.149 GC
2 setlinecap
1 LJ
0.667 LW
N
507 358 M
507 31 L
S
GR
GS
[0.75 0 0 0.75 0 0] CT
0.149 GC
2 setlinecap
1 LJ
0.667 LW
N
73 358 M
77.34 358 L
S
GR
GS
[0.75 0 0 0.75 0 0] CT
0.149 GC
2 setlinecap
1 LJ
0.667 LW
N
73 276.25 M
77.34 276.25 L
S
GR
GS
[0.75 0 0 0.75 0 0] CT
0.149 GC
2 setlinecap
1 LJ
0.667 LW
N
73 194.5 M
77.34 194.5 L
S
GR
GS
[0.75 0 0 0.75 0 0] CT
0.149 GC
2 setlinecap
1 LJ
0.667 LW
N
73 112.75 M
77.34 112.75 L
S
GR
GS
[0.75 0 0 0.75 0 0] CT
0.149 GC
2 setlinecap
1 LJ
0.667 LW
N
73 31 M
77.34 31 L
S
GR
GS
[0.75 0 0 0.75 0 0] CT
0.149 GC
2 setlinecap
1 LJ
0.667 LW
N
507 358 M
502.66 358 L
S
GR
GS
[0.75 0 0 0.75 0 0] CT
0.149 GC
2 setlinecap
1 LJ
0.667 LW
N
507 276.25 M
502.66 276.25 L
S
GR
GS
[0.75 0 0 0.75 0 0] CT
0.149 GC
2 setlinecap
1 LJ
0.667 LW
N
507 194.5 M
502.66 194.5 L
S
GR
GS
[0.75 0 0 0.75 0 0] CT
0.149 GC
2 setlinecap
1 LJ
0.667 LW
N
507 112.75 M
502.66 112.75 L
S
GR
GS
[0.75 0 0 0.75 0 0] CT
0.149 GC
2 setlinecap
1 LJ
0.667 LW
N
507 31 M
502.66 31 L
S
GR
GS
[0.75 0 0 0.75 49.55 268.5] CT
0.149 GC
N
/f-1781641207{-5.417 5.589 M
-7.995 5.589 -8.917 3.464 QT
-9.839 1.339 -9.839 -1.583 QT
-9.839 -3.396 -9.51 -5.005 QT
-9.182 -6.614 -8.19 -7.739 QT
-7.198 -8.864 -5.417 -8.864 QT
-4.026 -8.864 -3.151 -8.193 QT
-2.276 -7.521 -1.807 -6.443 QT
-1.339 -5.364 -1.175 -4.146 QT
-1.01 -2.927 -1.01 -1.583 QT
-1.01 0.229 -1.339 1.8 QT
-1.667 3.37 -2.643 4.479 QT
-3.62 5.589 -5.417 5.589 QT
cp
-5.417 5.042 M
-4.245 5.042 -3.675 3.839 QT
-3.104 2.636 -2.971 1.182 QT
-2.839 -0.271 -2.839 -1.911 QT
-2.839 -3.489 -2.971 -4.825 QT
-3.104 -6.161 -3.675 -7.239 QT
-4.245 -8.318 -5.417 -8.318 QT
-6.604 -8.318 -7.182 -7.232 QT
-7.76 -6.146 -7.893 -4.818 QT
-8.026 -3.489 -8.026 -1.911 QT
-8.026 -0.739 -7.964 0.292 QT
-7.901 1.323 -7.659 2.425 QT
-7.417 3.526 -6.87 4.284 QT
-6.323 5.042 -5.417 5.042 QT
cp}def
f-1781641207
f
GR
GS
[0.75 0 0 0.75 49.55 207.1875] CT
0.149 GC
N
/f-2117570807{-22.009 5.589 M
-24.587 5.589 -25.509 3.464 QT
-26.431 1.339 -26.431 -1.583 QT
-26.431 -3.396 -26.103 -5.005 QT
-25.775 -6.614 -24.783 -7.739 QT
-23.791 -8.864 -22.009 -8.864 QT
-20.619 -8.864 -19.744 -8.193 QT
-18.869 -7.521 -18.4 -6.443 QT
-17.931 -5.364 -17.767 -4.146 QT
-17.603 -2.927 -17.603 -1.583 QT
-17.603 0.229 -17.931 1.8 QT
-18.259 3.37 -19.236 4.479 QT
-20.212 5.589 -22.009 5.589 QT
cp
-22.009 5.042 M
-20.837 5.042 -20.267 3.839 QT
-19.697 2.636 -19.564 1.182 QT
-19.431 -0.271 -19.431 -1.911 QT
-19.431 -3.489 -19.564 -4.825 QT
-19.697 -6.161 -20.267 -7.239 QT
-20.837 -8.318 -22.009 -8.318 QT
-23.197 -8.318 -23.775 -7.232 QT
-24.353 -6.146 -24.486 -4.818 QT
-24.619 -3.489 -24.619 -1.911 QT
-24.619 -0.739 -24.556 0.292 QT
-24.494 1.323 -24.252 2.425 QT
-24.009 3.526 -23.462 4.284 QT
-22.916 5.042 -22.009 5.042 QT
cp}def
f-2117570807
f
GR
GS
[0.75 0 0 0.75 49.55 207.1875] CT
0.149 GC
N
/f-1691089683{-14.827 3.964 M
-14.827 3.495 -14.475 3.151 QT
-14.124 2.807 -13.671 2.807 QT
-13.39 2.807 -13.108 2.964 QT
-12.827 3.12 -12.671 3.393 QT
-12.515 3.667 -12.515 3.964 QT
-12.515 4.417 -12.858 4.768 QT
-13.202 5.12 -13.671 5.12 QT
-14.124 5.12 -14.475 4.768 QT
-14.827 4.417 -14.827 3.964 QT
cp}def
f-1691089683
f
GR
GS
[0.75 0 0 0.75 49.55 207.1875] CT
0.149 GC
N
/f483782843{-8.839 2.729 M
-8.62 3.339 -8.175 3.846 QT
-7.729 4.354 -7.12 4.636 QT
-6.51 4.917 -5.854 4.917 QT
-4.339 4.917 -3.768 3.737 QT
-3.198 2.557 -3.198 0.87 QT
-3.198 0.151 -3.221 -0.349 QT
-3.245 -0.849 -3.354 -1.302 QT
-3.557 -2.052 -4.042 -2.607 QT
-4.526 -3.161 -5.229 -3.161 QT
-5.932 -3.161 -6.44 -2.943 QT
-6.948 -2.724 -7.268 -2.435 QT
-7.589 -2.146 -7.839 -1.833 QT
-8.089 -1.521 -8.151 -1.489 QT
-8.385 -1.489 L
-8.432 -1.489 -8.51 -1.56 QT
-8.589 -1.63 -8.589 -1.693 QT
-8.589 -8.708 L
-8.589 -8.755 -8.518 -8.81 QT
-8.448 -8.864 -8.385 -8.864 QT
-8.323 -8.864 L
-6.901 -8.193 -5.307 -8.193 QT
-3.76 -8.193 -2.307 -8.864 QT
-2.245 -8.864 L
-2.182 -8.864 -2.12 -8.818 QT
-2.057 -8.771 -2.057 -8.708 QT
-2.057 -8.505 L
-2.057 -8.411 -2.089 -8.411 QT
-2.807 -7.458 -3.893 -6.919 QT
-4.979 -6.38 -6.135 -6.38 QT
-6.979 -6.38 -7.854 -6.614 QT
-7.854 -2.646 L
-7.167 -3.224 -6.612 -3.458 QT
-6.057 -3.693 -5.214 -3.693 QT
-4.057 -3.693 -3.135 -3.029 QT
-2.214 -2.364 -1.721 -1.294 QT
-1.229 -0.224 -1.229 0.901 QT
-1.229 2.151 -1.854 3.229 QT
-2.479 4.307 -3.542 4.948 QT
-4.604 5.589 -5.854 5.589 QT
-6.885 5.589 -7.753 5.05 QT
-8.62 4.511 -9.12 3.612 QT
-9.62 2.714 -9.62 1.698 QT
-9.62 1.229 -9.315 0.932 QT
-9.01 0.636 -8.542 0.636 QT
-8.089 0.636 -7.776 0.932 QT
-7.464 1.229 -7.464 1.698 QT
-7.464 2.151 -7.776 2.464 QT
-8.089 2.776 -8.542 2.776 QT
-8.62 2.776 -8.714 2.761 QT
-8.807 2.745 -8.839 2.729 QT
cp}def
f483782843
f
GR
GS
[0.75 0 0 0.75 49.55 145.875] CT
0.149 GC
N
/f2067142573{-8.714 5.12 M
-8.714 4.386 L
-6.089 4.386 -6.089 3.714 QT
-6.089 -7.302 L
-7.182 -6.786 -8.839 -6.786 QT
-8.839 -7.521 L
-6.26 -7.521 -4.948 -8.864 QT
-4.651 -8.864 L
-4.589 -8.864 -4.518 -8.81 QT
-4.448 -8.755 -4.448 -8.677 QT
-4.448 3.714 L
-4.448 4.386 -1.823 4.386 QT
-1.823 5.12 L
-8.714 5.12 L
cp}def
f2067142573
f
GR
GS
[0.75 0 0 0.75 49.55 84.5625] CT
0.149 GC
N
/f474972765{-25.306 5.12 M
-25.306 4.386 L
-22.681 4.386 -22.681 3.714 QT
-22.681 -7.302 L
-23.775 -6.786 -25.431 -6.786 QT
-25.431 -7.521 L
-22.853 -7.521 -21.541 -8.864 QT
-21.244 -8.864 L
-21.181 -8.864 -21.111 -8.81 QT
-21.041 -8.755 -21.041 -8.677 QT
-21.041 3.714 L
-21.041 4.386 -18.416 4.386 QT
-18.416 5.12 L
-25.306 5.12 L
cp}def
f474972765
f
GR
GS
[0.75 0 0 0.75 49.55 84.5625] CT
0.149 GC
N
f-1691089683
f
GR
GS
[0.75 0 0 0.75 49.55 84.5625] CT
0.149 GC
N
f483782843
f
GR
GS
[0.75 0 0 0.75 49.55 23.25] CT
0.149 GC
N
/f332566649{-9.62 5.12 M
-9.62 4.557 L
-9.62 4.511 -9.573 4.448 QT
-6.323 0.839 L
-5.573 0.026 -5.112 -0.513 QT
-4.651 -1.052 -4.206 -1.763 QT
-3.76 -2.474 -3.495 -3.2 QT
-3.229 -3.927 -3.229 -4.755 QT
-3.229 -5.614 -3.55 -6.404 QT
-3.87 -7.193 -4.503 -7.661 QT
-5.135 -8.13 -6.026 -8.13 QT
-6.932 -8.13 -7.659 -7.583 QT
-8.385 -7.036 -8.682 -6.161 QT
-8.604 -6.177 -8.464 -6.177 QT
-7.995 -6.177 -7.659 -5.864 QT
-7.323 -5.552 -7.323 -5.036 QT
-7.323 -4.568 -7.659 -4.232 QT
-7.995 -3.896 -8.464 -3.896 QT
-8.948 -3.896 -9.284 -4.239 QT
-9.62 -4.583 -9.62 -5.036 QT
-9.62 -5.833 -9.323 -6.521 QT
-9.026 -7.208 -8.464 -7.747 QT
-7.901 -8.286 -7.206 -8.575 QT
-6.51 -8.864 -5.714 -8.864 QT
-4.51 -8.864 -3.479 -8.357 QT
-2.448 -7.849 -1.839 -6.919 QT
-1.229 -5.989 -1.229 -4.755 QT
-1.229 -3.849 -1.628 -3.029 QT
-2.026 -2.208 -2.651 -1.536 QT
-3.276 -0.864 -4.253 -0.013 QT
-5.229 0.839 -5.542 1.136 QT
-7.917 3.417 L
-5.901 3.417 L
-4.417 3.417 -3.417 3.393 QT
-2.417 3.37 -2.354 3.307 QT
-2.104 3.042 -1.854 1.37 QT
-1.229 1.37 L
-1.823 5.12 L
-9.62 5.12 L
cp}def
f332566649
f
GR
GS
[0 -0.75 0.75 0 26.10549 145.87489] CT
0.149 GC
N
/f-24826176{-23.223 -8.448 M
-23.457 -8.448 -23.457 -8.745 QT
-23.364 -9.261 -23.161 -9.261 QT
-21.801 -9.261 -21.317 -9.354 QT
-20.786 -9.464 -20.661 -10.026 QT
-17.504 -22.667 L
-17.457 -22.886 -17.457 -22.964 QT
-17.457 -23.104 -17.528 -23.167 QT
-17.598 -23.229 -17.754 -23.261 QT
-18.223 -23.354 -19.504 -23.354 QT
-19.739 -23.354 -19.739 -23.651 QT
-19.661 -23.948 -19.614 -24.057 QT
-19.567 -24.167 -19.332 -24.167 QT
-12.911 -24.167 L
-12.692 -24.167 -12.692 -23.854 QT
-12.707 -23.807 -12.739 -23.667 QT
-12.77 -23.526 -12.825 -23.44 QT
-12.879 -23.354 -12.989 -23.354 QT
-14.348 -23.354 -14.864 -23.261 QT
-15.364 -23.136 -15.504 -22.557 QT
-18.645 -9.948 L
-18.707 -9.667 -18.707 -9.636 QT
-18.707 -9.589 -18.684 -9.534 QT
-18.661 -9.479 -18.614 -9.44 QT
-18.567 -9.401 -18.512 -9.386 QT
-18.457 -9.37 -18.395 -9.354 QT
-17.957 -9.261 -16.645 -9.261 QT
-16.426 -9.261 -16.426 -8.948 QT
-16.504 -8.636 -16.543 -8.542 QT
-16.582 -8.448 -16.817 -8.448 QT
-23.223 -8.448 L
cp}def
f-24826176
f
GR
GS
[0 -0.75 0.75 0 26.10549 145.87489] CT
0.149 GC
N
/f-2042194484{-9.876 -4.569 M
-11.829 -4.569 -12.54 -6.186 QT
-13.251 -7.803 -13.251 -10.037 QT
-13.251 -11.428 -12.993 -12.655 QT
-12.736 -13.881 -11.986 -14.733 QT
-11.236 -15.584 -9.876 -15.584 QT
-8.814 -15.584 -8.142 -15.069 QT
-7.47 -14.553 -7.118 -13.741 QT
-6.767 -12.928 -6.642 -11.991 QT
-6.517 -11.053 -6.517 -10.037 QT
-6.517 -8.662 -6.767 -7.459 QT
-7.017 -6.256 -7.759 -5.412 QT
-8.501 -4.569 -9.876 -4.569 QT
cp
-9.876 -4.991 M
-8.986 -4.991 -8.548 -5.905 QT
-8.111 -6.819 -8.009 -7.928 QT
-7.908 -9.037 -7.908 -10.287 QT
-7.908 -11.491 -8.009 -12.506 QT
-8.111 -13.522 -8.54 -14.35 QT
-8.97 -15.178 -9.876 -15.178 QT
-10.783 -15.178 -11.22 -14.35 QT
-11.658 -13.522 -11.759 -12.506 QT
-11.861 -11.491 -11.861 -10.287 QT
-11.861 -9.397 -11.814 -8.608 QT
-11.767 -7.819 -11.579 -6.983 QT
-11.392 -6.147 -10.978 -5.569 QT
-10.564 -4.991 -9.876 -4.991 QT
cp}def
f-2042194484
f
GR
GS
[0 -0.75 0.75 0 26.10549 145.87489] CT
0.149 GC
N
/f-107881708{6.051 -2.698 M
6.051 -25.698 L
9.192 -25.698 L
9.192 -24.776 L
6.973 -24.776 L
6.973 -3.62 L
9.192 -3.62 L
9.192 -2.698 L
6.051 -2.698 L
cp}def
f-107881708
f
GR
GS
[0 -0.75 0.75 0 26.10549 145.87489] CT
0.149 GC
N
/f365479373{10.117 -12.698 M
10.117 -14.136 L
16.195 -14.136 L
16.195 -12.698 L
10.117 -12.698 L
cp}def
f365479373
f
GR
GS
[0 -0.75 0.75 0 26.10549 145.87489] CT
0.149 GC
N
/f-1549692060{18.173 -2.698 M
18.173 -3.62 L
20.408 -3.62 L
20.408 -24.776 L
18.173 -24.776 L
18.173 -25.698 L
21.33 -25.698 L
21.33 -2.698 L
18.173 -2.698 L
cp}def
f-1549692060
f
GR
GS
[0.75 0 0 0.75 0 0] CT
0 0.447 0.741 RC
1 LJ
0.667 LW
N
73 206.701 M
116.549 206.929 L
174.118 206.749 L
217.667 206.643 L
261.216 206.771 L
318.784 206.871 L
362.333 205.086 L
405.882 202.192 L
463.451 192.443 L
507 169.512 L
S
GR
GS
[0.75 0 0 0.75 0 0] CT
0.851 0.325 0.098 RC
1 LJ
0.667 LW
N
73 207.365 M
116.549 207.365 L
174.118 207.365 L
217.667 207.365 L
261.216 207.365 L
318.784 207.365 L
362.333 207.365 L
405.882 207.365 L
463.451 207.365 L
507 207.365 L
S
GR
GS
[0.75 0 0 0.75 0 0] CT
1 GC
N
222 92 M
222 42 L
84 42 L
84 92 L
cp
f
GR
GS
[0.75 0 0 0.75 98.26043 41.52373] CT
N
/f490996158{1.172 3.061 M
1.172 2.795 1.234 2.545 QT
2.609 -2.923 L
0.609 -2.923 L
0.422 -2.923 0.422 -3.173 QT
0.484 -3.58 0.672 -3.58 QT
2.781 -3.58 L
3.531 -6.689 L
3.609 -6.939 3.828 -7.111 QT
4.047 -7.283 4.328 -7.283 QT
4.578 -7.283 4.742 -7.142 QT
4.906 -7.001 4.906 -6.751 QT
4.906 -6.705 4.898 -6.673 QT
4.891 -6.642 4.875 -6.595 QT
4.125 -3.58 L
6.078 -3.58 L
6.266 -3.58 6.266 -3.33 QT
6.266 -3.283 6.234 -3.173 QT
6.203 -3.064 6.156 -2.994 QT
6.109 -2.923 6.016 -2.923 QT
3.953 -2.923 L
2.594 2.577 L
2.453 3.108 2.453 3.499 QT
2.453 4.327 3 4.327 QT
3.844 4.327 4.484 3.538 QT
5.125 2.749 5.469 1.811 QT
5.547 1.702 5.625 1.702 QT
5.859 1.702 L
5.922 1.702 5.969 1.756 QT
6.016 1.811 6.016 1.874 QT
6.016 1.905 6 1.92 QT
5.578 3.077 4.781 3.952 QT
3.984 4.827 2.953 4.827 QT
2.203 4.827 1.688 4.334 QT
1.172 3.842 1.172 3.061 QT
cp}def
f490996158
f
GR
GS
[0.75 0 0 0.75 98.26043 41.52373] CT
N
/f-15107347{7.933 7.269 M
7.933 7.191 7.949 7.144 QT
8.918 3.269 L
9.011 2.91 9.011 2.644 QT
9.011 2.082 8.636 2.082 QT
8.23 2.082 8.035 2.566 QT
7.84 3.05 7.652 3.8 QT
7.652 3.832 7.613 3.855 QT
7.574 3.879 7.543 3.879 QT
7.386 3.879 L
7.34 3.879 7.308 3.832 QT
7.277 3.785 7.277 3.738 QT
7.418 3.175 7.551 2.785 QT
7.683 2.394 7.957 2.066 QT
8.23 1.738 8.652 1.738 QT
9.136 1.738 9.511 2.05 QT
9.886 2.363 9.886 2.832 QT
10.277 2.332 10.793 2.035 QT
11.308 1.738 11.902 1.738 QT
12.511 1.738 12.957 2.058 QT
13.402 2.379 13.402 2.957 QT
13.808 2.379 14.347 2.058 QT
14.886 1.738 15.511 1.738 QT
16.183 1.738 16.597 2.105 QT
17.011 2.472 17.011 3.144 QT
17.011 3.675 16.769 4.433 QT
16.527 5.191 16.183 6.129 QT
15.996 6.566 15.996 6.91 QT
15.996 7.285 16.293 7.285 QT
16.808 7.285 17.144 6.746 QT
17.48 6.207 17.621 5.582 QT
17.652 5.504 17.73 5.504 QT
17.871 5.504 L
17.933 5.504 17.965 5.535 QT
17.996 5.566 17.996 5.613 QT
17.996 5.629 17.98 5.66 QT
17.808 6.394 17.363 7.011 QT
16.918 7.629 16.261 7.629 QT
15.808 7.629 15.488 7.316 QT
15.168 7.004 15.168 6.55 QT
15.168 6.332 15.261 6.05 QT
15.636 5.066 15.879 4.3 QT
16.121 3.535 16.121 2.957 QT
16.121 2.582 15.98 2.332 QT
15.84 2.082 15.496 2.082 QT
14.777 2.082 14.261 2.519 QT
13.746 2.957 13.355 3.66 QT
13.34 3.8 13.324 3.863 QT
12.48 7.207 L
12.433 7.379 12.277 7.504 QT
12.121 7.629 11.933 7.629 QT
11.777 7.629 11.66 7.527 QT
11.543 7.425 11.543 7.269 QT
11.543 7.191 11.558 7.144 QT
12.386 3.832 L
12.527 3.3 12.527 2.957 QT
12.527 2.582 12.379 2.332 QT
12.23 2.082 11.871 2.082 QT
11.402 2.082 10.996 2.293 QT
10.59 2.504 10.293 2.847 QT
9.996 3.191 9.746 3.66 QT
8.871 7.207 L
8.824 7.379 8.668 7.504 QT
8.511 7.629 8.324 7.629 QT
8.168 7.629 8.051 7.527 QT
7.933 7.425 7.933 7.269 QT
cp}def
f-15107347
f
GR
GS
[0.75 0 0 0.75 98.26043 41.52373] CT
N
/f215861939{20.999 7.629 M
20.171 7.629 19.703 7.011 QT
19.234 6.394 19.234 5.55 QT
19.234 4.722 19.664 3.824 QT
20.093 2.925 20.828 2.332 QT
21.562 1.738 22.406 1.738 QT
22.796 1.738 23.101 1.949 QT
23.406 2.16 23.578 2.519 QT
23.718 2.004 24.14 2.004 QT
24.312 2.004 24.421 2.105 QT
24.531 2.207 24.531 2.363 QT
24.531 2.41 24.531 2.425 QT
24.531 2.441 24.515 2.472 QT
23.609 6.097 L
23.515 6.488 23.515 6.738 QT
23.515 7.285 23.89 7.285 QT
24.296 7.285 24.515 6.769 QT
24.734 6.254 24.874 5.582 QT
24.89 5.504 24.968 5.504 QT
25.14 5.504 L
25.187 5.504 25.218 5.55 QT
25.249 5.597 25.249 5.629 QT
25.015 6.535 24.749 7.082 QT
24.484 7.629 23.874 7.629 QT
23.437 7.629 23.101 7.371 QT
22.765 7.113 22.671 6.691 QT
21.843 7.629 20.999 7.629 QT
cp
20.999 7.285 M
21.484 7.285 21.921 6.933 QT
22.359 6.582 22.671 6.113 QT
22.687 6.097 22.687 6.066 QT
23.39 3.254 L
23.406 3.207 L
23.328 2.754 23.07 2.418 QT
22.812 2.082 22.374 2.082 QT
21.937 2.082 21.554 2.441 QT
21.171 2.8 20.921 3.285 QT
20.671 3.8 20.437 4.714 QT
20.203 5.629 20.203 6.129 QT
20.203 6.566 20.398 6.925 QT
20.593 7.285 20.999 7.285 QT
cp}def
f215861939
f
GR
GS
[0.75 0 0 0.75 98.26043 41.52373] CT
N
/f-1300662318{26.854 7.113 M
27.088 7.285 27.494 7.285 QT
27.901 7.285 28.213 6.894 QT
28.526 6.504 28.651 6.05 QT
29.229 3.738 L
29.369 3.113 29.369 2.879 QT
29.369 2.566 29.19 2.324 QT
29.01 2.082 28.682 2.082 QT
28.276 2.082 27.916 2.339 QT
27.557 2.597 27.307 2.996 QT
27.057 3.394 26.963 3.8 QT
26.932 3.879 26.854 3.879 QT
26.697 3.879 L
26.588 3.879 26.588 3.754 QT
26.588 3.722 L
26.713 3.238 27.018 2.777 QT
27.322 2.316 27.768 2.027 QT
28.213 1.738 28.713 1.738 QT
29.197 1.738 29.58 1.996 QT
29.963 2.254 30.119 2.691 QT
30.338 2.285 30.682 2.011 QT
31.026 1.738 31.447 1.738 QT
31.729 1.738 32.018 1.839 QT
32.307 1.941 32.494 2.144 QT
32.682 2.347 32.682 2.644 QT
32.682 2.988 32.463 3.222 QT
32.244 3.457 31.916 3.457 QT
31.713 3.457 31.572 3.324 QT
31.432 3.191 31.432 2.988 QT
31.432 2.707 31.619 2.504 QT
31.807 2.3 32.072 2.269 QT
31.838 2.082 31.416 2.082 QT
30.994 2.082 30.69 2.464 QT
30.385 2.847 30.26 3.332 QT
29.682 5.629 L
29.541 6.144 29.541 6.488 QT
29.541 6.816 29.729 7.05 QT
29.916 7.285 30.229 7.285 QT
30.838 7.285 31.315 6.754 QT
31.791 6.222 31.947 5.582 QT
31.979 5.504 32.057 5.504 QT
32.213 5.504 L
32.26 5.504 32.291 5.535 QT
32.322 5.566 32.322 5.613 QT
32.322 5.629 32.307 5.66 QT
32.135 6.425 31.541 7.027 QT
30.947 7.629 30.213 7.629 QT
29.729 7.629 29.346 7.371 QT
28.963 7.113 28.807 6.675 QT
28.604 7.066 28.244 7.347 QT
27.885 7.629 27.479 7.629 QT
27.197 7.629 26.901 7.535 QT
26.604 7.441 26.424 7.238 QT
26.244 7.035 26.244 6.722 QT
26.244 6.41 26.455 6.16 QT
26.666 5.91 26.979 5.91 QT
27.197 5.91 27.346 6.043 QT
27.494 6.175 27.494 6.379 QT
27.494 6.66 27.307 6.863 QT
27.119 7.066 26.854 7.113 QT
cp}def
f-1300662318
f
GR
GS
[0.75 0 0 0.75 98.26043 41.52373] CT
N
/f1430263400{41.234 2.077 M
41.078 2.077 40.977 1.959 QT
40.875 1.842 40.875 1.702 QT
40.875 1.545 40.977 1.436 QT
41.078 1.327 41.234 1.327 QT
53.172 1.327 L
53.313 1.327 53.414 1.436 QT
53.516 1.545 53.516 1.702 QT
53.516 1.842 53.414 1.959 QT
53.313 2.077 53.172 2.077 QT
41.234 2.077 L
cp
41.234 -1.611 M
41.078 -1.611 40.977 -1.72 QT
40.875 -1.83 40.875 -1.986 QT
40.875 -2.126 40.977 -2.251 QT
41.078 -2.376 41.234 -2.376 QT
53.172 -2.376 L
53.313 -2.376 53.414 -2.251 QT
53.516 -2.126 53.516 -1.986 QT
53.516 -1.83 53.414 -1.72 QT
53.313 -1.611 53.172 -1.611 QT
41.234 -1.611 L
cp}def
f1430263400
f
GR
GS
[0.75 0 0 0.75 98.26043 41.52373] CT
N
/f247493605{61.845 4.608 M
61.845 3.936 L
64.22 3.936 64.22 3.342 QT
64.22 -6.642 L
63.235 -6.158 61.735 -6.158 QT
61.735 -6.83 L
64.064 -6.83 65.251 -8.048 QT
65.517 -8.048 L
65.579 -8.048 65.642 -7.994 QT
65.704 -7.939 65.704 -7.876 QT
65.704 3.342 L
65.704 3.936 68.079 3.936 QT
68.079 4.608 L
61.845 4.608 L
cp}def
f247493605
f
GR
GS
[0.75 0 0 0.75 98.26043 41.52373] CT
N
/f-1280863142{74.429 5.03 M
72.101 5.03 71.265 3.108 QT
70.429 1.186 70.429 -1.455 QT
70.429 -3.095 70.726 -4.556 QT
71.023 -6.017 71.921 -7.033 QT
72.82 -8.048 74.429 -8.048 QT
75.679 -8.048 76.476 -7.439 QT
77.273 -6.83 77.695 -5.853 QT
78.117 -4.876 78.265 -3.775 QT
78.414 -2.673 78.414 -1.455 QT
78.414 0.186 78.117 1.608 QT
77.82 3.03 76.937 4.03 QT
76.054 5.03 74.429 5.03 QT
cp
74.429 4.53 M
75.492 4.53 76.007 3.444 QT
76.523 2.358 76.648 1.045 QT
76.773 -0.267 76.773 -1.751 QT
76.773 -3.189 76.648 -4.392 QT
76.523 -5.595 76.007 -6.572 QT
75.492 -7.548 74.429 -7.548 QT
73.351 -7.548 72.835 -6.572 QT
72.32 -5.595 72.195 -4.392 QT
72.07 -3.189 72.07 -1.751 QT
72.07 -0.705 72.125 0.233 QT
72.179 1.17 72.398 2.17 QT
72.617 3.17 73.117 3.85 QT
73.617 4.53 74.429 4.53 QT
cp}def
f-1280863142
f
GR
GS
[0.75 0 0 0.75 98.26043 41.52373] CT
N
/f168033242{80.514 -3.36 M
80.826 -2.922 81.342 -2.703 QT
81.857 -2.485 82.435 -2.485 QT
83.201 -2.485 83.514 -3.133 QT
83.826 -3.781 83.826 -4.594 QT
83.826 -4.969 83.764 -5.336 QT
83.701 -5.703 83.537 -6.016 QT
83.373 -6.328 83.1 -6.524 QT
82.826 -6.719 82.435 -6.719 QT
81.56 -6.719 L
81.451 -6.719 81.451 -6.828 QT
81.451 -6.953 L
81.451 -7.047 81.56 -7.047 QT
82.279 -7.11 L
82.732 -7.11 83.037 -7.453 QT
83.342 -7.797 83.482 -8.289 QT
83.623 -8.781 83.623 -9.219 QT
83.623 -9.844 83.334 -10.242 QT
83.045 -10.641 82.435 -10.641 QT
81.951 -10.641 81.498 -10.453 QT
81.045 -10.266 80.779 -9.891 QT
80.81 -9.891 80.826 -9.899 QT
80.842 -9.906 80.873 -9.906 QT
81.154 -9.906 81.35 -9.703 QT
81.545 -9.5 81.545 -9.203 QT
81.545 -8.922 81.35 -8.719 QT
81.154 -8.516 80.873 -8.516 QT
80.576 -8.516 80.373 -8.719 QT
80.17 -8.922 80.17 -9.203 QT
80.17 -9.766 80.506 -10.18 QT
80.842 -10.594 81.373 -10.805 QT
81.904 -11.016 82.435 -11.016 QT
82.842 -11.016 83.279 -10.899 QT
83.717 -10.781 84.068 -10.563 QT
84.42 -10.344 84.646 -10 QT
84.873 -9.656 84.873 -9.219 QT
84.873 -8.672 84.631 -8.211 QT
84.389 -7.75 83.959 -7.414 QT
83.529 -7.078 83.029 -6.906 QT
83.592 -6.797 84.1 -6.485 QT
84.607 -6.172 84.912 -5.672 QT
85.217 -5.172 85.217 -4.61 QT
85.217 -3.891 84.826 -3.313 QT
84.435 -2.735 83.795 -2.406 QT
83.154 -2.078 82.435 -2.078 QT
81.826 -2.078 81.217 -2.305 QT
80.607 -2.531 80.217 -3 QT
79.826 -3.469 79.826 -4.11 QT
79.826 -4.438 80.045 -4.649 QT
80.264 -4.86 80.576 -4.86 QT
80.795 -4.86 80.967 -4.766 QT
81.139 -4.672 81.24 -4.492 QT
81.342 -4.313 81.342 -4.11 QT
81.342 -3.797 81.115 -3.578 QT
80.889 -3.36 80.576 -3.36 QT
80.514 -3.36 L
cp}def
f168033242
f
GR
GS
[0.75 0 0 0.75 0 0] CT
0 0.447 0.741 RC
1 LJ
0.667 LW
N
88.001 55.365 M
128.013 55.365 L
S
GR
GS
[0.75 0 0 0.75 98.26043 58.97627] CT
N
/f-1932273229{1.938 2.327 M
1.938 -2.923 L
0.359 -2.923 L
0.359 -3.408 L
1.609 -3.408 2.195 -4.564 QT
2.781 -5.72 2.781 -7.08 QT
3.328 -7.08 L
3.328 -3.58 L
6 -3.58 L
6 -2.923 L
3.328 -2.923 L
3.328 2.295 L
3.328 3.077 3.586 3.67 QT
3.844 4.264 4.531 4.264 QT
5.188 4.264 5.477 3.639 QT
5.766 3.014 5.766 2.295 QT
5.766 1.17 L
6.313 1.17 L
6.313 2.327 L
6.313 2.92 6.094 3.499 QT
5.875 4.077 5.445 4.452 QT
5.016 4.827 4.406 4.827 QT
3.266 4.827 2.602 4.139 QT
1.938 3.452 1.938 2.327 QT
cp}def
f-1932273229
f
GR
GS
[0.75 0 0 0.75 98.26043 58.97627] CT
N
/f-1369976313{8.029 4.608 M
8.029 3.936 L
8.685 3.936 9.1 3.834 QT
9.514 3.733 9.514 3.342 QT
9.514 -6.642 L
9.514 -7.142 9.365 -7.369 QT
9.217 -7.595 8.928 -7.65 QT
8.639 -7.705 8.029 -7.705 QT
8.029 -8.376 L
10.857 -8.58 L
10.857 -2.048 L
11.248 -2.83 11.967 -3.306 QT
12.685 -3.783 13.545 -3.783 QT
14.857 -3.783 15.521 -3.158 QT
16.185 -2.533 16.185 -1.22 QT
16.185 3.342 L
16.185 3.733 16.607 3.834 QT
17.029 3.936 17.67 3.936 QT
17.67 4.608 L
13.326 4.608 L
13.326 3.936 L
13.967 3.936 14.389 3.834 QT
14.81 3.733 14.81 3.342 QT
14.81 -1.173 L
14.81 -2.095 14.537 -2.697 QT
14.264 -3.298 13.435 -3.298 QT
12.326 -3.298 11.615 -2.416 QT
10.904 -1.533 10.904 -0.408 QT
10.904 3.342 L
10.904 3.733 11.326 3.834 QT
11.748 3.936 12.389 3.936 QT
12.389 4.608 L
8.029 4.608 L
cp}def
f-1369976313
f
GR
GS
[0.75 0 0 0.75 98.26043 58.97627] CT
N
/f-571493527{22.868 4.827 M
21.712 4.827 20.743 4.217 QT
19.774 3.608 19.219 2.592 QT
18.665 1.577 18.665 0.436 QT
18.665 -0.673 19.172 -1.673 QT
19.68 -2.673 20.579 -3.291 QT
21.477 -3.908 22.602 -3.908 QT
23.462 -3.908 24.11 -3.619 QT
24.758 -3.33 25.172 -2.806 QT
25.587 -2.283 25.805 -1.58 QT
26.024 -0.876 26.024 -0.033 QT
26.024 0.217 25.821 0.217 QT
20.321 0.217 L
20.321 0.42 L
20.321 1.999 20.954 3.131 QT
21.587 4.264 23.04 4.264 QT
23.618 4.264 24.11 4.006 QT
24.602 3.749 24.969 3.28 QT
25.337 2.811 25.477 2.295 QT
25.493 2.217 25.54 2.17 QT
25.587 2.124 25.665 2.124 QT
25.821 2.124 L
26.024 2.124 26.024 2.358 QT
25.743 3.436 24.852 4.131 QT
23.962 4.827 22.868 4.827 QT
cp
20.337 -0.251 M
24.68 -0.251 L
24.68 -0.97 24.477 -1.705 QT
24.274 -2.439 23.813 -2.923 QT
23.352 -3.408 22.602 -3.408 QT
21.524 -3.408 20.93 -2.4 QT
20.337 -1.392 20.337 -0.251 QT
cp}def
f-571493527
f
GR
GS
[0.75 0 0 0.75 98.26043 58.97627] CT
N
/f-1746780369{31.417 4.827 M
30.276 4.827 29.3 4.241 QT
28.323 3.655 27.76 2.686 QT
27.198 1.717 27.198 0.561 QT
27.198 -0.314 27.51 -1.119 QT
27.823 -1.923 28.401 -2.556 QT
28.979 -3.189 29.745 -3.548 QT
30.51 -3.908 31.417 -3.908 QT
32.589 -3.908 33.55 -3.291 QT
34.51 -2.673 35.065 -1.642 QT
35.62 -0.611 35.62 0.561 QT
35.62 1.702 35.057 2.678 QT
34.495 3.655 33.518 4.241 QT
32.542 4.827 31.417 4.827 QT
cp
31.417 4.264 M
32.932 4.264 33.448 3.163 QT
33.964 2.061 33.964 0.342 QT
33.964 -0.611 33.862 -1.236 QT
33.76 -1.861 33.417 -2.376 QT
33.198 -2.689 32.87 -2.923 QT
32.542 -3.158 32.175 -3.283 QT
31.807 -3.408 31.417 -3.408 QT
30.823 -3.408 30.292 -3.142 QT
29.76 -2.876 29.401 -2.376 QT
29.057 -1.83 28.956 -1.189 QT
28.854 -0.548 28.854 0.342 QT
28.854 1.42 29.042 2.264 QT
29.229 3.108 29.792 3.686 QT
30.354 4.264 31.417 4.264 QT
cp}def
f-1746780369
f
GR
GS
[0.75 0 0 0.75 98.26043 58.97627] CT
N
/f418012907{36.751 4.608 M
36.751 3.936 L
37.407 3.936 37.821 3.834 QT
38.235 3.733 38.235 3.342 QT
38.235 -1.845 L
38.235 -2.361 38.087 -2.587 QT
37.939 -2.814 37.65 -2.869 QT
37.36 -2.923 36.751 -2.923 QT
36.751 -3.58 L
39.47 -3.783 L
39.47 -1.939 L
39.782 -2.751 40.345 -3.267 QT
40.907 -3.783 41.72 -3.783 QT
42.282 -3.783 42.728 -3.455 QT
43.173 -3.126 43.173 -2.58 QT
43.173 -2.236 42.931 -1.978 QT
42.689 -1.72 42.329 -1.72 QT
41.97 -1.72 41.72 -1.97 QT
41.47 -2.22 41.47 -2.58 QT
41.47 -3.08 41.829 -3.298 QT
41.72 -3.298 L
40.954 -3.298 40.47 -2.744 QT
39.985 -2.189 39.775 -1.361 QT
39.564 -0.533 39.564 0.217 QT
39.564 3.342 L
39.564 3.936 41.423 3.936 QT
41.423 4.608 L
36.751 4.608 L
cp}def
f418012907
f
GR
GS
[0.75 0 0 0.75 98.26043 58.97627] CT
N
/f1461230428{45.099 7.733 M
45.459 8.014 45.896 8.014 QT
47.084 8.014 47.849 6.202 QT
48.506 4.608 L
45.646 -2.376 L
45.474 -2.72 45.115 -2.822 QT
44.756 -2.923 44.146 -2.923 QT
44.146 -3.58 L
48.131 -3.58 L
48.131 -2.923 L
47.084 -2.923 47.084 -2.455 QT
47.084 -2.392 47.115 -2.345 QT
49.224 2.842 L
51.131 -1.83 L
51.177 -1.986 51.177 -2.158 QT
51.177 -2.392 51.052 -2.564 QT
50.927 -2.736 50.732 -2.83 QT
50.537 -2.923 50.287 -2.923 QT
50.287 -3.58 L
53.443 -3.58 L
53.443 -2.923 L
52.849 -2.923 52.412 -2.65 QT
51.974 -2.376 51.724 -1.845 QT
48.443 6.202 L
48.177 6.811 47.834 7.327 QT
47.49 7.842 46.99 8.17 QT
46.49 8.499 45.896 8.499 QT
45.193 8.499 44.67 8.045 QT
44.146 7.592 44.146 6.905 QT
44.146 6.561 44.388 6.319 QT
44.631 6.077 44.99 6.077 QT
45.224 6.077 45.412 6.178 QT
45.599 6.28 45.709 6.467 QT
45.818 6.655 45.818 6.905 QT
45.818 7.217 45.615 7.459 QT
45.412 7.702 45.099 7.733 QT
cp}def
f1461230428
f
GR
GS
[0.75 0 0 0.75 0 0] CT
0.851 0.325 0.098 RC
1 LJ
0.667 LW
N
88.001 78.635 M
128.013 78.635 L
S
GR
GS
[0.75 0 0 0.75 0 0] CT
0.149 GC
10.0 ML
0.667 LW
N
84 92 M
84 42 L
222 42 L
222 92 L
cp
S
GR
%%Trailer
%%Pages: 1
%%EOF
